<?xml version="1.0" encoding="utf-8"?>
<COLLADA xmlns="http://www.collada.org/2005/11/COLLADASchema" version="1.4.1">
  <asset>
    <contributor>
      <author>Blender User</author>
      <authoring_tool>Blender 2.71.0 commit date:2014-06-25, commit time:18:36, hash:9337574</authoring_tool>
    </contributor>
    <created>2014-11-09T18:25:47</created>
    <modified>2014-11-09T18:25:47</modified>
    <unit name="meter" meter="1"/>
    <up_axis>Z_UP</up_axis>
  </asset>
  <library_cameras>
    <camera id="Camera-camera" name="Camera">
      <optics>
        <technique_common>
          <perspective>
            <xfov sid="xfov">49.13434</xfov>
            <aspect_ratio>1</aspect_ratio>
            <znear sid="znear">0.1</znear>
            <zfar sid="zfar">100</zfar>
          </perspective>
        </technique_common>
      </optics>
      <extra>
        <technique profile="blender">
          <YF_dofdist>0</YF_dofdist>
          <shiftx>0</shiftx>
          <shifty>0</shifty>
        </technique>
      </extra>
    </camera>
  </library_cameras>
  <library_images>
    <image id="Wood_jpg" name="Wood_jpg">
      <init_from>Wood.jpg</init_from>
    </image>
  </library_images>
  <library_effects>
    <effect id="Wood-effect">
      <profile_COMMON>
        <newparam sid="Wood_jpg-surface">
          <surface type="2D">
            <init_from>Wood_jpg</init_from>
          </surface>
        </newparam>
        <newparam sid="Wood_jpg-sampler">
          <sampler2D>
            <source>Wood_jpg-surface</source>
          </sampler2D>
        </newparam>
        <technique sid="common">
          <lambert>
            <emission>
              <color sid="emission">0 0 0 1</color>
            </emission>
            <ambient>
              <color sid="ambient">0 0 0 1</color>
            </ambient>
            <diffuse>
              <texture texture="Wood_jpg-sampler" texcoord="UVMap"/>
            </diffuse>
            <index_of_refraction>
              <float sid="index_of_refraction">1</float>
            </index_of_refraction>
          </lambert>
        </technique>
      </profile_COMMON>
    </effect>
  </library_effects>
  <library_materials>
    <material id="Wood-material" name="Wood">
      <instance_effect url="#Wood-effect"/>
    </material>
  </library_materials>
  <library_geometries>
    <geometry id="Cube_012-mesh" name="Cube.012">
      <mesh>
        <source id="Cube_012-mesh-positions">
          <float_array id="Cube_012-mesh-positions-array" count="72">-3.21931 -0.07685345 3.343892 -3.21931 0.07685369 3.343892 -3.065603 0.07685369 3.343892 -3.065603 -0.07685345 3.343892 -0.07685375 -0.07685345 3.343892 -0.07685375 0.07685369 3.343892 0.07685351 0.07685369 3.343892 0.07685351 -0.07685345 3.343892 3.065603 -0.07685345 3.343892 3.065603 0.07685369 3.343892 3.21931 0.07685369 3.343892 3.21931 -0.07685345 3.343892 -3.21931 -0.07685345 -3.343891 -3.21931 0.07685369 -3.343891 -3.065603 0.07685369 -3.343891 -3.065603 -0.07685345 -3.343891 -0.07685375 -0.07685345 -3.343891 -0.07685375 0.07685369 -3.343891 0.07685351 0.07685369 -3.343891 0.07685351 -0.07685345 -3.343891 3.065603 -0.07685345 -3.343891 3.065603 0.07685369 -3.343891 3.21931 0.07685369 -3.343891 3.21931 -0.07685345 -3.343891</float_array>
          <technique_common>
            <accessor source="#Cube_012-mesh-positions-array" count="24" stride="3">
              <param name="X" type="float"/>
              <param name="Y" type="float"/>
              <param name="Z" type="float"/>
            </accessor>
          </technique_common>
        </source>
        <source id="Cube_012-mesh-normals">
          <float_array id="Cube_012-mesh-normals-array" count="72">0 -1 0 1 0 0 0 1 0 -1 0 0 0 -1 0 1 0 0 0 1 0 -1 0 0 0 -1 0 1 0 0 0 1 0 -1 0 0 0 -1 0 1 0 0 0 1 0 -1 0 0 0 -1 0 1 0 0 0 1 0 -1 0 0 0 -1 0 1 0 0 0 1 0 -1 0 0</float_array>
          <technique_common>
            <accessor source="#Cube_012-mesh-normals-array" count="24" stride="3">
              <param name="X" type="float"/>
              <param name="Y" type="float"/>
              <param name="Z" type="float"/>
            </accessor>
          </technique_common>
        </source>
        <source id="Cube_012-mesh-map-0">
          <float_array id="Cube_012-mesh-map-0-array" count="144">0.3155872 2.200665 0.242264 2.200665 0.2422609 -0.9896014 0.3889101 2.200665 0.3155872 2.200665 0.3155805 -0.9896026 0.4622333 2.200664 0.3889101 2.200665 0.3889003 -0.9896031 0.242264 2.200665 0.1689412 2.200665 0.1689412 -0.9896008 0.5455787 2.199244 0.4722557 2.199245 0.4722589 -0.991023 0.6189016 2.199244 0.5455787 2.199244 0.5455787 -0.991023 0.6922246 2.199244 0.6189016 2.199244 0.6188983 -0.991023 0.4722557 2.199245 0.3989328 2.199244 0.398939 -0.9910237 0.09006947 2.199292 0.01674652 2.199267 0.01784491 -0.9909995 0.1633923 2.199317 0.09006947 2.199292 0.09116464 -0.9909749 0.2367153 2.199342 0.1633923 2.199317 0.1644844 -0.9909502 0.01674652 2.199267 -0.05657619 2.199242 -0.05547469 -0.9910237 0.3155805 -0.9896026 0.3155872 2.200665 0.2422609 -0.9896014 0.3889003 -0.9896031 0.3889101 2.200665 0.3155805 -0.9896026 0.4622201 -0.9896033 0.4622333 2.200664 0.3889003 -0.9896031 0.2422609 -0.9896014 0.242264 2.200665 0.1689412 -0.9896008 0.5455787 -0.991023 0.5455787 2.199244 0.4722589 -0.991023 0.6188983 -0.991023 0.6189016 2.199244 0.5455787 -0.991023 0.6922181 -0.9910237 0.6922246 2.199244 0.6188983 -0.991023 0.4722589 -0.991023 0.4722557 2.199245 0.398939 -0.9910237 0.09116464 -0.9909749 0.09006947 2.199292 0.01784491 -0.9909995 0.1644844 -0.9909502 0.1633923 2.199317 0.09116464 -0.9909749 0.2378041 -0.9909248 0.2367153 2.199342 0.1644844 -0.9909502 0.01784491 -0.9909995 0.01674652 2.199267 -0.05547469 -0.9910237</float_array>
          <technique_common>
            <accessor source="#Cube_012-mesh-map-0-array" count="72" stride="2">
              <param name="S" type="float"/>
              <param name="T" type="float"/>
            </accessor>
          </technique_common>
        </source>
        <vertices id="Cube_012-mesh-vertices">
          <input semantic="POSITION" source="#Cube_012-mesh-positions"/>
        </vertices>
        <polylist material="Wood-material" count="24">
          <input semantic="VERTEX" source="#Cube_012-mesh-vertices" offset="0"/>
          <input semantic="NORMAL" source="#Cube_012-mesh-normals" offset="1"/>
          <input semantic="TEXCOORD" source="#Cube_012-mesh-map-0" offset="2" set="0"/>
          <vcount>3 3 3 3 3 3 3 3 3 3 3 3 3 3 3 3 3 3 3 3 3 3 3 3 </vcount>
          <p>11 0 0 8 0 1 20 0 2 10 1 3 11 1 4 23 1 5 9 2 6 10 2 7 22 2 8 8 3 9 9 3 10 21 3 11 7 4 12 4 4 13 16 4 14 6 5 15 7 5 16 19 5 17 5 6 18 6 6 19 18 6 20 4 7 21 5 7 22 17 7 23 3 8 24 0 8 25 12 8 26 2 9 27 3 9 28 15 9 29 1 10 30 2 10 31 14 10 32 0 11 33 1 11 34 13 11 35 23 12 36 11 12 37 20 12 38 22 13 39 10 13 40 23 13 41 21 14 42 9 14 43 22 14 44 20 15 45 8 15 46 21 15 47 19 16 48 7 16 49 16 16 50 18 17 51 6 17 52 19 17 53 17 18 54 5 18 55 18 18 56 16 19 57 4 19 58 17 19 59 15 20 60 3 20 61 12 20 62 14 21 63 2 21 64 15 21 65 13 22 66 1 22 67 14 22 68 12 23 69 0 23 70 13 23 71</p>
        </polylist>
      </mesh>
    </geometry>
    <geometry id="Cube_013-mesh" name="Cube.013">
      <mesh>
        <source id="Cube_013-mesh-positions">
          <float_array id="Cube_013-mesh-positions-array" count="96">-0.1128522 -0.1128522 -0.04262262 -0.1128522 0.8907806 -0.04262262 0.05217379 0.8907806 -0.04262262 0.05217379 -0.1128522 -0.04262262 -0.1128522 -0.1128522 0.1128522 -0.1128522 0.8907806 0.1128522 0.05217379 0.8907806 0.1128522 0.05217379 -0.1128522 0.1128522 3.030179 -0.1128522 -0.04262262 3.030179 0.8907806 -0.04262262 3.195205 0.8907806 -0.04262262 3.195205 -0.1128522 -0.04262262 3.030179 -0.1128522 0.1128522 3.030179 0.8907806 0.1128522 3.195205 0.8907806 0.1128522 3.195205 -0.1128522 0.1128522 6.168902 -0.1128522 -0.04262262 6.168902 0.8907806 -0.04262262 6.333928 0.8907806 -0.04262262 6.333928 -0.1128522 -0.04262262 6.168902 -0.1128522 0.1128522 6.168902 0.8907806 0.1128522 6.333928 0.8907806 0.1128522 6.333928 -0.1128522 0.1128522 -0.02204722 0.0967279 -0.02459096 6.178936 0.09672707 -0.02459096 6.178936 -0.05974406 -0.02459096 -0.02204746 -0.05974328 -0.02459096 -0.02204722 0.0967279 0.1228242 6.178936 0.09672707 0.1228242 6.178936 -0.05974406 0.1228242 -0.02204746 -0.05974328 0.1228242</float_array>
          <technique_common>
            <accessor source="#Cube_013-mesh-positions-array" count="32" stride="3">
              <param name="X" type="float"/>
              <param name="Y" type="float"/>
              <param name="Z" type="float"/>
            </accessor>
          </technique_common>
        </source>
        <source id="Cube_013-mesh-normals">
          <float_array id="Cube_013-mesh-normals-array" count="90">-1 0 0 -1 0 0 1 0 0 0 -1 0 0 0 -1 1 0 0 0 -1 0 0 0 -1 -1 0 0 1 0 0 0 -1 0 0 0 -1 1.30965e-7 1 0 -1.30965e-7 -1 0 0 0 -1 -1 0 0 -1 0 0 1 0 0 0 -1 0 0 0 -1 1 0 0 0 -1 0 0 0 -1 -1 0 0 1 0 0 0 -1 0 0 0 -1 1.30965e-7 1 0 -1.30965e-7 -1 0 0 0 -1</float_array>
          <technique_common>
            <accessor source="#Cube_013-mesh-normals-array" count="30" stride="3">
              <param name="X" type="float"/>
              <param name="Y" type="float"/>
              <param name="Z" type="float"/>
            </accessor>
          </technique_common>
        </source>
        <source id="Cube_013-mesh-map-0">
          <float_array id="Cube_013-mesh-map-0-array" count="180">0.4747146 0.6683373 0.4747141 0.1879106 0.5454891 0.1879106 0.4747146 0.6683373 0.4747141 0.1879106 0.5454891 0.1879106 0.3995913 0.1879108 0.3995917 0.6683374 0.3288167 0.6683374 0.691475 0.5893411 0.691475 0.6683371 0.6207001 0.6683371 0.5454896 0.6683372 0.5454891 0.1879106 0.620612 0.1879104 0.3995913 0.1879108 0.3995917 0.6683374 0.3288167 0.6683374 0.691475 0.5893411 0.691475 0.6683371 0.6207001 0.6683371 0.5454896 0.6683372 0.5454891 0.1879106 0.620612 0.1879104 0.4747146 0.6683373 0.4747141 0.1879106 0.5454891 0.1879106 0.3995913 0.1879108 0.3995917 0.6683374 0.3288167 0.6683374 0.691475 0.5893411 0.691475 0.6683371 0.6207001 0.6683371 0.5454896 0.6683372 0.5454891 0.1879106 0.620612 0.1879104 0.3930308 1.756853 0.3930456 -1.634305 0.4697105 -1.634305 0.6277439 -1.634305 0.627748 1.756854 0.551083 1.756854 0.4697053 1.756853 0.4697105 -1.634305 0.5510855 -1.634305 0.5454896 0.6683372 0.4747146 0.6683373 0.5454891 0.1879106 0.5454896 0.6683372 0.4747146 0.6683373 0.5454891 0.1879106 0.3288164 0.1879109 0.3995913 0.1879108 0.3288167 0.6683374 0.6207001 0.5893412 0.691475 0.5893411 0.6207001 0.6683371 0.6206125 0.6683371 0.5454896 0.6683372 0.620612 0.1879104 0.3288164 0.1879109 0.3995913 0.1879108 0.3288167 0.6683374 0.6207001 0.5893412 0.691475 0.5893411 0.6207001 0.6683371 0.6206125 0.6683371 0.5454896 0.6683372 0.620612 0.1879104 0.5454896 0.6683372 0.4747146 0.6683373 0.5454891 0.1879106 0.3288164 0.1879109 0.3995913 0.1879108 0.3288167 0.6683374 0.6207001 0.5893412 0.691475 0.5893411 0.6207001 0.6683371 0.6206125 0.6683371 0.5454896 0.6683372 0.620612 0.1879104 0.4697053 1.756853 0.3930308 1.756853 0.4697105 -1.634305 0.5510855 -1.634305 0.6277439 -1.634305 0.551083 1.756854 0.551083 1.756854 0.4697053 1.756853 0.5510855 -1.634305</float_array>
          <technique_common>
            <accessor source="#Cube_013-mesh-map-0-array" count="90" stride="2">
              <param name="S" type="float"/>
              <param name="T" type="float"/>
            </accessor>
          </technique_common>
        </source>
        <vertices id="Cube_013-mesh-vertices">
          <input semantic="POSITION" source="#Cube_013-mesh-positions"/>
        </vertices>
        <polylist material="Wood-material" count="30">
          <input semantic="VERTEX" source="#Cube_013-mesh-vertices" offset="0"/>
          <input semantic="NORMAL" source="#Cube_013-mesh-normals" offset="1"/>
          <input semantic="TEXCOORD" source="#Cube_013-mesh-map-0" offset="2" set="0"/>
          <vcount>3 3 3 3 3 3 3 3 3 3 3 3 3 3 3 3 3 3 3 3 3 3 3 3 3 3 3 3 3 3 </vcount>
          <p>4 0 0 5 0 1 1 0 2 12 1 3 13 1 4 9 1 5 6 2 6 7 2 7 3 2 8 7 3 9 4 3 10 0 3 11 0 4 12 1 4 13 2 4 14 14 5 15 15 5 16 11 5 17 15 6 18 12 6 19 8 6 20 8 7 21 9 7 22 10 7 23 20 8 24 21 8 25 17 8 26 22 9 27 23 9 28 19 9 29 23 10 30 20 10 31 16 10 32 16 11 33 17 11 34 18 11 35 28 12 36 29 12 37 25 12 38 30 13 39 31 13 40 27 13 41 24 14 42 25 14 43 26 14 44 0 15 45 4 15 46 1 15 47 8 16 48 12 16 49 9 16 50 2 17 51 6 17 52 3 17 53 3 18 54 7 18 55 0 18 56 3 19 57 0 19 58 2 19 59 10 20 60 14 20 61 11 20 62 11 21 63 15 21 64 8 21 65 11 22 66 8 22 67 10 22 68 16 23 69 20 23 70 17 23 71 18 24 72 22 24 73 19 24 74 19 25 75 23 25 76 16 25 77 19 26 78 16 26 79 18 26 80 24 27 81 28 27 82 25 27 83 26 28 84 30 28 85 27 28 86 27 29 87 24 29 88 26 29 89</p>
        </polylist>
      </mesh>
    </geometry>
    <geometry id="Cube_014-mesh" name="Cube.014">
      <mesh>
        <source id="Cube_014-mesh-positions">
          <float_array id="Cube_014-mesh-positions-array" count="504">6.235215 0.08655011 -1.331038 6.33152 0.08655005 -1.331038 6.331514 -0.8662042 -1.331038 6.235209 -0.866204 -1.331038 6.235215 0.08655011 -1.234733 6.33152 0.08655005 -1.234733 6.331514 -0.8662042 -1.234733 6.235209 -0.866204 -1.234733 6.25599 -0.2720815 -2.189687 6.310744 -0.2720816 -2.189687 6.310744 -0.3268358 -2.189687 6.25599 -0.3268358 -2.189687 6.25599 -0.2720815 -1.329634 6.310744 -0.2720816 -1.329634 6.310744 -0.3268358 -1.329634 6.25599 -0.3268358 -1.329634 6.25599 -0.5732302 -2.189687 6.310744 -0.5732303 -2.189687 6.310744 -0.6279845 -2.189687 6.25599 -0.6279844 -2.189687 6.25599 -0.5732302 -1.329634 6.310744 -0.5732303 -1.329634 6.310744 -0.6279845 -1.329634 6.25599 -0.6279844 -1.329634 -0.01850837 -0.2720815 -2.189687 0.03624582 -0.2720816 -2.189687 0.03624576 -0.3268358 -2.189687 -0.01850843 -0.3268358 -2.189687 -0.01850837 -0.2720815 -1.329634 0.03624582 -0.2720816 -1.329634 0.03624576 -0.3268358 -1.329634 -0.01850843 -0.3268358 -1.329634 -0.01850837 -0.5732302 -2.189687 0.03624582 -0.5732303 -2.189687 0.03624576 -0.6279845 -2.189687 -0.01850843 -0.6279844 -2.189687 -0.01850837 -0.5732302 -1.329634 0.03624582 -0.5732303 -1.329634 0.03624576 -0.6279845 -1.329634 -0.01850843 -0.6279844 -1.329634 -0.03928351 0.08655011 -1.331038 0.05702143 0.08655005 -1.331038 0.05701601 -0.8662042 -1.331038 -0.03928893 -0.866204 -1.331038 -0.03928351 0.08655011 -1.234733 0.05702143 0.08655005 -1.234733 0.05701601 -0.8662042 -1.234733 -0.03928893 -0.866204 -1.234733 0.04534888 -0.8952434 -1.331038 0.04534888 -0.7989384 -1.331038 6.233247 -0.7989384 -1.331038 6.233247 -0.8952434 -1.331038 0.04534888 -0.8952434 -1.234733 0.04534888 -0.7989384 -1.234733 6.233247 -0.7989384 -1.234733 6.233247 -0.8952434 -1.234733 3.485162 -0.8744679 -2.189687 3.485162 -0.8197137 -2.189687 3.539916 -0.8197137 -2.189687 3.539916 -0.8744679 -2.189687 3.485162 -0.8744679 -1.329634 3.485162 -0.8197137 -1.329634 3.539916 -0.8197137 -1.329634 3.539916 -0.8744679 -1.329634 3.884868 -0.8744679 -2.189687 3.884868 -0.8197137 -2.189687 3.939622 -0.8197137 -2.189687 3.939622 -0.8744679 -2.189687 3.884868 -0.8744679 -1.329634 3.884868 -0.8197137 -1.329634 3.939622 -0.8197137 -1.329634 3.939622 -0.8744679 -1.329634 4.284574 -0.8744679 -2.189687 4.284574 -0.8197137 -2.189687 4.339328 -0.8197137 -2.189687 4.339328 -0.8744679 -2.189687 4.284574 -0.8744679 -1.329634 4.284574 -0.8197137 -1.329634 4.339328 -0.8197137 -1.329634 4.339328 -0.8744679 -1.329634 4.684279 -0.8744679 -2.189687 4.684279 -0.8197137 -2.189687 4.739034 -0.8197137 -2.189687 4.739034 -0.8744679 -2.189687 4.684279 -0.8744679 -1.329634 4.684279 -0.8197137 -1.329634 4.739034 -0.8197137 -1.329634 4.739034 -0.8744679 -1.329634 5.083985 -0.8744679 -2.189687 5.083985 -0.8197137 -2.189687 5.13874 -0.8197137 -2.189687 5.13874 -0.8744679 -2.189687 5.083985 -0.8744679 -1.329634 5.083985 -0.8197137 -1.329634 5.13874 -0.8197137 -1.329634 5.13874 -0.8744679 -1.329634 5.483692 -0.8744679 -2.189687 5.483692 -0.8197137 -2.189687 5.538445 -0.8197137 -2.189687 5.538445 -0.8744679 -2.189687 5.483692 -0.8744679 -1.329634 5.483692 -0.8197137 -1.329634 5.538445 -0.8197137 -1.329634 5.538445 -0.8744679 -1.329634 5.883398 -0.8744679 -2.189687 5.883398 -0.8197137 -2.189687 5.938152 -0.8197137 -2.189687 5.938152 -0.8744679 -2.189687 5.883398 -0.8744679 -1.329634 5.883398 -0.8197137 -1.329634 5.938152 -0.8197137 -1.329634 5.938152 -0.8744679 -1.329634 0.3501308 -0.8744679 -2.189687 0.3501308 -0.8197137 -2.189687 0.4048851 -0.8197137 -2.189687 0.4048851 -0.8744679 -2.189687 0.3501308 -0.8744679 -1.329634 0.3501308 -0.8197137 -1.329634 0.4048851 -0.8197137 -1.329634 0.4048851 -0.8744679 -1.329634 0.7498368 -0.8744679 -2.189687 0.7498368 -0.8197137 -2.189687 0.8045911 -0.8197137 -2.189687 0.8045911 -0.8744679 -2.189687 0.7498368 -0.8744679 -1.329634 0.7498368 -0.8197137 -1.329634 0.8045911 -0.8197137 -1.329634 0.8045911 -0.8744679 -1.329634 1.149543 -0.8744679 -2.189687 1.149543 -0.8197137 -2.189687 1.204297 -0.8197137 -2.189687 1.204297 -0.8744679 -2.189687 1.149543 -0.8744679 -1.329634 1.149543 -0.8197137 -1.329634 1.204297 -0.8197137 -1.329634 1.204297 -0.8744679 -1.329634 1.549249 -0.8744679 -2.189687 1.549249 -0.8197137 -2.189687 1.604003 -0.8197137 -2.189687 1.604003 -0.8744679 -2.189687 1.549249 -0.8744679 -1.329634 1.549249 -0.8197137 -1.329634 1.604003 -0.8197137 -1.329634 1.604003 -0.8744679 -1.329634 1.948955 -0.8744679 -2.189687 1.948955 -0.8197137 -2.189687 2.003709 -0.8197137 -2.189687 2.003709 -0.8744679 -2.189687 1.948955 -0.8744679 -1.329634 1.948955 -0.8197137 -1.329634 2.003709 -0.8197137 -1.329634 2.003709 -0.8744679 -1.329634 2.348661 -0.8744679 -2.189687 2.348661 -0.8197137 -2.189687 2.403415 -0.8197137 -2.189687 2.403415 -0.8744679 -2.189687 2.348661 -0.8744679 -1.329634 2.348661 -0.8197137 -1.329634 2.403415 -0.8197137 -1.329634 2.403415 -0.8744679 -1.329634 2.748367 -0.8744679 -2.189687 2.748367 -0.8197137 -2.189687 2.803121 -0.8197137 -2.189687 2.803121 -0.8744679 -2.189687 2.748367 -0.8744679 -1.329634 2.748367 -0.8197137 -1.329634 2.803121 -0.8197137 -1.329634 2.803121 -0.8744679 -1.329634</float_array>
          <technique_common>
            <accessor source="#Cube_014-mesh-positions-array" count="168" stride="3">
              <param name="X" type="float"/>
              <param name="Y" type="float"/>
              <param name="Z" type="float"/>
            </accessor>
          </technique_common>
        </source>
        <source id="Cube_014-mesh-normals">
          <float_array id="Cube_014-mesh-normals-array" count="504">1 -5.50531e-6 0 -1 5.50531e-6 0 0 0 -1 0 0 1 1.08858e-6 1 0 1 0 0 -1.08858e-6 -1 0 -1 0 0 2.17717e-6 1 0 1 0 0 -2.17717e-6 -1 0 -1 0 0 1.08858e-6 1 0 1 -9.52512e-7 0 -1.08858e-6 -1 0 -1 8.84475e-7 0 2.17717e-6 1 0 1 -9.52512e-7 0 -2.17717e-6 -1 0 -1 8.84475e-7 0 1 -5.70472e-6 0 -1 5.70081e-6 0 0 0 -1 0 0 1 0 1 0 0 -1 0 0 0 -1 0 0 1 -1 0 0 0 1 0 1 0 0 0 -1 0 -1 0 0 0 1 0 1 0 0 0 -1 0 -1 0 0 0 1 0 1 0 0 0 -1 0 -1 0 0 0 1 0 1 0 0 0 -1 0 -1 0 0 0 1 0 1 0 0 0 -1 0 -1 0 0 0 1 0 1 0 0 0 -1 0 -1 0 0 0 1 0 1 0 0 0 -1 0 -1 0 0 0 1 0 1 0 0 0 -1 0 -1 0 0 0 1 0 1 0 0 0 -1 0 -1 0 0 0 1 0 1 0 0 0 -1 0 -1 0 0 0 1 0 1 0 0 0 -1 0 -1 0 0 0 1 0 1 0 0 0 -1 0 -1 0 0 0 1 0 1 0 0 0 -1 0 -1 0 0 0 1 0 1 0 0 0 -1 0 1 -5.50531e-6 0 -1 5.50531e-6 0 0 0 -1 0 0 1 1.08858e-6 1 0 1 0 0 -1.08858e-6 -1 0 -1 0 0 2.17717e-6 1 0 1 0 0 -2.17717e-6 -1 0 -1 0 0 1.08858e-6 1 0 1 -9.52512e-7 0 -1.08858e-6 -1 0 -1 8.84475e-7 0 2.17717e-6 1 0 1 -9.52512e-7 0 -2.17717e-6 -1 0 -1 8.84475e-7 0 1 -5.70472e-6 0 -1 5.70081e-6 0 0 0 -1 0 0 1 0 1 0 0 -1 0 0 0 -1 0 0 1 -1 0 0 0 1 0 1 0 0 0 -1 0 -1 0 0 0 1 0 1 0 0 0 -1 0 -1 0 0 0 1 0 1 0 0 0 -1 0 -1 0 0 0 1 0 1 0 0 0 -1 0 -1 0 0 0 1 0 1 0 0 0 -1 0 -1 0 0 0 1 0 1 0 0 0 -1 0 -1 0 0 0 1 0 1 0 0 0 -1 0 -1 0 0 0 1 0 1 0 0 0 -1 0 -1 0 0 0 1 0 1 0 0 0 -1 0 -1 0 0 0 1 0 1 0 0 0 -1 0 -1 0 0 0 1 0 1 0 0 0 -1 0 -1 0 0 0 1 0 1 0 0 0 -1 0 -1 0 0 0 1 0 1 0 0 0 -1 0 -1 0 0 0 1 0 1 0 0 0 -1 0</float_array>
          <technique_common>
            <accessor source="#Cube_014-mesh-normals-array" count="168" stride="3">
              <param name="X" type="float"/>
              <param name="Y" type="float"/>
              <param name="Z" type="float"/>
            </accessor>
          </technique_common>
        </source>
        <source id="Cube_014-mesh-map-0">
          <float_array id="Cube_014-mesh-map-0-array" count="1008">0.4718629 -0.113373 0.4718636 0.6997674 0.3937007 0.6997674 0.5500266 0.6997676 0.5500255 -0.1133727 0.6281884 -0.1133729 0.3155369 -0.1133726 0.3936998 -0.1133731 0.3937007 0.6997674 0.4718636 0.6997674 0.4718629 -0.113373 0.5500255 -0.1133727 0.5530644 1.167971 0.4736649 1.167971 0.4736645 -0.07919293 0.4736649 1.167971 0.3942658 1.167971 0.3942649 -0.07919293 0.3942658 1.167971 0.3148665 1.167971 0.3148653 -0.07919281 0.6324636 1.167971 0.5530644 1.167971 0.5530641 -0.07919293 0.6244885 1.183507 0.5450891 1.183507 0.5450886 -0.06365668 0.5450891 1.183507 0.4656899 1.183507 0.465689 -0.06365668 0.4656899 1.183507 0.3862906 1.183507 0.3862894 -0.06365656 0.7038878 1.183507 0.6244885 1.183507 0.6244882 -0.06365668 0.3088464 1.113604 0.2307727 1.113604 0.2307727 -0.1127377 0.5430672 1.113605 0.4649937 1.113605 0.4649947 -0.1127376 0.4649937 1.113605 0.3869199 1.113604 0.3869207 -0.1127376 0.3869199 1.113604 0.3088464 1.113604 0.3088467 -0.1127377 0.1608915 1.102767 0.08281797 1.102767 0.08281797 -0.1235749 0.3951124 1.102767 0.3170388 1.102767 0.31704 -0.1235748 0.3170388 1.102767 0.2389652 1.102767 0.2389659 -0.1235748 0.2389652 1.102767 0.1608915 1.102767 0.160892 -0.1235749 0.5488656 -0.09798532 0.5488659 0.6905939 0.4730638 0.6905939 0.6246678 0.6905942 0.6246672 -0.09798496 0.7004693 -0.09798491 0.7004693 -0.09798491 0.7762714 -0.09798538 0.7762721 0.6905937 0.5488659 0.6905939 0.5488656 -0.09798532 0.6246672 -0.09798496 0.5483762 2.40739 0.5483738 -2.208635 0.6249942 -2.208779 0.4717537 -2.208788 0.4717564 2.407237 0.395136 2.407381 0.395136 2.407381 0.3185162 2.407229 0.3185136 -2.208797 0.4717537 -2.208788 0.5483738 -2.208635 0.5483762 2.40739 0.3177882 1.08461 0.2421063 1.08461 0.2421047 -0.1041637 0.544834 1.084611 0.4691521 1.08461 0.4691516 -0.104164 0.4691521 1.08461 0.3934701 1.08461 0.3934693 -0.1041638 0.3934701 1.08461 0.3177882 1.08461 0.317787 -0.1041638 0.4801157 1.113463 0.4044338 1.113463 0.4044322 -0.07531076 0.7071616 1.113463 0.6314796 1.113463 0.6314791 -0.075311 0.6314796 1.113463 0.5557976 1.113463 0.5557969 -0.07531088 0.5557976 1.113463 0.4801157 1.113463 0.4801145 -0.07531088 0.3177882 1.08461 0.2421063 1.08461 0.2421047 -0.1041637 0.544834 1.084611 0.4691521 1.08461 0.4691516 -0.104164 0.4691521 1.08461 0.3934701 1.08461 0.3934693 -0.1041638 0.3934701 1.08461 0.3177882 1.08461 0.317787 -0.1041638 0.4736226 1.137877 0.3979407 1.137877 0.3979392 -0.0508967 0.7006685 1.137878 0.6249865 1.137877 0.624986 -0.05089694 0.6249865 1.137877 0.5493046 1.137877 0.5493038 -0.05089682 0.5493046 1.137877 0.4736226 1.137877 0.4736214 -0.05089682 0.3177882 1.08461 0.2421063 1.08461 0.2421047 -0.1041637 0.544834 1.084611 0.4691521 1.08461 0.4691516 -0.104164 0.4691521 1.08461 0.3934701 1.08461 0.3934693 -0.1041638 0.3934701 1.08461 0.3177882 1.08461 0.317787 -0.1041638 0.4000341 1.100147 0.3243522 1.100147 0.3243507 -0.08862751 0.62708 1.100147 0.551398 1.100147 0.5513976 -0.08862775 0.551398 1.100147 0.4757161 1.100147 0.4757153 -0.08862763 0.4757161 1.100147 0.4000341 1.100147 0.4000329 -0.08862763 0.3177882 1.08461 0.2421063 1.08461 0.2421047 -0.1041637 0.544834 1.084611 0.4691521 1.08461 0.4691516 -0.104164 0.4691521 1.08461 0.3934701 1.08461 0.3934693 -0.1041638 0.3934701 1.08461 0.3177882 1.08461 0.317787 -0.1041638 0.07646763 1.146466 0.001219511 1.146466 0.001217961 -0.03549361 0.3022119 1.146467 0.2269639 1.146467 0.2269634 -0.03549385 0.2269639 1.146467 0.1517157 1.146467 0.1517149 -0.03549379 0.1517157 1.146467 0.07646763 1.146466 0.07646644 -0.03549373 0.3216498 1.150801 0.2464017 1.150801 0.2464001 -0.03115868 0.5473942 1.150802 0.4721461 1.150802 0.4721456 -0.03115892 0.4721461 1.150802 0.3968979 1.150802 0.3968971 -0.03115886 0.3968979 1.150802 0.3216498 1.150801 0.3216487 -0.0311588 0.07646763 1.146466 0.001219511 1.146466 0.001217961 -0.03549361 0.3022119 1.146467 0.2269639 1.146467 0.2269634 -0.03549385 0.2269639 1.146467 0.1517157 1.146467 0.1517149 -0.03549379 0.1517157 1.146467 0.07646763 1.146466 0.07646644 -0.03549373 0.6929065 1.144559 0.6176584 1.144559 0.6176568 -0.03740096 0.9186508 1.144559 0.8434028 1.144559 0.8434023 -0.03740119 0.8434028 1.144559 0.7681546 1.144559 0.7681538 -0.03740113 0.7681546 1.144559 0.6929065 1.144559 0.6929053 -0.03740108 0.07646763 1.146466 0.001219511 1.146466 0.001217961 -0.03549361 0.3022119 1.146467 0.2269639 1.146467 0.2269634 -0.03549385 0.2269639 1.146467 0.1517157 1.146467 0.1517149 -0.03549379 0.1517157 1.146467 0.07646763 1.146466 0.07646644 -0.03549373 0.314548 1.168661 0.2392998 1.168661 0.2392983 -0.01329898 0.5402923 1.168661 0.4650442 1.168661 0.4650438 -0.01329922 0.4650442 1.168661 0.3897961 1.168661 0.3897953 -0.01329916 0.3897961 1.168661 0.314548 1.168661 0.3145468 -0.0132991 0.07646763 1.146466 0.001219511 1.146466 0.001217961 -0.03549361 0.3022119 1.146467 0.2269639 1.146467 0.2269634 -0.03549385 0.2269639 1.146467 0.1517157 1.146467 0.1517149 -0.03549379 0.1517157 1.146467 0.07646763 1.146466 0.07646644 -0.03549373 0.3936998 -0.1133731 0.4718629 -0.113373 0.3937007 0.6997674 0.6281898 0.6997675 0.5500266 0.6997676 0.6281884 -0.1133729 0.3155376 0.6997678 0.3155369 -0.1133726 0.3937007 0.6997674 0.5500266 0.6997676 0.4718636 0.6997674 0.5500255 -0.1133727 0.5530641 -0.07919293 0.5530644 1.167971 0.4736645 -0.07919293 0.4736645 -0.07919293 0.4736649 1.167971 0.3942649 -0.07919293 0.3942649 -0.07919293 0.3942658 1.167971 0.3148653 -0.07919281 0.6324636 -0.07919293 0.6324636 1.167971 0.5530641 -0.07919293 0.6244882 -0.06365668 0.6244885 1.183507 0.5450886 -0.06365668 0.5450886 -0.06365668 0.5450891 1.183507 0.465689 -0.06365668 0.465689 -0.06365668 0.4656899 1.183507 0.3862894 -0.06365656 0.7038878 -0.06365668 0.7038878 1.183507 0.6244882 -0.06365668 0.3088467 -0.1127377 0.3088464 1.113604 0.2307727 -0.1127377 0.5430687 -0.1127375 0.5430672 1.113605 0.4649947 -0.1127376 0.4649947 -0.1127376 0.4649937 1.113605 0.3869207 -0.1127376 0.3869207 -0.1127376 0.3869199 1.113604 0.3088467 -0.1127377 0.160892 -0.1235749 0.1608915 1.102767 0.08281797 -0.1235749 0.395114 -0.1235747 0.3951124 1.102767 0.31704 -0.1235748 0.31704 -0.1235748 0.3170388 1.102767 0.2389659 -0.1235748 0.2389659 -0.1235748 0.2389652 1.102767 0.160892 -0.1235749 0.4730634 -0.09798532 0.5488656 -0.09798532 0.4730638 0.6905939 0.70047 0.6905942 0.6246678 0.6905942 0.7004693 -0.09798491 0.70047 0.6905942 0.7004693 -0.09798491 0.7762721 0.6905937 0.6246678 0.6905942 0.5488659 0.6905939 0.6246672 -0.09798496 0.6249962 2.407245 0.5483762 2.40739 0.6249942 -2.208779 0.3951334 -2.208644 0.4717537 -2.208788 0.395136 2.407381 0.3951334 -2.208644 0.395136 2.407381 0.3185136 -2.208797 0.4717564 2.407237 0.4717537 -2.208788 0.5483762 2.40739 0.317787 -0.1041638 0.3177882 1.08461 0.2421047 -0.1041637 0.544834 -0.104164 0.544834 1.084611 0.4691516 -0.104164 0.4691516 -0.104164 0.4691521 1.08461 0.3934693 -0.1041638 0.3934693 -0.1041638 0.3934701 1.08461 0.317787 -0.1041638 0.4801145 -0.07531088 0.4801157 1.113463 0.4044322 -0.07531076 0.7071616 -0.075311 0.7071616 1.113463 0.6314791 -0.075311 0.6314791 -0.075311 0.6314796 1.113463 0.5557969 -0.07531088 0.5557969 -0.07531088 0.5557976 1.113463 0.4801145 -0.07531088 0.317787 -0.1041638 0.3177882 1.08461 0.2421047 -0.1041637 0.544834 -0.104164 0.544834 1.084611 0.4691516 -0.104164 0.4691516 -0.104164 0.4691521 1.08461 0.3934693 -0.1041638 0.3934693 -0.1041638 0.3934701 1.08461 0.317787 -0.1041638 0.4736214 -0.05089682 0.4736226 1.137877 0.3979392 -0.0508967 0.7006685 -0.05089694 0.7006685 1.137878 0.624986 -0.05089694 0.624986 -0.05089694 0.6249865 1.137877 0.5493038 -0.05089682 0.5493038 -0.05089682 0.5493046 1.137877 0.4736214 -0.05089682 0.317787 -0.1041638 0.3177882 1.08461 0.2421047 -0.1041637 0.544834 -0.104164 0.544834 1.084611 0.4691516 -0.104164 0.4691516 -0.104164 0.4691521 1.08461 0.3934693 -0.1041638 0.3934693 -0.1041638 0.3934701 1.08461 0.317787 -0.1041638 0.4000329 -0.08862763 0.4000341 1.100147 0.3243507 -0.08862751 0.62708 -0.08862775 0.62708 1.100147 0.5513976 -0.08862775 0.5513976 -0.08862775 0.551398 1.100147 0.4757153 -0.08862763 0.4757153 -0.08862763 0.4757161 1.100147 0.4000329 -0.08862763 0.317787 -0.1041638 0.3177882 1.08461 0.2421047 -0.1041637 0.544834 -0.104164 0.544834 1.084611 0.4691516 -0.104164 0.4691516 -0.104164 0.4691521 1.08461 0.3934693 -0.1041638 0.3934693 -0.1041638 0.3934701 1.08461 0.317787 -0.1041638 0.07646644 -0.03549373 0.07646763 1.146466 0.001217961 -0.03549361 0.3022119 -0.03549385 0.3022119 1.146467 0.2269634 -0.03549385 0.2269634 -0.03549385 0.2269639 1.146467 0.1517149 -0.03549379 0.1517149 -0.03549379 0.1517157 1.146467 0.07646644 -0.03549373 0.3216487 -0.0311588 0.3216498 1.150801 0.2464001 -0.03115868 0.5473941 -0.03115892 0.5473942 1.150802 0.4721456 -0.03115892 0.4721456 -0.03115892 0.4721461 1.150802 0.3968971 -0.03115886 0.3968971 -0.03115886 0.3968979 1.150802 0.3216487 -0.0311588 0.07646644 -0.03549373 0.07646763 1.146466 0.001217961 -0.03549361 0.3022119 -0.03549385 0.3022119 1.146467 0.2269634 -0.03549385 0.2269634 -0.03549385 0.2269639 1.146467 0.1517149 -0.03549379 0.1517149 -0.03549379 0.1517157 1.146467 0.07646644 -0.03549373 0.6929053 -0.03740108 0.6929065 1.144559 0.6176568 -0.03740096 0.9186507 -0.03740119 0.9186508 1.144559 0.8434023 -0.03740119 0.8434023 -0.03740119 0.8434028 1.144559 0.7681538 -0.03740113 0.7681538 -0.03740113 0.7681546 1.144559 0.6929053 -0.03740108 0.07646644 -0.03549373 0.07646763 1.146466 0.001217961 -0.03549361 0.3022119 -0.03549385 0.3022119 1.146467 0.2269634 -0.03549385 0.2269634 -0.03549385 0.2269639 1.146467 0.1517149 -0.03549379 0.1517149 -0.03549379 0.1517157 1.146467 0.07646644 -0.03549373 0.3145468 -0.0132991 0.314548 1.168661 0.2392983 -0.01329898 0.5402923 -0.01329922 0.5402923 1.168661 0.4650438 -0.01329922 0.4650438 -0.01329922 0.4650442 1.168661 0.3897953 -0.01329916 0.3897953 -0.01329916 0.3897961 1.168661 0.3145468 -0.0132991 0.07646644 -0.03549373 0.07646763 1.146466 0.001217961 -0.03549361 0.3022119 -0.03549385 0.3022119 1.146467 0.2269634 -0.03549385 0.2269634 -0.03549385 0.2269639 1.146467 0.1517149 -0.03549379 0.1517149 -0.03549379 0.1517157 1.146467 0.07646644 -0.03549373</float_array>
          <technique_common>
            <accessor source="#Cube_014-mesh-map-0-array" count="504" stride="2">
              <param name="S" type="float"/>
              <param name="T" type="float"/>
            </accessor>
          </technique_common>
        </source>
        <vertices id="Cube_014-mesh-vertices">
          <input semantic="POSITION" source="#Cube_014-mesh-positions"/>
        </vertices>
        <polylist material="Wood-material" count="168">
          <input semantic="VERTEX" source="#Cube_014-mesh-vertices" offset="0"/>
          <input semantic="NORMAL" source="#Cube_014-mesh-normals" offset="1"/>
          <input semantic="TEXCOORD" source="#Cube_014-mesh-map-0" offset="2" set="0"/>
          <vcount>3 3 3 3 3 3 3 3 3 3 3 3 3 3 3 3 3 3 3 3 3 3 3 3 3 3 3 3 3 3 3 3 3 3 3 3 3 3 3 3 3 3 3 3 3 3 3 3 3 3 3 3 3 3 3 3 3 3 3 3 3 3 3 3 3 3 3 3 3 3 3 3 3 3 3 3 3 3 3 3 3 3 3 3 3 3 3 3 3 3 3 3 3 3 3 3 3 3 3 3 3 3 3 3 3 3 3 3 3 3 3 3 3 3 3 3 3 3 3 3 3 3 3 3 3 3 3 3 3 3 3 3 3 3 3 3 3 3 3 3 3 3 3 3 3 3 3 3 3 3 3 3 3 3 3 3 3 3 3 3 3 3 3 3 3 3 3 3 </vcount>
          <p>5 0 0 6 0 1 2 0 2 7 1 3 4 1 4 0 1 5 0 2 6 1 2 7 2 2 8 6 3 9 5 3 10 4 3 11 12 4 12 13 4 13 9 4 14 13 5 15 14 5 16 10 5 17 14 6 18 15 6 19 11 6 20 15 7 21 12 7 22 8 7 23 20 8 24 21 8 25 17 8 26 21 9 27 22 9 28 18 9 29 22 10 30 23 10 31 19 10 32 23 11 33 20 11 34 16 11 35 28 12 36 29 12 37 25 12 38 29 13 39 30 13 40 26 13 41 30 14 42 31 14 43 27 14 44 31 15 45 28 15 46 24 15 47 36 16 48 37 16 49 33 16 50 37 17 51 38 17 52 34 17 53 38 18 54 39 18 55 35 18 56 39 19 57 36 19 58 32 19 59 45 20 60 46 20 61 42 20 62 47 21 63 44 21 64 40 21 65 40 22 66 41 22 67 42 22 68 46 23 69 45 23 70 44 23 71 53 24 72 54 24 73 50 24 74 55 25 75 52 25 76 48 25 77 48 26 78 49 26 79 50 26 80 55 27 81 54 27 82 53 27 83 60 28 84 61 28 85 57 28 86 61 29 87 62 29 88 58 29 89 62 30 90 63 30 91 59 30 92 63 31 93 60 31 94 56 31 95 68 32 96 69 32 97 65 32 98 69 33 99 70 33 100 66 33 101 70 34 102 71 34 103 67 34 104 71 35 105 68 35 106 64 35 107 76 36 108 77 36 109 73 36 110 77 37 111 78 37 112 74 37 113 78 38 114 79 38 115 75 38 116 79 39 117 76 39 118 72 39 119 84 40 120 85 40 121 81 40 122 85 41 123 86 41 124 82 41 125 86 42 126 87 42 127 83 42 128 87 43 129 84 43 130 80 43 131 92 44 132 93 44 133 89 44 134 93 45 135 94 45 136 90 45 137 94 46 138 95 46 139 91 46 140 95 47 141 92 47 142 88 47 143 100 48 144 101 48 145 97 48 146 101 49 147 102 49 148 98 49 149 102 50 150 103 50 151 99 50 152 103 51 153 100 51 154 96 51 155 108 52 156 109 52 157 105 52 158 109 53 159 110 53 160 106 53 161 110 54 162 111 54 163 107 54 164 111 55 165 108 55 166 104 55 167 116 56 168 117 56 169 113 56 170 117 57 171 118 57 172 114 57 173 118 58 174 119 58 175 115 58 176 119 59 177 116 59 178 112 59 179 124 60 180 125 60 181 121 60 182 125 61 183 126 61 184 122 61 185 126 62 186 127 62 187 123 62 188 127 63 189 124 63 190 120 63 191 132 64 192 133 64 193 129 64 194 133 65 195 134 65 196 130 65 197 134 66 198 135 66 199 131 66 200 135 67 201 132 67 202 128 67 203 140 68 204 141 68 205 137 68 206 141 69 207 142 69 208 138 69 209 142 70 210 143 70 211 139 70 212 143 71 213 140 71 214 136 71 215 148 72 216 149 72 217 145 72 218 149 73 219 150 73 220 146 73 221 150 74 222 151 74 223 147 74 224 151 75 225 148 75 226 144 75 227 156 76 228 157 76 229 153 76 230 157 77 231 158 77 232 154 77 233 158 78 234 159 78 235 155 78 236 159 79 237 156 79 238 152 79 239 164 80 240 165 80 241 161 80 242 165 81 243 166 81 244 162 81 245 166 82 246 167 82 247 163 82 248 167 83 249 164 83 250 160 83 251 1 84 252 5 84 253 2 84 254 3 85 255 7 85 256 0 85 257 3 86 258 0 86 259 2 86 260 7 87 261 6 87 262 4 87 263 8 88 264 12 88 265 9 88 266 9 89 267 13 89 268 10 89 269 10 90 270 14 90 271 11 90 272 11 91 273 15 91 274 8 91 275 16 92 276 20 92 277 17 92 278 17 93 279 21 93 280 18 93 281 18 94 282 22 94 283 19 94 284 19 95 285 23 95 286 16 95 287 24 96 288 28 96 289 25 96 290 25 97 291 29 97 292 26 97 293 26 98 294 30 98 295 27 98 296 27 99 297 31 99 298 24 99 299 32 100 300 36 100 301 33 100 302 33 101 303 37 101 304 34 101 305 34 102 306 38 102 307 35 102 308 35 103 309 39 103 310 32 103 311 41 104 312 45 104 313 42 104 314 43 105 315 47 105 316 40 105 317 43 106 318 40 106 319 42 106 320 47 107 321 46 107 322 44 107 323 49 108 324 53 108 325 50 108 326 51 109 327 55 109 328 48 109 329 51 110 330 48 110 331 50 110 332 52 111 333 55 111 334 53 111 335 56 112 336 60 112 337 57 112 338 57 113 339 61 113 340 58 113 341 58 114 342 62 114 343 59 114 344 59 115 345 63 115 346 56 115 347 64 116 348 68 116 349 65 116 350 65 117 351 69 117 352 66 117 353 66 118 354 70 118 355 67 118 356 67 119 357 71 119 358 64 119 359 72 120 360 76 120 361 73 120 362 73 121 363 77 121 364 74 121 365 74 122 366 78 122 367 75 122 368 75 123 369 79 123 370 72 123 371 80 124 372 84 124 373 81 124 374 81 125 375 85 125 376 82 125 377 82 126 378 86 126 379 83 126 380 83 127 381 87 127 382 80 127 383 88 128 384 92 128 385 89 128 386 89 129 387 93 129 388 90 129 389 90 130 390 94 130 391 91 130 392 91 131 393 95 131 394 88 131 395 96 132 396 100 132 397 97 132 398 97 133 399 101 133 400 98 133 401 98 134 402 102 134 403 99 134 404 99 135 405 103 135 406 96 135 407 104 136 408 108 136 409 105 136 410 105 137 411 109 137 412 106 137 413 106 138 414 110 138 415 107 138 416 107 139 417 111 139 418 104 139 419 112 140 420 116 140 421 113 140 422 113 141 423 117 141 424 114 141 425 114 142 426 118 142 427 115 142 428 115 143 429 119 143 430 112 143 431 120 144 432 124 144 433 121 144 434 121 145 435 125 145 436 122 145 437 122 146 438 126 146 439 123 146 440 123 147 441 127 147 442 120 147 443 128 148 444 132 148 445 129 148 446 129 149 447 133 149 448 130 149 449 130 150 450 134 150 451 131 150 452 131 151 453 135 151 454 128 151 455 136 152 456 140 152 457 137 152 458 137 153 459 141 153 460 138 153 461 138 154 462 142 154 463 139 154 464 139 155 465 143 155 466 136 155 467 144 156 468 148 156 469 145 156 470 145 157 471 149 157 472 146 157 473 146 158 474 150 158 475 147 158 476 147 159 477 151 159 478 144 159 479 152 160 480 156 160 481 153 160 482 153 161 483 157 161 484 154 161 485 154 162 486 158 162 487 155 162 488 155 163 489 159 163 490 152 163 491 160 164 492 164 164 493 161 164 494 161 165 495 165 165 496 162 165 497 162 166 498 166 166 499 163 166 500 163 167 501 167 167 502 160 167 503</p>
        </polylist>
      </mesh>
    </geometry>
    <geometry id="Cube_016-mesh" name="Cube.016">
      <mesh>
        <source id="Cube_016-mesh-positions">
          <float_array id="Cube_016-mesh-positions-array" count="264">-0.0675081 -0.9220245 -1.855786 -0.0675081 -0.7860222 -1.855786 0.0684942 -0.7860222 -1.855786 0.0684942 -0.9220245 -1.855786 -0.0675081 -0.9220245 -0.9629483 -0.0675081 -0.7860222 -0.9629483 0.0684942 -0.7860222 -0.9629483 0.0684942 -0.9220245 -0.9629483 -0.08489978 -0.9394162 -1.855786 -0.08489978 -0.7686305 -1.855786 0.08588588 -0.7686305 -1.855786 0.08588588 -0.9394162 -1.855786 -0.08489978 -0.9394162 -2.01772 -0.08489978 -0.7686305 -2.01772 0.08588588 -0.7686305 -2.01772 0.08588588 -0.9394162 -2.01772 3.074948 -0.9220245 -1.855786 3.074948 -0.7860222 -1.855786 3.210951 -0.7860222 -1.855786 3.210951 -0.9220245 -1.855786 3.074948 -0.9220245 -0.9417685 3.074948 -0.7860222 -0.9417685 3.210951 -0.7860222 -0.9417685 3.210951 -0.9220245 -0.9417685 3.057557 -0.9394162 -1.855786 3.057557 -0.7686305 -1.855786 3.228343 -0.7686305 -1.855786 3.228343 -0.9394162 -1.855786 3.057557 -0.9394162 -2.01772 3.057557 -0.7686305 -2.01772 3.228343 -0.7686305 -2.01772 3.228343 -0.9394162 -2.01772 6.217405 -0.9220245 -1.855786 6.217405 -0.7860222 -1.855786 6.353408 -0.7860222 -1.855786 6.353408 -0.9220245 -1.855786 6.217405 -0.9220245 -0.9629483 6.217405 -0.7860222 -0.9629483 6.353408 -0.7860222 -0.9629483 6.353408 -0.9220245 -0.9629483 6.200013 -0.9394162 -1.855786 6.200013 -0.7686305 -1.855786 6.370799 -0.7686305 -1.855786 6.370799 -0.9394162 -1.855786 6.200013 -0.9394162 -2.01772 6.200013 -0.7686305 -2.01772 6.370799 -0.7686305 -2.01772 6.370799 -0.9394162 -2.01772 -0.0675081 -0.08261686 -1.855786 -0.0675081 0.05338543 -1.855786 0.0684942 0.05338543 -1.855786 0.0684942 -0.08261686 -1.855786 -0.0675081 -0.08261686 -0.9629483 -0.0675081 0.05338543 -0.9629483 0.0684942 0.05338543 -0.9629483 0.0684942 -0.08261686 -0.9629483 -0.08489978 -0.1000085 -1.855786 -0.08489978 0.07077711 -1.855786 0.08588588 0.07077711 -1.855786 0.08588588 -0.1000085 -1.855786 -0.08489978 -0.1000085 -2.01772 -0.08489978 0.07077711 -2.01772 0.08588588 0.07077711 -2.01772 0.08588588 -0.1000085 -2.01772 6.217405 -0.08261686 -1.855786 6.217405 0.05338543 -1.855786 6.353408 0.05338543 -1.855786 6.353408 -0.08261686 -1.855786 6.217405 -0.08261686 -0.9629483 6.217405 0.05338543 -0.9629483 6.353408 0.05338543 -0.9629483 6.353408 -0.08261686 -0.9629483 6.200013 -0.1000085 -1.855786 6.200013 0.07077711 -1.855786 6.370799 0.07077711 -1.855786 6.370799 -0.1000085 -1.855786 6.200013 -0.1000085 -2.01772 6.200013 0.07077711 -2.01772 6.370799 0.07077711 -2.01772 6.370799 -0.1000085 -2.01772 6.395468 0.02383667 -2.033568 6.395468 -0.9761628 -2.033568 -0.1045296 -0.9761627 -2.033568 -0.1045279 0.02383685 -2.033568 6.395469 0.02383643 -2.003568 6.395465 -0.9761632 -2.003568 -0.1045303 -0.9761627 -2.003568 -0.1045289 0.02383667 -2.003568</float_array>
          <technique_common>
            <accessor source="#Cube_016-mesh-positions-array" count="88" stride="3">
              <param name="X" type="float"/>
              <param name="Y" type="float"/>
              <param name="Z" type="float"/>
            </accessor>
          </technique_common>
        </source>
        <source id="Cube_016-mesh-normals">
          <float_array id="Cube_016-mesh-normals-array" count="420">0 0 1 0 0 1 0 0 1 0 0 1 0 0 1 -1 0 0 0 1 0 1 0 0 0 -1 0 0 0 1 0 0 1 0 0 1 0 0 1 0 -1 0 1 0 0 0 1 0 -1 0 0 -1 0 0 0 1 0 1 0 0 0 -1 0 0 0 1 0 0 1 0 0 1 0 0 1 0 -1 0 1 0 0 0 1 0 -1 0 0 -1 0 0 0 1 0 1 0 0 0 -1 0 0 0 1 0 0 1 0 0 1 0 0 1 0 -1 0 1 0 0 0 1 0 -1 0 0 -1 0 0 0 1 0 1 0 0 0 -1 0 0 0 1 0 0 1 0 0 1 0 0 1 0 -1 0 1 0 0 0 1 0 -1 0 0 -1 0 0 0 1 0 1 0 0 0 -1 0 0 0 1 0 0 1 0 0 1 0 0 1 0 -1 0 1 0 0 0 1 0 -1 0 0 0 0 -1 0 0 1 1 -3.33786e-6 7.94735e-5 0 -1 1.98684e-6 -1 1.43051e-6 -2.38421e-5 0 0 1 0 0 1 0 0 1 0 0 1 0 0 1 -1 0 0 0 1 0 1 0 0 0 -1 0 0 0 1 0 0 1 0 0 1 0 0 1 0 -1 0 1 0 0 0 1 0 -1 0 0 -1 0 0 0 1 0 1 0 0 0 -1 0 0 0 1 0 0 1 0 0 1 0 0 1 0 -1 0 1 0 0 0 1 0 -1 0 0 -1 0 0 0 1 0 1 0 0 0 -1 0 0 0 1 0 0 1 0 0 1 0 0 1 0 -1 0 1 0 0 0 1 0 -1 0 0 -1 0 0 0 1 0 1 0 0 0 -1 0 0 0 1 0 0 1 0 0 1 0 0 1 0 -1 0 1 0 0 0 1 0 -1 0 0 -1 0 0 0 1 0 1 0 0 0 -1 0 0 0 1 0 0 1 0 0 1 0 0 1 0 -1 0 1 0 0 0 1 0 -1 0 0 0 0 -1 0 0 1 1 0 -3.17894e-5 0 -1 -1.1921e-5 -1 1.66893e-6 -3.17894e-5</float_array>
          <technique_common>
            <accessor source="#Cube_016-mesh-normals-array" count="140" stride="3">
              <param name="X" type="float"/>
              <param name="Y" type="float"/>
              <param name="Z" type="float"/>
            </accessor>
          </technique_common>
        </source>
        <source id="Cube_016-mesh-map-0">
          <float_array id="Cube_016-mesh-map-0-array" count="840">0.0889483 0.7686505 0.1504275 0.7686505 0.1504274 0.8301296 0.09129989 0.7167408 0.1527794 0.7167408 0.1527792 0.7782198 0.0182529 0.7594044 0.07973206 0.7594044 0.07973206 0.8208835 0.1701118 0.6649518 0.2315912 0.6649516 0.2315912 0.7264308 0.1728171 0.5612528 0.2342965 0.5612528 0.2342967 0.6227319 0.3883824 0.8804842 0.311553 0.8804839 0.3115529 0.3761088 0.311553 0.8804839 0.2347235 0.880484 0.2347235 0.3761088 0.5420414 0.8804845 0.4652119 0.8804844 0.4652119 0.3761088 0.4652119 0.8804844 0.3883824 0.8804842 0.3883824 0.3761088 0.1831475 0.5218244 0.1216683 0.5218244 0.1138065 0.5139628 0.1831475 0.5833036 0.1831475 0.5218244 0.1910093 0.5139624 0.1216683 0.5833033 0.1831475 0.5833036 0.1910094 0.5911655 0.1216683 0.5218244 0.1216683 0.5833033 0.1138066 0.5911651 0.705678 0.9638397 0.6284756 0.96384 0.6284756 0.8906388 0.7828804 0.9638396 0.705678 0.9638397 0.7056779 0.8906387 0.5512728 0.9638405 0.4740692 0.9638406 0.4740692 0.8906385 0.6284756 0.96384 0.5512728 0.9638405 0.5512728 0.8906386 0.07767546 0.5231807 6.65106e-4 0.5231542 8.42618e-4 0.005598664 0.3087071 0.5232601 0.2316964 0.5232337 0.2318745 0.005677938 0.2316964 0.5232337 0.1546859 0.5232071 0.1548641 0.005651414 0.1546859 0.5232071 0.07767546 0.5231807 0.07785314 0.005625128 0.08810055 0.4440152 0.0266214 0.4440166 0.01875948 0.4361551 0.08810269 0.5054946 0.08810055 0.4440152 0.09596192 0.4361532 0.08810269 0.5054946 0.09596544 0.5133566 0.01876145 0.5133566 0.0266214 0.4440166 0.02662295 0.5054951 0.01876145 0.5133566 0.3163533 0.9582911 0.2391507 0.9582915 0.2391504 0.8850901 0.3935561 0.9582913 0.3163533 0.9582911 0.3163531 0.8850898 0.4707587 0.9582914 0.3935561 0.9582913 0.3935562 0.88509 0.2391507 0.9582915 0.1619479 0.9582918 0.1619476 0.8850905 0.7048061 0.5314526 0.6253664 0.5314527 0.625366 0.00994271 0.9431253 0.5314525 0.8636853 0.5314525 0.8636853 0.009942829 0.8636853 0.5314525 0.7842459 0.5314526 0.7842457 0.00994271 0.7842459 0.5314526 0.7048061 0.5314526 0.7048056 0.009942531 0.1216684 0.4440151 0.1138065 0.4361532 0.1910095 0.4361532 0.183148 0.5054939 0.183148 0.444015 0.1910095 0.4361532 0.1216684 0.5054952 0.183148 0.5054939 0.1910088 0.5133554 0.1216684 0.4440151 0.1216684 0.5054952 0.1138072 0.5133576 0.6230642 0.9205509 0.5458613 0.920551 0.5458609 0.8473497 0.7002671 0.9205504 0.6230642 0.9205509 0.6230639 0.8473492 0.77747 0.9205493 0.7002671 0.9205504 0.7002665 0.8473489 0.5458613 0.920551 0.4686585 0.9205512 0.4686583 0.84735 0.704046 0.9443668 0.6260108 0.944367 0.6260104 0.4320763 0.9381515 0.9443667 0.8601164 0.9443668 0.8601163 0.4320765 0.8601164 0.9443668 0.7820813 0.9443668 0.782081 0.4320762 0.7820813 0.9443668 0.704046 0.9443668 0.7040457 0.4320762 0.08810299 0.5996316 0.02662384 0.5996316 0.01876199 0.5917698 0.08810299 0.6611106 0.08810299 0.5996316 0.09596478 0.5917698 0.02662384 0.6611106 0.08810299 0.6611106 0.09596478 0.6689725 0.02662384 0.5996316 0.02662384 0.6611106 0.01876205 0.6689724 0.3190587 0.9177764 0.2418559 0.9177767 0.2418559 0.8445753 0.3962615 0.9177762 0.3190587 0.9177764 0.3190587 0.8445751 0.4734643 0.9177758 0.3962615 0.9177762 0.3962612 0.8445748 0.2418559 0.9177767 0.1646531 0.9177767 0.1646531 0.8445753 0.3102691 0.5182191 0.2321565 0.5182192 0.2321565 0.005420625 0.5446072 0.5182191 0.4664944 0.5182191 0.4664947 0.005421042 0.4664944 0.5182191 0.388382 0.5182191 0.3883821 0.005421042 0.388382 0.5182191 0.3102691 0.5182191 0.3102691 0.005420923 0.02662414 0.5218232 0.01876199 0.5139614 0.09596544 0.5139614 0.08810257 0.5833027 0.08810389 0.5218235 0.09596544 0.5139614 0.0266239 0.5833027 0.08810257 0.5833027 0.09596413 0.5911645 0.02662414 0.5218232 0.0266239 0.5833027 0.01876312 0.5911649 0.2355955 0.6791608 0.16031 0.6791608 0.1603089 0.6040971 0.3108828 0.6791618 0.2355955 0.6791608 0.2355951 0.604095 0.38617 0.6791624 0.3108828 0.6791618 0.3108831 0.6040962 0.16031 0.6791608 0.08502578 0.6791625 0.08502382 0.6040989 -1.109076 -0.01199048 1.980069 -0.01199609 1.980069 0.4632576 1.980069 0.4637964 1.980071 0.9390497 -1.109074 0.9390558 -0.6919942 -0.03992372 0.02645933 -0.03408449 0.02628332 -0.01253139 0.02645933 -0.03408449 1.261506 -0.03994506 1.261331 -0.01839035 1.261331 -0.01839035 1.261506 -0.03994506 1.980069 -0.03411716 0.0889483 0.8301296 0.0889483 0.7686505 0.1504274 0.8301296 0.09129989 0.7782198 0.09129989 0.7167408 0.1527792 0.7782198 0.01825296 0.8208835 0.0182529 0.7594044 0.07973206 0.8208835 0.170112 0.7264308 0.1701118 0.6649518 0.2315912 0.7264308 0.1728173 0.6227318 0.1728171 0.5612528 0.2342967 0.6227319 0.3883824 0.3761088 0.3883824 0.8804842 0.3115529 0.3761088 0.3115529 0.3761088 0.311553 0.8804839 0.2347235 0.3761088 0.5420414 0.3761088 0.5420414 0.8804845 0.4652119 0.3761088 0.4652119 0.3761088 0.4652119 0.8804844 0.3883824 0.3761088 0.1910093 0.5139624 0.1831475 0.5218244 0.1138065 0.5139628 0.1910094 0.5911655 0.1831475 0.5833036 0.1910093 0.5139624 0.1138066 0.5911651 0.1216683 0.5833033 0.1910094 0.5911655 0.1138065 0.5139628 0.1216683 0.5218244 0.1138066 0.5911651 0.7056779 0.8906387 0.705678 0.9638397 0.6284756 0.8906388 0.7828803 0.8906386 0.7828804 0.9638396 0.7056779 0.8906387 0.5512728 0.8906386 0.5512728 0.9638405 0.4740692 0.8906385 0.6284756 0.8906388 0.6284756 0.96384 0.5512728 0.8906386 0.07785314 0.005625128 0.07767546 0.5231807 8.42618e-4 0.005598664 0.3088854 0.005704402 0.3087071 0.5232601 0.2318745 0.005677938 0.2318745 0.005677938 0.2316964 0.5232337 0.1548641 0.005651414 0.1548641 0.005651414 0.1546859 0.5232071 0.07785314 0.005625128 0.09596192 0.4361532 0.08810055 0.4440152 0.01875948 0.4361551 0.09596544 0.5133566 0.08810269 0.5054946 0.09596192 0.4361532 0.02662295 0.5054951 0.08810269 0.5054946 0.01876145 0.5133566 0.01875948 0.4361551 0.0266214 0.4440166 0.01876145 0.5133566 0.3163531 0.8850898 0.3163533 0.9582911 0.2391504 0.8850901 0.3935562 0.88509 0.3935561 0.9582913 0.3163531 0.8850898 0.4707589 0.8850902 0.4707587 0.9582914 0.3935562 0.88509 0.2391504 0.8850901 0.2391507 0.9582915 0.1619476 0.8850905 0.7048056 0.009942531 0.7048061 0.5314526 0.625366 0.00994271 0.9431253 0.009942829 0.9431253 0.5314525 0.8636853 0.009942829 0.8636853 0.009942829 0.8636853 0.5314525 0.7842457 0.00994271 0.7842457 0.00994271 0.7842459 0.5314526 0.7048056 0.009942531 0.183148 0.444015 0.1216684 0.4440151 0.1910095 0.4361532 0.1910088 0.5133554 0.183148 0.5054939 0.1910095 0.4361532 0.1138072 0.5133576 0.1216684 0.5054952 0.1910088 0.5133554 0.1138065 0.4361532 0.1216684 0.4440151 0.1138072 0.5133576 0.6230639 0.8473492 0.6230642 0.9205509 0.5458609 0.8473497 0.7002665 0.8473489 0.7002671 0.9205504 0.6230639 0.8473492 0.7774691 0.8473482 0.77747 0.9205493 0.7002665 0.8473489 0.5458609 0.8473497 0.5458613 0.920551 0.4686583 0.84735 0.7040457 0.4320762 0.704046 0.9443668 0.6260104 0.4320763 0.9381515 0.4320765 0.9381515 0.9443667 0.8601163 0.4320765 0.8601163 0.4320765 0.8601164 0.9443668 0.782081 0.4320762 0.782081 0.4320762 0.7820813 0.9443668 0.7040457 0.4320762 0.09596478 0.5917698 0.08810299 0.5996316 0.01876199 0.5917698 0.09596478 0.6689725 0.08810299 0.6611106 0.09596478 0.5917698 0.01876205 0.6689724 0.02662384 0.6611106 0.09596478 0.6689725 0.01876199 0.5917698 0.02662384 0.5996316 0.01876205 0.6689724 0.3190587 0.8445751 0.3190587 0.9177764 0.2418559 0.8445753 0.3962612 0.8445748 0.3962615 0.9177762 0.3190587 0.8445751 0.4734641 0.8445744 0.4734643 0.9177758 0.3962612 0.8445748 0.2418559 0.8445753 0.2418559 0.9177767 0.1646531 0.8445753 0.3102691 0.005420923 0.3102691 0.5182191 0.2321565 0.005420625 0.5446076 0.005421042 0.5446072 0.5182191 0.4664947 0.005421042 0.4664947 0.005421042 0.4664944 0.5182191 0.3883821 0.005421042 0.3883821 0.005421042 0.388382 0.5182191 0.3102691 0.005420923 0.08810389 0.5218235 0.02662414 0.5218232 0.09596544 0.5139614 0.09596413 0.5911645 0.08810257 0.5833027 0.09596544 0.5139614 0.01876312 0.5911649 0.0266239 0.5833027 0.09596413 0.5911645 0.01876199 0.5139614 0.02662414 0.5218232 0.01876312 0.5911649 0.2355951 0.604095 0.2355955 0.6791608 0.1603089 0.6040971 0.3108831 0.6040962 0.3108828 0.6791618 0.2355951 0.604095 0.3861699 0.6040969 0.38617 0.6791624 0.3108831 0.6040962 0.1603089 0.6040971 0.16031 0.6791608 0.08502382 0.6040989 -1.109076 0.4632629 -1.109076 -0.01199048 1.980069 0.4632576 -1.109077 0.4638026 1.980069 0.4637964 -1.109074 0.9390558 -0.6921696 -0.01837009 -0.6919942 -0.03992372 0.02628332 -0.01253139 0.02628332 -0.01253139 0.02645933 -0.03408449 1.261331 -0.01839035 1.979894 -0.01255977 1.261331 -0.01839035 1.980069 -0.03411716</float_array>
          <technique_common>
            <accessor source="#Cube_016-mesh-map-0-array" count="420" stride="2">
              <param name="S" type="float"/>
              <param name="T" type="float"/>
            </accessor>
          </technique_common>
        </source>
        <vertices id="Cube_016-mesh-vertices">
          <input semantic="POSITION" source="#Cube_016-mesh-positions"/>
        </vertices>
        <polylist material="Wood-material" count="140">
          <input semantic="VERTEX" source="#Cube_016-mesh-vertices" offset="0"/>
          <input semantic="NORMAL" source="#Cube_016-mesh-normals" offset="1"/>
          <input semantic="TEXCOORD" source="#Cube_016-mesh-map-0" offset="2" set="0"/>
          <vcount>3 3 3 3 3 3 3 3 3 3 3 3 3 3 3 3 3 3 3 3 3 3 3 3 3 3 3 3 3 3 3 3 3 3 3 3 3 3 3 3 3 3 3 3 3 3 3 3 3 3 3 3 3 3 3 3 3 3 3 3 3 3 3 3 3 3 3 3 3 3 3 3 3 3 3 3 3 3 3 3 3 3 3 3 3 3 3 3 3 3 3 3 3 3 3 3 3 3 3 3 3 3 3 3 3 3 3 3 3 3 3 3 3 3 3 3 3 3 3 3 3 3 3 3 3 3 3 3 3 3 3 3 3 3 3 3 3 3 3 3 </vcount>
          <p>4 0 0 7 0 1 6 0 2 68 1 3 71 1 4 70 1 5 52 2 6 55 2 7 54 2 8 20 3 9 23 3 10 22 3 11 36 4 12 39 4 13 38 4 14 4 5 15 5 5 16 1 5 17 5 6 18 6 6 19 2 6 20 6 7 21 7 7 22 3 7 23 7 8 24 4 8 25 0 8 26 3 9 27 0 9 28 8 9 29 2 10 30 3 10 31 11 10 32 1 11 33 2 11 34 10 11 35 0 12 36 1 12 37 9 12 38 11 13 39 8 13 40 12 13 41 10 14 42 11 14 43 15 14 44 9 15 45 10 15 46 14 15 47 8 16 48 9 16 49 13 16 50 20 17 51 21 17 52 17 17 53 21 18 54 22 18 55 18 18 56 22 19 57 23 19 58 19 19 59 23 20 60 20 20 61 16 20 62 19 21 63 16 21 64 24 21 65 18 22 66 19 22 67 27 22 68 18 23 69 26 23 70 25 23 71 16 24 72 17 24 73 25 24 74 27 25 75 24 25 76 28 25 77 26 26 78 27 26 79 31 26 80 25 27 81 26 27 82 30 27 83 24 28 84 25 28 85 29 28 86 36 29 87 37 29 88 33 29 89 37 30 90 38 30 91 34 30 92 38 31 93 39 31 94 35 31 95 39 32 96 36 32 97 32 32 98 32 33 99 40 33 100 43 33 101 34 34 102 35 34 103 43 34 104 33 35 105 34 35 106 42 35 107 32 36 108 33 36 109 41 36 110 43 37 111 40 37 112 44 37 113 42 38 114 43 38 115 47 38 116 41 39 117 42 39 118 46 39 119 40 40 120 41 40 121 45 40 122 52 41 123 53 41 124 49 41 125 53 42 126 54 42 127 50 42 128 54 43 129 55 43 130 51 43 131 55 44 132 52 44 133 48 44 134 51 45 135 48 45 136 56 45 137 50 46 138 51 46 139 59 46 140 49 47 141 50 47 142 58 47 143 48 48 144 49 48 145 57 48 146 59 49 147 56 49 148 60 49 149 58 50 150 59 50 151 63 50 152 57 51 153 58 51 154 62 51 155 56 52 156 57 52 157 61 52 158 68 53 159 69 53 160 65 53 161 69 54 162 70 54 163 66 54 164 70 55 165 71 55 166 67 55 167 71 56 168 68 56 169 64 56 170 64 57 171 72 57 172 75 57 173 66 58 174 67 58 175 75 58 176 65 59 177 66 59 178 74 59 179 64 60 180 65 60 181 73 60 182 75 61 183 72 61 184 76 61 185 74 62 186 75 62 187 79 62 188 73 63 189 74 63 190 78 63 191 72 64 192 73 64 193 77 64 194 81 65 195 82 65 196 83 65 197 87 66 198 86 66 199 85 66 200 84 67 201 85 67 202 81 67 203 85 68 204 86 68 205 82 68 206 82 69 207 86 69 208 87 69 209 5 70 210 4 70 211 6 70 212 69 71 213 68 71 214 70 71 215 53 72 216 52 72 217 54 72 218 21 73 219 20 73 220 22 73 221 37 74 222 36 74 223 38 74 224 0 75 225 4 75 226 1 75 227 1 76 228 5 76 229 2 76 230 2 77 231 6 77 232 3 77 233 3 78 234 7 78 235 0 78 236 11 79 237 3 79 238 8 79 239 10 80 240 2 80 241 11 80 242 9 81 243 1 81 244 10 81 245 8 82 246 0 82 247 9 82 248 15 83 249 11 83 250 12 83 251 14 84 252 10 84 253 15 84 254 13 85 255 9 85 256 14 85 257 12 86 258 8 86 259 13 86 260 16 87 261 20 87 262 17 87 263 17 88 264 21 88 265 18 88 266 18 89 267 22 89 268 19 89 269 19 90 270 23 90 271 16 90 272 27 91 273 19 91 274 24 91 275 26 92 276 18 92 277 27 92 278 17 93 279 18 93 280 25 93 281 24 94 282 16 94 283 25 94 284 31 95 285 27 95 286 28 95 287 30 96 288 26 96 289 31 96 290 29 97 291 25 97 292 30 97 293 28 98 294 24 98 295 29 98 296 32 99 297 36 99 298 33 99 299 33 100 300 37 100 301 34 100 302 34 101 303 38 101 304 35 101 305 35 102 306 39 102 307 32 102 308 35 103 309 32 103 310 43 103 311 42 104 312 34 104 313 43 104 314 41 105 315 33 105 316 42 105 317 40 106 318 32 106 319 41 106 320 47 107 321 43 107 322 44 107 323 46 108 324 42 108 325 47 108 326 45 109 327 41 109 328 46 109 329 44 110 330 40 110 331 45 110 332 48 111 333 52 111 334 49 111 335 49 112 336 53 112 337 50 112 338 50 113 339 54 113 340 51 113 341 51 114 342 55 114 343 48 114 344 59 115 345 51 115 346 56 115 347 58 116 348 50 116 349 59 116 350 57 117 351 49 117 352 58 117 353 56 118 354 48 118 355 57 118 356 63 119 357 59 119 358 60 119 359 62 120 360 58 120 361 63 120 362 61 121 363 57 121 364 62 121 365 60 122 366 56 122 367 61 122 368 64 123 369 68 123 370 65 123 371 65 124 372 69 124 373 66 124 374 66 125 375 70 125 376 67 125 377 67 126 378 71 126 379 64 126 380 67 127 381 64 127 382 75 127 383 74 128 384 66 128 385 75 128 386 73 129 387 65 129 388 74 129 389 72 130 390 64 130 391 73 130 392 79 131 393 75 131 394 76 131 395 78 132 396 74 132 397 79 132 398 77 133 399 73 133 400 78 133 401 76 134 402 72 134 403 77 134 404 80 135 405 81 135 406 83 135 407 84 136 408 87 136 409 85 136 410 80 137 411 84 137 412 81 137 413 81 138 414 85 138 415 82 138 416 83 139 417 82 139 418 87 139 419</p>
        </polylist>
      </mesh>
    </geometry>
  </library_geometries>
  <library_controllers/>
  <library_visual_scenes>
    <visual_scene id="Scene" name="Scene">
      <node id="Camera" name="Camera" type="NODE">
        <matrix sid="transform">0.6858805 -0.3173701 0.6548619 16.48844 0.7276338 0.3124686 -0.6106656 -11.13824 -0.01081678 0.8953432 0.4452454 5.747424 0 0 0 1</matrix>
        <instance_camera url="#Camera-camera"/>
      </node>
      <node id="Balcony4Stilts" name="Balcony4Stilts" type="NODE">
        <matrix sid="transform">1 0 0 -8.17327 0 1 0 -0.3778604 0 0 1 -3.500299 0 0 0 1</matrix>
        <instance_geometry url="#Cube_012-mesh">
          <bind_material>
            <technique_common>
              <instance_material symbol="Wood-material" target="#Wood-material">
                <bind_vertex_input semantic="UVMap" input_semantic="TEXCOORD" input_set="0"/>
              </instance_material>
            </technique_common>
          </bind_material>
        </instance_geometry>
      </node>
      <node id="Balcony4Support" name="Balcony4Support" type="NODE">
        <matrix sid="transform">1 0 0 -11.28486 0 1 0 -0.364711 0 0 1 -0.1677967 0 0 0 1</matrix>
        <instance_geometry url="#Cube_013-mesh">
          <bind_material>
            <technique_common>
              <instance_material symbol="Wood-material" target="#Wood-material">
                <bind_vertex_input semantic="UVMap" input_semantic="TEXCOORD" input_set="0"/>
              </instance_material>
            </technique_common>
          </bind_material>
        </instance_geometry>
      </node>
      <node id="Balcony4Handles" name="Balcony4Handles" type="NODE">
        <matrix sid="transform">1 0 0 -11.31622 0 1 0 0.4761631 0 0 1 2.141635 0 0 0 1</matrix>
        <instance_geometry url="#Cube_014-mesh">
          <bind_material>
            <technique_common>
              <instance_material symbol="Wood-material" target="#Wood-material">
                <bind_vertex_input semantic="UVMap" input_semantic="TEXCOORD" input_set="0"/>
              </instance_material>
            </technique_common>
          </bind_material>
        </instance_geometry>
      </node>
      <node id="Balcony4" name="Balcony4" type="NODE">
        <matrix sid="transform">1 0 0 -11.31622 0 1 0 0.4761631 0 0 1 1.968067 0 0 0 1</matrix>
        <instance_geometry url="#Cube_016-mesh">
          <bind_material>
            <technique_common>
              <instance_material symbol="Wood-material" target="#Wood-material">
                <bind_vertex_input semantic="UVMap" input_semantic="TEXCOORD" input_set="0"/>
              </instance_material>
            </technique_common>
          </bind_material>
        </instance_geometry>
      </node>
    </visual_scene>
  </library_visual_scenes>
  <scene>
    <instance_visual_scene url="#Scene"/>
  </scene>
</COLLADA>