<?xml version="1.0" encoding="utf-8"?>
<COLLADA xmlns="http://www.collada.org/2005/11/COLLADASchema" version="1.4.1">
  <asset>
    <contributor>
      <author>Blender User</author>
      <authoring_tool>Blender 2.75.0 commit date:2015-07-07, commit time:14:56, hash:c27589e</authoring_tool>
    </contributor>
    <created>2015-07-19T22:42:27</created>
    <modified>2015-07-19T22:42:27</modified>
    <unit name="meter" meter="1"/>
    <up_axis>Z_UP</up_axis>
  </asset>
  <library_cameras>
    <camera id="Camera-camera" name="Camera">
      <optics>
        <technique_common>
          <orthographic>
            <xmag sid="xmag">2.5</xmag>
            <aspect_ratio>1.333333</aspect_ratio>
            <znear sid="znear">0.1</znear>
            <zfar sid="zfar">100</zfar>
          </orthographic>
        </technique_common>
      </optics>
      <extra>
        <technique profile="blender">
          <YF_dofdist>0</YF_dofdist>
          <shiftx>0</shiftx>
          <shifty>0</shifty>
        </technique>
      </extra>
    </camera>
  </library_cameras>
  <library_lights>
    <light id="Lamp-light" name="Lamp.001">
      <technique_common>
        <directional>
          <color sid="color">1 1 1</color>
        </directional>
      </technique_common>
      <extra>
        <technique profile="blender">
          <adapt_thresh>0.000999987</adapt_thresh>
          <area_shape>0</area_shape>
          <area_size>1</area_size>
          <area_sizey>1</area_sizey>
          <area_sizez>1</area_sizez>
          <atm_distance_factor>1</atm_distance_factor>
          <atm_extinction_factor>1</atm_extinction_factor>
          <atm_turbidity>2</atm_turbidity>
          <att1>0</att1>
          <att2>1</att2>
          <backscattered_light>1</backscattered_light>
          <bias>1</bias>
          <blue>1</blue>
          <buffers>1</buffers>
          <bufflag>0</bufflag>
          <bufsize>512</bufsize>
          <buftype>2</buftype>
          <clipend>40</clipend>
          <clipsta>0.5</clipsta>
          <compressthresh>0.04999995</compressthresh>
          <dist sid="blender_dist">20</dist>
          <energy sid="blender_energy">1</energy>
          <falloff_type>1</falloff_type>
          <filtertype>0</filtertype>
          <flag>0</flag>
          <gamma sid="blender_gamma">1</gamma>
          <green>1</green>
          <halo_intensity sid="blnder_halo_intensity">1</halo_intensity>
          <horizon_brightness>1</horizon_brightness>
          <mode>8192</mode>
          <ray_samp>1</ray_samp>
          <ray_samp_method>1</ray_samp_method>
          <ray_samp_type>0</ray_samp_type>
          <ray_sampy>1</ray_sampy>
          <ray_sampz>1</ray_sampz>
          <red>1</red>
          <samp>3</samp>
          <shadhalostep>0</shadhalostep>
          <shadow_b sid="blender_shadow_b">0</shadow_b>
          <shadow_g sid="blender_shadow_g">0</shadow_g>
          <shadow_r sid="blender_shadow_r">0</shadow_r>
          <sky_colorspace>2</sky_colorspace>
          <sky_exposure>1</sky_exposure>
          <skyblendfac>1</skyblendfac>
          <skyblendtype>1</skyblendtype>
          <soft>3</soft>
          <spotblend>0.15</spotblend>
          <spotsize>45</spotsize>
          <spread>1</spread>
          <sun_brightness>1</sun_brightness>
          <sun_effect_type>0</sun_effect_type>
          <sun_intensity>1</sun_intensity>
          <sun_size>1</sun_size>
          <type>1</type>
        </technique>
      </extra>
    </light>
  </library_lights>
  <library_images>
    <image id="rope_normal_png" name="rope_normal_png">
      <init_from>rope_normal.png</init_from>
    </image>
    <image id="rope_diffuse_png" name="rope_diffuse_png">
      <init_from>rope_diffuse.png</init_from>
    </image>
    <image id="rope_fence_post_color" name="rope_fence_post_color">
      <init_from>rope_fence_post_color.png</init_from>
    </image>
  </library_images>
  <library_effects>
    <effect id="PostMat-effect">
      <profile_COMMON>
        <newparam sid="rope_fence_post_color-surface">
          <surface type="2D">
            <init_from>rope_fence_post_color</init_from>
          </surface>
        </newparam>
        <newparam sid="rope_fence_post_color-sampler">
          <sampler2D>
            <source>rope_fence_post_color-surface</source>
          </sampler2D>
        </newparam>
        <technique sid="common">
          <lambert>
            <emission>
              <color sid="emission">0 0 0 1</color>
            </emission>
            <ambient>
              <color sid="ambient">0 0 0 1</color>
            </ambient>
            <diffuse>
              <texture texture="rope_fence_post_color-sampler" texcoord="UVTex"/>
            </diffuse>
            <index_of_refraction>
              <float sid="index_of_refraction">1</float>
            </index_of_refraction>
          </lambert>
        </technique>
      </profile_COMMON>
    </effect>
    <effect id="Rope-effect">
      <profile_COMMON>
        <newparam sid="rope_diffuse_png-surface">
          <surface type="2D">
            <init_from>rope_diffuse_png</init_from>
          </surface>
        </newparam>
        <newparam sid="rope_diffuse_png-sampler">
          <sampler2D>
            <source>rope_diffuse_png-surface</source>
          </sampler2D>
        </newparam>
        <newparam sid="rope_normal_png-surface">
          <surface type="2D">
            <init_from>rope_normal_png</init_from>
          </surface>
        </newparam>
        <newparam sid="rope_normal_png-sampler">
          <sampler2D>
            <source>rope_normal_png-surface</source>
          </sampler2D>
        </newparam>
        <technique sid="common">
          <lambert>
            <emission>
              <color sid="emission">0 0 0 1</color>
            </emission>
            <ambient>
              <color sid="ambient">0 0 0 1</color>
            </ambient>
            <diffuse>
              <texture texture="rope_diffuse_png-sampler" texcoord="UVTex"/>
            </diffuse>
            <index_of_refraction>
              <float sid="index_of_refraction">1</float>
            </index_of_refraction>
          </lambert>
          <extra>
            <technique profile="FCOLLADA">
              <bump>
                <texture texture="rope_normal_png-sampler" texcoord="UVTex"/>
              </bump>
            </technique>
          </extra>
        </technique>
      </profile_COMMON>
    </effect>
  </library_effects>
  <library_materials>
    <material id="PostMat-material" name="PostMat">
      <instance_effect url="#PostMat-effect"/>
    </material>
    <material id="Rope-material" name="Rope">
      <instance_effect url="#Rope-effect"/>
    </material>
  </library_materials>
  <library_geometries>
    <geometry id="Cube_012-mesh" name="Cube.012">
      <mesh>
        <source id="Cube_012-mesh-positions">
          <float_array id="Cube_012-mesh-positions-array" count="552">0.2000006 8.2 0 0.2000006 7.8 0 -0.1999995 7.8 0 -0.199999 8.200001 0 0.1000006 7.8 3.8 -0.04999929 7.8 3.713397 -0.1999993 8.2 4.2 -0.1999997 7.8 4.2 0.1999999 7.799999 4.2 0.2000011 8.2 4.2 0.0500006 8.300001 3.886603 0.1000006 8.300001 3.8 0.05000048 8.300001 3.713397 -0.04999947 8.300001 3.713398 -0.09999936 8.300001 3.8 -0.04999941 8.300001 3.886603 0.0500006 8.2 3.886603 0.1000006 8.2 3.8 0.05000048 8.2 3.713397 -0.04999941 8.2 3.713398 -0.09999936 8.2 3.8 -0.04999941 8.2 3.886603 0.2000003 4.2 0 0.2000003 3.8 0 -0.1999998 3.8 0 -0.1999993 4.200001 0 -0.1999996 4.200001 4.2 -0.2000001 3.800001 4.2 0.1999995 3.8 4.2 0.2000007 4.2 4.2 0.0500003 4.2 3.886602 0.1000003 4.2 3.8 0.05000019 4.2 3.713398 -0.04999965 4.2 3.713398 -0.09999972 4.2 3.8 -0.04999965 4.2 3.886603 0.2 0.1999998 0 0.2 -0.1999998 0 -0.2000001 -0.1999998 0 -0.1999996 0.2000002 0 0.04999995 -0.2000007 3.886602 0.04999989 -0.2000007 3.713397 -0.04999995 -0.2000007 3.713397 -0.2 0.1999998 4.2 -0.2000004 -0.1999998 4.2 0.1999992 -0.2000007 4.2 0.2000005 0.1999993 4.2 0.04999995 0.1999998 3.886602 -0.05000007 0.1999998 3.713398 -0.1000001 0.1999998 3.8 -0.05000007 0.1999998 3.886602 0.1999996 -3.8 0 0.1999996 -4.2 0 -0.2000004 -4.2 0 -0.1999999 -3.799999 0 0.04999971 -4.2 3.886602 0.09999966 -4.2 3.8 0.04999965 -4.2 3.713397 -0.05000025 -4.2 3.713398 -0.1000003 -4.2 3.8 -0.05000036 -4.2 3.886602 -0.2000003 -3.8 4.2 -0.2000007 -4.2 4.2 0.1999989 -4.200001 4.2 0.2000001 -3.8 4.2 0.04999971 -3.8 3.886602 0.09999978 -3.8 3.8 0.04999959 -3.8 3.713397 -0.0500003 -3.8 3.713398 -0.1000003 -3.8 3.8 -0.2000005 -8.200001 0 -0.2000007 -7.8 0 0.1999994 -7.8 0 0.1999991 -8.200001 0 -0.0500006 -7.8 3.886602 -0.1000007 -7.8 3.8 -0.05000084 -7.8 3.713397 0.04999917 -7.8 3.713397 0.09999936 -7.8 3.8 0.04999929 -7.8 3.886602 0.1999993 -8.200001 4.200001 0.1999996 -7.8 4.200001 -0.2 -7.799999 4.2 -0.2000011 -8.199999 4.2 -0.0500006 -8.3 3.886602 -0.1000006 -8.3 3.8 -0.05000036 -8.3 3.713397 0.04999953 -8.3 3.713397 0.09999948 -8.3 3.8 0.04999947 -8.3 3.886602 -0.0500006 -8.200001 3.886602 -0.1000006 -8.200001 3.8 -0.05000048 -8.200001 3.713397 0.04999947 -8.200001 3.713397 0.09999942 -8.200001 3.8 0.04999941 -8.200001 3.886602 0.04999923 -6.900626 3.517999 0.09999924 -6.900626 3.604602 0.04999929 -6.900626 3.691204 -0.05000066 -6.900626 3.691204 -0.1000007 -6.900626 3.604602 -0.0500009 -6.900626 3.517999 -0.05000072 -6.000626 3.448851 -0.1000006 -6.000626 3.535454 -0.05000054 -6.000626 3.622056 0.09999918 -6.000626 3.535454 0.04999923 -6.000626 3.448851 0.04999923 -6.000626 3.622056 0.04999917 -5.100626 3.517999 0.09999918 -5.100626 3.604601 -0.0500006 -5.100626 3.691204 -0.1000007 -5.100626 3.604601 -0.05000078 -5.100626 3.517999 0.04999929 -5.100626 3.691204 0.04999965 -1.100626 3.691204 -0.05000054 -1.100626 3.517999 -0.1000005 -1.100626 3.604601 -0.05000036 -1.100626 3.691204 0.09999954 -1.100626 3.604601 0.04999953 -1.100626 3.517999 0.04999953 -2.000626 3.622056 0.04999953 -2.000626 3.448851 0.09999948 -2.000626 3.535454 -0.0500003 -2.000626 3.622056 -0.1000004 -2.000626 3.535454 -0.05000048 -2.000626 3.448851 -0.05000066 -2.900626 3.517999 -0.1000005 -2.900626 3.604602 -0.05000042 -2.900626 3.691204 0.04999959 -2.900626 3.691204 0.09999954 -2.900626 3.604602 0.04999947 -2.900626 3.517999 -0.05000042 -3.8 3.886602 -0.05000007 -0.2000007 3.886602 -0.1000001 -0.2000007 3.8 0.0999999 -0.2000007 3.8 0.05000013 3.8 3.886602 0.1000002 3.8 3.8 0.05000019 3.8 3.713397 -0.04999971 3.8 3.713397 -0.09999984 3.8 3.8 -0.04999983 3.8 3.886602 0.04999977 0.1999998 3.713397 0.0999999 0.1999998 3.8 0.04999971 1.099374 3.517999 0.09999984 1.099374 3.604601 0.04999983 1.099374 3.691204 -0.05000019 1.099374 3.691204 -0.1000002 1.099374 3.604602 -0.05000042 1.099374 3.517999 -0.05000025 1.999374 3.448851 -0.1000001 1.999374 3.535454 -0.05000007 1.999374 3.622056 0.09999984 1.999374 3.535454 0.04999989 1.999374 3.448851 0.04999989 1.999374 3.622056 0.04999977 2.899374 3.517999 0.09999984 2.899374 3.604601 -0.05000007 2.899374 3.691204 -0.1000002 2.899374 3.604602 -0.05000025 2.899374 3.517999 0.04999989 2.899374 3.691204 0.05000019 6.899374 3.691204 -0.05000001 6.899374 3.517999 -0.09999996 6.899374 3.604601 -0.04999983 6.899374 3.691204 0.1000001 6.899374 3.604601 0.05000007 6.899374 3.517999 0.05000019 5.999374 3.622056 0.05000019 5.999374 3.448851 0.1000002 5.999374 3.535454 -0.04999977 5.999374 3.622057 -0.0999999 5.999374 3.535454 -0.04999995 5.999374 3.448851 -0.05000019 5.099375 3.517999 -0.09999996 5.099375 3.604601 -0.04999995 5.099375 3.691204 0.05000019 5.099375 3.691204 0.1000002 5.099375 3.604601 0.05000007 5.099375 3.517999 -0.04999959 7.8 3.886602 -0.0999996 7.8 3.8 0.05000054 7.8 3.713397 0.05000042 7.8 3.886602</float_array>
          <technique_common>
            <accessor source="#Cube_012-mesh-positions-array" count="184" stride="3">
              <param name="X" type="float"/>
              <param name="Y" type="float"/>
              <param name="Z" type="float"/>
            </accessor>
          </technique_common>
        </source>
        <source id="Cube_012-mesh-normals">
          <float_array id="Cube_012-mesh-normals-array" count="486">0 0 -1 0 0 1 -2.38418e-6 -1 -3.80377e-6 0 1 0 0 -1 -6.4205e-7 0 1 1.2841e-6 -2.88171e-6 -1 -4.1594e-6 0 -1 0 0 -1 -6.00063e-7 0 -1 2.83831e-7 -8.62853e-6 -1 -2.83833e-7 1 -2.76735e-6 1.56106e-7 -1 1.06437e-6 0 4.15738e-7 1 0 9.08262e-7 1 2.83832e-7 0 1 -1.37651e-5 0 1 1.37651e-5 0.8660252 2.79397e-7 0.5000004 0.8660257 2.79397e-7 -0.4999995 -5.9604e-6 0 -1 -0.8660257 -2.79397e-7 -0.4999995 -0.8660267 -1.86263e-7 0.4999977 0 0 -1 1.49012e-6 -1.19209e-6 1 -2.38419e-6 -1 1.90189e-6 0 1 -3.80378e-6 0 1 1.60513e-7 0 -1 -2.0797e-6 -2.88171e-6 -1 0 0 -1 1.50017e-7 -8.62846e-6 -1 1.41916e-7 1 -3.07958e-6 0 -1 9.93412e-7 0 2.88171e-6 1 0 4.15735e-7 1 1.50016e-7 9.53675e-6 1 1.41916e-7 0 1 -1.50016e-7 0 0 -1 -2.6822e-6 0 1 -2.38419e-6 -1 1.9316e-6 0 -1 -2.70865e-7 0 1 1.30416e-7 0 -1 2.59963e-7 -2.88171e-6 -1 1.68975e-6 4.15737e-7 -1 -2.25025e-7 -4.15736e-7 -1 -2.344e-7 -9.53672e-6 -1 0 9.08268e-7 -1 -2.30615e-7 1 -3.12215e-6 1.80942e-7 -1 9.22454e-7 0 0 1 1.29981e-7 2.07868e-7 1 1.21889e-7 4.54131e-7 1 0 1.44085e-6 1 9.09866e-7 4.31422e-6 1 0 0 0 -1 -2.38419e-6 -1 -1.90189e-6 0 -1 3.21025e-7 0 1 0 -2.88172e-6 -1 -4.15941e-6 0 -1 1.50016e-7 0 -1 -3.00032e-7 -8.62854e-6 -1 -2.83834e-7 1 -2.98023e-6 1.77394e-7 -1 9.22454e-7 0 4.15737e-7 1 3.00033e-7 9.08262e-7 1 2.83832e-7 0 0 -1 -2.98024e-6 0 1 2.38419e-6 1 1.90188e-6 -4.76838e-6 -1 0 2.88173e-6 1 -8.31878e-6 0 1 -8.31877e-6 0 1 3.00034e-7 0 1 -9.00097e-7 8.62854e-6 1 0 -1 2.76736e-6 1.49011e-7 1 -7.09578e-7 0 0 -1 9.001e-7 -5.7634e-6 -1 0 -1.72569e-5 -1 2.8383e-7 0 -1 3.44128e-6 0 -1 -1.37651e-5 -0.8660253 0 0.5000002 -0.8660238 -1.02447e-6 -0.5000028 0.8660253 4.65668e-7 -0.5000002 0.8660253 1.6764e-6 0.5000002 0.325858 0.7902141 -0.5190168 0.488975 -0.1248226 -0.8633208 0.9997454 -0.006408989 -0.02163803 0.5384597 0.8418564 0.03659313 0.5074713 0.1264711 0.8523369 0.2246848 0.879848 0.4187892 -0.5074713 0.1264711 0.8523369 -0.9997454 -0.006408989 -0.02163803 -0.5384458 0.8418653 0.03659218 -0.488975 -0.1248226 -0.8633208 -0.325858 0.7902141 -0.5190168 -0.4897163 0 -0.8718819 -0.9997027 0 -0.02438443 -0.5108603 0 0.8596638 0.5108603 0 0.8596638 0.9997027 0 -0.02438443 0.4897163 0 -0.8718819 0.4890057 0.1247006 -0.8633211 0.9997462 0.006378471 -0.02160751 0.5074452 -0.1263195 0.8523748 -0.5074452 -0.1263195 0.8523748 -0.9997462 0.006378471 -0.02160751 -0.4890057 0.1247006 -0.8633211 -0.3257578 -0.7902846 -0.5189723 -0.5384826 -0.8418444 0.03653156 -0.2247462 -0.8797883 0.4188814 0.2247462 -0.8797883 0.4188814 0.5384826 -0.8418444 0.03653156 0.3257629 -0.7902971 -0.5189501 0.3257578 -0.7902846 -0.5189723 -0.5384597 0.8418564 0.03659313 -0.224682 0.8798366 0.4188144 0.224682 0.8798366 0.4188144 -0.3258528 0.7902016 -0.519039 -0.2246848 0.879848 0.4187892 0 -1 0 0 -1 1.60512e-7 2.38419e-6 1 0 1 0 0 -1 1.13532e-6 0 0.8660272 1.86264e-7 0.4999969 0.8660247 2.79395e-7 -0.5000015 0 0 -1 -0.8660257 -2.79397e-7 0.4999995 0 0 -1 -1.49012e-6 0 1 2.38418e-6 1 0 2.38419e-6 1 1.60513e-7 1 0 1.91586e-7 -1 1.20628e-6 0 0 0 -1 0 0 1 0 -1 -2.37735e-7 1.19209e-6 1 8.91507e-7 0 -1 -2.50801e-7 1.19209e-6 1 0 1 0 -1.20628e-7 -1 1.20628e-6 0 0 0 -1 0 1 -9.50942e-7 2.38419e-6 1 1.60513e-7 1 0 0 -1 1.13532e-6 0 0 0 -1 0 0 1 0 1 0 0 -1 1.5215e-5 0 -1 -3.21025e-7 -1 -4.25747e-7 -1.49012e-7 1 -9.22451e-7 0 -5.96054e-6 2.38422e-6 1 -0.8660238 0 0.5000028 -0.8660253 0 -0.5000002 0.8660212 5.58802e-7 -0.5000073 0.8660253 5.58801e-7 0.5000002</float_array>
          <technique_common>
            <accessor source="#Cube_012-mesh-normals-array" count="162" stride="3">
              <param name="X" type="float"/>
              <param name="Y" type="float"/>
              <param name="Z" type="float"/>
            </accessor>
          </technique_common>
        </source>
        <source id="Cube_012-mesh-map-0">
          <float_array id="Cube_012-mesh-map-0-array" count="2184">0.9897866 0.9905808 0.8362973 0.9905809 0.8362972 0.8370915 0.9897866 0.6553404 0.9897869 0.8088298 0.8362974 0.80883 0.6174173 0.9913831 0.4152492 0.9913814 0.4910622 0.9180496 0.08671563 0.9180456 0.1372607 0.9180452 0.2130787 0.9913815 0.5416018 0.8775222 0.4910626 0.8775221 0.4152361 0.008617818 0.2130655 0.008618235 0.13726 0.877514 0.08671981 0.8775129 0.5416027 0.9180487 0.5668708 0.8977828 0.6174173 0.9913831 0.4657909 0.8977864 0.4910622 0.9180496 0.4152492 0.9913814 0.6174048 0.008617222 0.5668708 0.8977828 0.5416018 0.8775222 0.4152361 0.008617818 0.4910626 0.8775221 0.4657909 0.8977864 0.4152361 0.008617818 0.4657909 0.8977864 0.4152492 0.9913814 0.6174048 0.008617222 0.6174173 0.9913831 0.5668708 0.8977828 0.8195884 0.9913826 0.6174173 0.9913831 0.6174048 0.008617222 0.4152492 0.9913814 0.2130787 0.9913815 0.2130655 0.008618235 0.1625326 0.8977795 0.2130787 0.9913815 0.1372607 0.9180452 0.2130655 0.008618235 0.1625326 0.8977795 0.13726 0.877514 0.2130655 0.008618235 0.2130787 0.9913815 0.1625326 0.8977795 0.08671563 0.9180456 0.01089859 0.9913821 0.06144279 0.8977808 0.01089888 0.008618772 0.08671981 0.8775129 0.06144279 0.8977808 0.01089888 0.008618772 0.06144279 0.8977808 0.01089859 0.9913821 0.9398362 0.5429163 0.8959421 0.5175732 0.8959425 0.4668884 0.9837311 0.5175743 0.9398362 0.5429163 0.9398373 0.4415464 0.8452572 0.3655192 0.8452569 0.3148348 0.8959414 0.3148344 0.8452569 0.6189425 0.8452572 0.5682577 0.8959416 0.5682581 0.8452574 0.5175729 0.8959421 0.5175732 0.8959416 0.5682581 0.8452575 0.4668884 0.8959425 0.4668884 0.8959421 0.5175732 0.8452575 0.4162039 0.8959421 0.4162035 0.8959425 0.4668884 0.8452575 0.4162039 0.8452572 0.3655192 0.8959416 0.3655189 0.9897866 0.9905808 0.8362973 0.9905809 0.8362972 0.8370915 0.8362972 0.6553408 0.9897866 0.6553404 0.9897869 0.8088298 0.6174173 0.9913831 0.4152492 0.9913814 0.4910622 0.9180496 0.08671563 0.9180456 0.1372607 0.9180452 0.2130787 0.9913815 0.5416018 0.8775222 0.4910626 0.8775221 0.4152361 0.008617818 0.2130655 0.008618235 0.13726 0.877514 0.08671981 0.8775129 0.5416027 0.9180487 0.5668708 0.8977828 0.6174173 0.9913831 0.4657909 0.8977864 0.4910622 0.9180496 0.4152492 0.9913814 0.6174048 0.008617222 0.5668708 0.8977828 0.5416018 0.8775222 0.4152361 0.008617818 0.4910626 0.8775221 0.4657909 0.8977864 0.4152361 0.008617818 0.4657909 0.8977864 0.4152492 0.9913814 0.6174048 0.008617222 0.6174173 0.9913831 0.5668708 0.8977828 0.8195759 0.008616805 0.8195884 0.9913826 0.6174173 0.9913831 0.4152492 0.9913814 0.2130787 0.9913815 0.2130655 0.008618235 0.1625326 0.8977795 0.2130787 0.9913815 0.1372607 0.9180452 0.2130655 0.008618235 0.1625326 0.8977795 0.13726 0.877514 0.2130655 0.008618235 0.2130787 0.9913815 0.1625326 0.8977795 0.08671563 0.9180456 0.01089859 0.9913821 0.06144279 0.8977808 0.01089888 0.008618772 0.08671981 0.8775129 0.06144279 0.8977808 0.01089888 0.008618772 0.06144279 0.8977808 0.01089859 0.9913821 0.8362973 0.9905809 0.8362972 0.8370915 0.9897868 0.8370915 0.9897866 0.6553404 0.9897869 0.8088298 0.8362974 0.80883 0.6174173 0.9913831 0.4152492 0.9913814 0.4910622 0.9180496 0.08671563 0.9180456 0.1372607 0.9180452 0.2130787 0.9913815 0.5416018 0.8775222 0.4910626 0.8775221 0.4152361 0.008617818 0.2130655 0.008618235 0.13726 0.877514 0.08671981 0.8775129 0.5416027 0.9180487 0.5668708 0.8977828 0.6174173 0.9913831 0.4657909 0.8977864 0.4910622 0.9180496 0.4152492 0.9913814 0.6174048 0.008617222 0.5668708 0.8977828 0.5416018 0.8775222 0.4152361 0.008617818 0.4910626 0.8775221 0.4657909 0.8977864 0.4152361 0.008617818 0.4657909 0.8977864 0.4152492 0.9913814 0.6174048 0.008617222 0.6174173 0.9913831 0.5668708 0.8977828 0.8195884 0.9913826 0.6174173 0.9913831 0.6174048 0.008617222 0.4152492 0.9913814 0.2130787 0.9913815 0.2130655 0.008618235 0.1625326 0.8977795 0.2130787 0.9913815 0.1372607 0.9180452 0.2130655 0.008618235 0.1625326 0.8977795 0.13726 0.877514 0.2130655 0.008618235 0.2130787 0.9913815 0.1625326 0.8977795 0.08671563 0.9180456 0.01089859 0.9913821 0.06144279 0.8977808 0.01089888 0.008618772 0.08671981 0.8775129 0.06144279 0.8977808 0.01089888 0.008618772 0.06144279 0.8977808 0.01089859 0.9913821 0.9897866 0.9905808 0.8362973 0.9905809 0.8362972 0.8370915 0.9897866 0.6553404 0.9897869 0.8088298 0.8362974 0.80883 0.6174173 0.9913831 0.4152492 0.9913814 0.4910622 0.9180496 0.08671563 0.9180456 0.1372607 0.9180452 0.2130787 0.9913815 0.5416018 0.8775222 0.4910626 0.8775221 0.4152361 0.008617818 0.2130655 0.008618235 0.13726 0.877514 0.08671981 0.8775129 0.5416027 0.9180487 0.5668708 0.8977828 0.6174173 0.9913831 0.4657909 0.8977864 0.4910622 0.9180496 0.4152492 0.9913814 0.6174048 0.008617222 0.5668708 0.8977828 0.5416018 0.8775222 0.4152361 0.008617818 0.4910626 0.8775221 0.4657909 0.8977864 0.4152361 0.008617818 0.4657909 0.8977864 0.4152492 0.9913814 0.6174048 0.008617222 0.6174173 0.9913831 0.5668708 0.8977828 0.8195884 0.9913826 0.6174173 0.9913831 0.6174048 0.008617222 0.4152492 0.9913814 0.2130787 0.9913815 0.2130655 0.008618235 0.1625326 0.8977795 0.2130787 0.9913815 0.1372607 0.9180452 0.2130655 0.008618235 0.1625326 0.8977795 0.13726 0.877514 0.2130655 0.008618235 0.2130787 0.9913815 0.1625326 0.8977795 0.08671563 0.9180456 0.01089859 0.9913821 0.06144279 0.8977808 0.01089888 0.008618772 0.08671981 0.8775129 0.06144279 0.8977808 0.01089888 0.008618772 0.06144279 0.8977808 0.01089859 0.9913821 0.8362973 0.9905809 0.8362972 0.8370915 0.9897868 0.8370915 0.8362972 0.6553408 0.9897866 0.6553404 0.9897869 0.8088298 0.6174173 0.9913831 0.4152492 0.9913814 0.4910622 0.9180496 0.1372607 0.9180452 0.2130787 0.9913815 0.01089859 0.9913821 0.5416018 0.8775222 0.4910626 0.8775221 0.4152361 0.008617818 0.2130655 0.008618235 0.13726 0.877514 0.08671981 0.8775129 0.5416027 0.9180487 0.5668708 0.8977828 0.6174173 0.9913831 0.4657909 0.8977864 0.4910622 0.9180496 0.4152492 0.9913814 0.6174048 0.008617222 0.5668708 0.8977828 0.5416018 0.8775222 0.4152361 0.008617818 0.4910626 0.8775221 0.4657909 0.8977864 0.4152361 0.008617818 0.4657909 0.8977864 0.4152492 0.9913814 0.6174048 0.008617222 0.6174173 0.9913831 0.5668708 0.8977828 0.8195884 0.9913826 0.6174173 0.9913831 0.6174048 0.008617222 0.4152492 0.9913814 0.2130787 0.9913815 0.2130655 0.008618235 0.1625326 0.8977795 0.2130787 0.9913815 0.1372607 0.9180452 0.2130655 0.008618235 0.1625326 0.8977795 0.13726 0.877514 0.2130655 0.008618235 0.2130787 0.9913815 0.1625326 0.8977795 0.08671563 0.9180456 0.01089859 0.9913821 0.06144279 0.8977808 0.01089888 0.008618772 0.08671981 0.8775129 0.06144279 0.8977808 0.01089888 0.008618772 0.06144279 0.8977808 0.01089859 0.9913821 0.9398373 0.4415464 0.9398362 0.5429163 0.8959421 0.5175732 0.9837311 0.5175743 0.9398362 0.5429163 0.9398373 0.4415464 0.8452572 0.3655192 0.8452569 0.3148348 0.8959414 0.3148344 0.8452572 0.5682577 0.8959416 0.5682581 0.8959416 0.6189427 0.8452574 0.5175729 0.8959421 0.5175732 0.8959416 0.5682581 0.8452575 0.4668884 0.8959425 0.4668884 0.8959421 0.5175732 0.8452575 0.4162039 0.8959421 0.4162035 0.8959425 0.4668884 0.8452572 0.3655192 0.8959416 0.3655189 0.8959421 0.4162035 0.8324689 0 0.8324687 1 0.6658021 1 0.6658021 0 0.6658021 1 0.4991356 1 0.4991355 0 0.4991356 1 0.3324691 1 0.3324691 1 0.1658024 1 0.1658021 0 0.1658024 1 -8.6439e-4 1 -8.64495e-4 0 0.8324687 1 0.8324689 0 0.9991354 0 0.8324689 0 0.9991354 0 0.9991356 1 0.1658024 1 -8.6439e-4 1 -8.64495e-4 0 0.3324691 1 0.1658024 1 0.1658021 0 0.4991355 0 0.4991356 1 0.3324691 1 0.6658021 0 0.6658021 1 0.4991356 1 0.8324689 0 0.8324687 1 0.6658021 1 0.8324687 1 0.6658021 1 0.6658021 0 0.6658021 1 0.4991356 1 0.4991355 0 0.4991356 1 0.3324691 1 0.3324688 0 0.3324688 0 0.3324691 1 0.1658024 1 0.1658021 0 0.1658024 1 -8.6439e-4 1 0.8324687 1 0.8324689 0 0.9991354 0 0.8324689 0 0.9991354 0 0.9991356 1 0.1658021 0 0.1658024 1 -8.6439e-4 1 0.3324688 0 0.3324691 1 0.1658024 1 0.4991355 0 0.4991356 1 0.3324691 1 0.6658021 1 0.4991356 1 0.4991355 0 0.8324687 1 0.6658021 1 0.6658021 0 0.8324687 1 0.6658021 1 0.6658021 0 0.6658021 1 0.4991356 1 0.4991355 0 0.4991355 0 0.4991356 1 0.3324691 1 0.3324688 0 0.3324691 1 0.1658024 1 0.1658021 0 0.1658024 1 -8.6439e-4 1 0.8324689 0 0.9991354 0 0.9991356 1 0.8324687 1 0.8324689 0 0.9991354 0 0.1658021 0 0.1658024 1 -8.6439e-4 1 0.3324688 0 0.3324691 1 0.1658024 1 0.4991356 1 0.3324691 1 0.3324688 0 0.6658021 1 0.4991356 1 0.4991355 0 0.8324687 1 0.6658021 1 0.6658021 0 0.8324689 0 0.8324687 1 0.6658021 1 0.6658021 0 0.6658021 1 0.4991356 1 0.4991356 1 0.3324691 1 0.3324688 0 0.3324691 1 0.1658024 1 0.1658021 0 0.1658024 1 -8.6439e-4 1 -8.64495e-4 0 0.8324689 0 0.9991354 0 0.9991356 1 0.8324689 0 0.9991354 0 0.9991356 1 0.1658024 1 -8.6439e-4 1 -8.64495e-4 0 0.3324691 1 0.1658024 1 0.1658021 0 0.4991356 1 0.3324691 1 0.3324688 0 0.6658021 0 0.6658021 1 0.4991356 1 0.8324689 0 0.8324687 1 0.6658021 1 0.8324689 0 0.8324687 1 0.6658021 1 0.6658021 0 0.6658021 1 0.4991356 1 0.4991355 0 0.4991356 1 0.3324691 1 0.3324691 1 0.1658024 1 0.1658021 0 0.1658024 1 -8.6439e-4 1 -8.64495e-4 0 0.8324689 0 0.9991354 0 0.9991356 1 0.8324689 0 0.9991354 0 0.9991356 1 0.1658024 1 -8.6439e-4 1 -8.64495e-4 0 0.3324691 1 0.1658024 1 0.1658021 0 0.4991355 0 0.4991356 1 0.3324691 1 0.6658021 0 0.6658021 1 0.4991356 1 0.8324689 0 0.8324687 1 0.6658021 1 0.8324687 1 0.6658021 1 0.6658021 0 0.6658021 1 0.4991356 1 0.4991355 0 0.4991356 1 0.3324691 1 0.3324688 0 0.3324688 0 0.3324691 1 0.1658024 1 0.1658021 0 0.1658024 1 -8.6439e-4 1 0.8324687 1 0.8324689 0 0.9991354 0 0.8324689 0 0.9991354 0 0.9991356 1 0.1658021 0 0.1658024 1 -8.6439e-4 1 0.3324688 0 0.3324691 1 0.1658024 1 0.4991356 1 0.3324691 1 0.3324688 0 0.6658021 1 0.4991356 1 0.4991355 0 0.8324687 1 0.6658021 1 0.6658021 0 0.8324687 1 0.6658021 1 0.6658021 0 0.6658021 1 0.4991356 1 0.4991355 0 0.4991356 1 0.3324691 1 0.3324688 0 0.3324688 0 0.3324691 1 0.1658024 1 0.1658021 0 0.1658024 1 -8.6439e-4 1 0.8324689 0 0.9991354 0 0.9991356 1 0.8324687 1 0.8324689 0 0.9991354 0 0.1658021 0 0.1658024 1 -8.6439e-4 1 0.3324688 0 0.3324691 1 0.1658024 1 0.4991356 1 0.3324691 1 0.3324688 0 0.6658021 1 0.4991356 1 0.4991355 0 0.8324687 1 0.6658021 1 0.6658021 0 0.8324689 0 0.8324687 1 0.6658021 1 0.6658021 0 0.6658021 1 0.4991356 1 0.4991355 0 0.4991356 1 0.3324691 1 0.3324691 1 0.1658024 1 0.1658021 0 0.1658024 1 -8.6439e-4 1 -8.64495e-4 0 0.8324689 0 0.9991354 0 0.9991356 1 0.8324687 1 0.8324689 0 0.9991354 0 0.1658024 1 -8.6439e-4 1 -8.64495e-4 0 0.3324691 1 0.1658024 1 0.1658021 0 0.4991356 1 0.3324691 1 0.3324688 0 0.6658021 0 0.6658021 1 0.4991356 1 0.8324689 0 0.8324687 1 0.6658021 1 0.9897868 0.8370915 0.9897866 0.9905808 0.8362972 0.8370915 0.8362972 0.6553408 0.9897866 0.6553404 0.8362974 0.80883 0.5416027 0.9180487 0.6174173 0.9913831 0.4910622 0.9180496 0.01089859 0.9913821 0.08671563 0.9180456 0.2130787 0.9913815 0.6174048 0.008617222 0.5416018 0.8775222 0.4152361 0.008617818 0.01089888 0.008618772 0.2130655 0.008618235 0.08671981 0.8775129 0.8195759 0.008616805 0.8195884 0.9913826 0.6174048 0.008617222 0.4152361 0.008617818 0.4152492 0.9913814 0.2130655 0.008618235 0.9398373 0.4415464 0.9398362 0.5429163 0.8959425 0.4668884 0.9837315 0.4668892 0.9837311 0.5175743 0.9398373 0.4415464 0.8959416 0.3655189 0.8452572 0.3655192 0.8959414 0.3148344 0.8959416 0.6189427 0.8452569 0.6189425 0.8959416 0.5682581 0.8452572 0.5682577 0.8452574 0.5175729 0.8959416 0.5682581 0.8452574 0.5175729 0.8452575 0.4668884 0.8959421 0.5175732 0.8452575 0.4668884 0.8452575 0.4162039 0.8959425 0.4668884 0.8959421 0.4162035 0.8452575 0.4162039 0.8959416 0.3655189 0.9897868 0.8370915 0.9897866 0.9905808 0.8362972 0.8370915 0.8362974 0.80883 0.8362972 0.6553408 0.9897869 0.8088298 0.5416027 0.9180487 0.6174173 0.9913831 0.4910622 0.9180496 0.01089859 0.9913821 0.08671563 0.9180456 0.2130787 0.9913815 0.6174048 0.008617222 0.5416018 0.8775222 0.4152361 0.008617818 0.01089888 0.008618772 0.2130655 0.008618235 0.08671981 0.8775129 0.6174048 0.008617222 0.8195759 0.008616805 0.6174173 0.9913831 0.4152361 0.008617818 0.4152492 0.9913814 0.2130655 0.008618235 0.9897866 0.9905808 0.8362973 0.9905809 0.9897868 0.8370915 0.8362972 0.6553408 0.9897866 0.6553404 0.8362974 0.80883 0.5416027 0.9180487 0.6174173 0.9913831 0.4910622 0.9180496 0.01089859 0.9913821 0.08671563 0.9180456 0.2130787 0.9913815 0.6174048 0.008617222 0.5416018 0.8775222 0.4152361 0.008617818 0.01089888 0.008618772 0.2130655 0.008618235 0.08671981 0.8775129 0.8195759 0.008616805 0.8195884 0.9913826 0.6174048 0.008617222 0.4152361 0.008617818 0.4152492 0.9913814 0.2130655 0.008618235 0.9897868 0.8370915 0.9897866 0.9905808 0.8362972 0.8370915 0.8362972 0.6553408 0.9897866 0.6553404 0.8362974 0.80883 0.5416027 0.9180487 0.6174173 0.9913831 0.4910622 0.9180496 0.01089859 0.9913821 0.08671563 0.9180456 0.2130787 0.9913815 0.6174048 0.008617222 0.5416018 0.8775222 0.4152361 0.008617818 0.01089888 0.008618772 0.2130655 0.008618235 0.08671981 0.8775129 0.8195759 0.008616805 0.8195884 0.9913826 0.6174048 0.008617222 0.4152361 0.008617818 0.4152492 0.9913814 0.2130655 0.008618235 0.9897866 0.9905808 0.8362973 0.9905809 0.9897868 0.8370915 0.8362974 0.80883 0.8362972 0.6553408 0.9897869 0.8088298 0.5416027 0.9180487 0.6174173 0.9913831 0.4910622 0.9180496 0.08671563 0.9180456 0.1372607 0.9180452 0.01089859 0.9913821 0.6174048 0.008617222 0.5416018 0.8775222 0.4152361 0.008617818 0.01089888 0.008618772 0.2130655 0.008618235 0.08671981 0.8775129 0.8195759 0.008616805 0.8195884 0.9913826 0.6174048 0.008617222 0.4152361 0.008617818 0.4152492 0.9913814 0.2130655 0.008618235 0.8959425 0.4668884 0.9398373 0.4415464 0.8959421 0.5175732 0.9837315 0.4668892 0.9837311 0.5175743 0.9398373 0.4415464 0.8959416 0.3655189 0.8452572 0.3655192 0.8959414 0.3148344 0.8452569 0.6189425 0.8452572 0.5682577 0.8959416 0.6189427 0.8452572 0.5682577 0.8452574 0.5175729 0.8959416 0.5682581 0.8452574 0.5175729 0.8452575 0.4668884 0.8959421 0.5175732 0.8452575 0.4668884 0.8452575 0.4162039 0.8959425 0.4668884 0.8452575 0.4162039 0.8452572 0.3655192 0.8959421 0.4162035 0.6658021 0 0.8324689 0 0.6658021 1 0.4991355 0 0.6658021 0 0.4991356 1 0.3324688 0 0.4991355 0 0.3324691 1 0.3324688 0 0.3324691 1 0.1658021 0 0.1658021 0 0.1658024 1 -8.64495e-4 0 0.9991356 1 0.8324687 1 0.9991354 0 0.8324687 1 0.8324689 0 0.9991356 1 0.1658021 0 0.1658024 1 -8.64495e-4 0 0.3324688 0 0.3324691 1 0.1658021 0 0.3324688 0 0.4991355 0 0.3324691 1 0.4991355 0 0.6658021 0 0.4991356 1 0.6658021 0 0.8324689 0 0.6658021 1 0.8324689 0 0.8324687 1 0.6658021 0 0.6658021 0 0.6658021 1 0.4991355 0 0.4991355 0 0.4991356 1 0.3324688 0 0.1658021 0 0.3324688 0 0.1658024 1 -8.64495e-4 0 0.1658021 0 -8.6439e-4 1 0.9991356 1 0.8324687 1 0.9991354 0 0.8324687 1 0.8324689 0 0.9991356 1 -8.64495e-4 0 0.1658021 0 -8.6439e-4 1 0.1658021 0 0.3324688 0 0.1658024 1 0.3324688 0 0.4991355 0 0.3324691 1 0.6658021 0 0.6658021 1 0.4991355 0 0.8324689 0 0.8324687 1 0.6658021 0 0.8324689 0 0.8324687 1 0.6658021 0 0.6658021 0 0.6658021 1 0.4991355 0 0.3324688 0 0.4991355 0 0.3324691 1 0.1658021 0 0.3324688 0 0.1658024 1 -8.64495e-4 0 0.1658021 0 -8.6439e-4 1 0.8324687 1 0.8324689 0 0.9991356 1 0.9991356 1 0.8324687 1 0.9991354 0 -8.64495e-4 0 0.1658021 0 -8.6439e-4 1 0.1658021 0 0.3324688 0 0.1658024 1 0.4991355 0 0.4991356 1 0.3324688 0 0.6658021 0 0.6658021 1 0.4991355 0 0.8324689 0 0.8324687 1 0.6658021 0 0.6658021 0 0.8324689 0 0.6658021 1 0.4991355 0 0.6658021 0 0.4991356 1 0.4991355 0 0.4991356 1 0.3324688 0 0.3324688 0 0.3324691 1 0.1658021 0 0.1658021 0 0.1658024 1 -8.64495e-4 0 0.8324687 1 0.8324689 0 0.9991356 1 0.8324687 1 0.8324689 0 0.9991356 1 0.1658021 0 0.1658024 1 -8.64495e-4 0 0.3324688 0 0.3324691 1 0.1658021 0 0.4991355 0 0.4991356 1 0.3324688 0 0.4991355 0 0.6658021 0 0.4991356 1 0.6658021 0 0.8324689 0 0.6658021 1 0.6658021 0 0.8324689 0 0.6658021 1 0.4991355 0 0.6658021 0 0.4991356 1 0.3324688 0 0.4991355 0 0.3324691 1 0.3324688 0 0.3324691 1 0.1658021 0 0.1658021 0 0.1658024 1 -8.64495e-4 0 0.8324687 1 0.8324689 0 0.9991356 1 0.8324687 1 0.8324689 0 0.9991356 1 0.1658021 0 0.1658024 1 -8.64495e-4 0 0.3324688 0 0.3324691 1 0.1658021 0 0.3324688 0 0.4991355 0 0.3324691 1 0.4991355 0 0.6658021 0 0.4991356 1 0.6658021 0 0.8324689 0 0.6658021 1 0.8324689 0 0.8324687 1 0.6658021 0 0.6658021 0 0.6658021 1 0.4991355 0 0.4991355 0 0.4991356 1 0.3324688 0 0.1658021 0 0.3324688 0 0.1658024 1 -8.64495e-4 0 0.1658021 0 -8.6439e-4 1 0.9991356 1 0.8324687 1 0.9991354 0 0.8324687 1 0.8324689 0 0.9991356 1 -8.64495e-4 0 0.1658021 0 -8.6439e-4 1 0.1658021 0 0.3324688 0 0.1658024 1 0.4991355 0 0.4991356 1 0.3324688 0 0.6658021 0 0.6658021 1 0.4991355 0 0.8324689 0 0.8324687 1 0.6658021 0 0.8324689 0 0.8324687 1 0.6658021 0 0.6658021 0 0.6658021 1 0.4991355 0 0.4991355 0 0.4991356 1 0.3324688 0 0.1658021 0 0.3324688 0 0.1658024 1 -8.64495e-4 0 0.1658021 0 -8.6439e-4 1 0.8324687 1 0.8324689 0 0.9991356 1 0.9991356 1 0.8324687 1 0.9991354 0 -8.64495e-4 0 0.1658021 0 -8.6439e-4 1 0.1658021 0 0.3324688 0 0.1658024 1 0.4991355 0 0.4991356 1 0.3324688 0 0.6658021 0 0.6658021 1 0.4991355 0 0.8324689 0 0.8324687 1 0.6658021 0 0.6658021 0 0.8324689 0 0.6658021 1 0.4991355 0 0.6658021 0 0.4991356 1 0.3324688 0 0.4991355 0 0.3324691 1 0.3324688 0 0.3324691 1 0.1658021 0 0.1658021 0 0.1658024 1 -8.64495e-4 0 0.8324687 1 0.8324689 0 0.9991356 1 0.9991356 1 0.8324687 1 0.9991354 0 0.1658021 0 0.1658024 1 -8.64495e-4 0 0.3324688 0 0.3324691 1 0.1658021 0 0.4991355 0 0.4991356 1 0.3324688 0 0.4991355 0 0.6658021 0 0.4991356 1 0.6658021 0 0.8324689 0 0.6658021 1</float_array>
          <technique_common>
            <accessor source="#Cube_012-mesh-map-0-array" count="1092" stride="2">
              <param name="S" type="float"/>
              <param name="T" type="float"/>
            </accessor>
          </technique_common>
        </source>
        <vertices id="Cube_012-mesh-vertices">
          <input semantic="POSITION" source="#Cube_012-mesh-positions"/>
        </vertices>
        <polylist material="PostMat-material" count="172">
          <input semantic="VERTEX" source="#Cube_012-mesh-vertices" offset="0"/>
          <input semantic="NORMAL" source="#Cube_012-mesh-normals" offset="1"/>
          <input semantic="TEXCOORD" source="#Cube_012-mesh-map-0" offset="2" set="0"/>
          <vcount>3 3 3 3 3 3 3 3 3 3 3 3 3 3 3 3 3 3 3 3 3 3 3 3 3 3 3 3 3 3 3 3 3 3 3 3 3 3 3 3 3 3 3 3 3 3 3 3 3 3 3 3 3 3 3 3 3 3 3 3 3 3 3 3 3 3 3 3 3 3 3 3 3 3 3 3 3 3 3 3 3 3 3 3 3 3 3 3 3 3 3 3 3 3 3 3 3 3 3 3 3 3 3 3 3 3 3 3 3 3 3 3 3 3 3 3 3 3 3 3 3 3 3 3 3 3 3 3 3 3 3 3 3 3 3 3 3 3 3 3 3 3 3 3 3 3 3 3 3 3 3 3 3 3 3 3 3 3 3 3 3 3 3 3 3 3 3 3 3 3 3 3 </vcount>
          <p>0 0 0 1 0 1 2 0 2 8 1 3 9 1 4 6 1 5 8 2 6 7 2 7 180 2 8 16 3 9 21 3 10 6 3 11 182 4 12 5 4 13 2 4 14 3 5 15 19 5 16 18 5 17 183 6 18 4 6 19 8 6 20 181 7 21 180 7 22 7 7 23 1 7 24 4 7 25 182 7 26 2 8 27 5 8 28 181 8 29 2 9 30 181 9 31 7 9 32 1 10 33 8 10 34 4 10 35 9 11 36 8 11 37 1 11 38 7 12 39 6 12 40 3 12 41 20 3 42 6 3 43 21 3 44 3 13 45 20 13 46 19 13 47 3 14 48 6 14 49 20 14 50 16 3 51 9 3 52 17 3 53 0 3 54 18 3 55 17 3 56 0 3 57 17 3 58 9 3 59 11 15 60 12 15 61 13 15 62 10 16 63 11 16 64 14 16 65 21 1 66 16 1 67 10 1 68 16 17 69 17 17 70 11 17 71 18 18 72 12 18 73 11 18 74 19 19 75 13 19 76 12 19 77 20 20 78 14 20 79 13 20 80 20 21 81 21 21 82 15 21 83 22 22 84 23 22 85 24 22 86 27 23 87 28 23 88 29 23 89 28 24 90 27 24 91 141 24 92 30 25 93 35 25 94 26 25 95 138 7 96 139 7 97 24 7 98 25 26 99 33 26 100 32 26 101 136 27 102 137 27 103 28 27 104 140 28 105 141 28 106 27 28 107 23 29 108 137 29 109 138 29 110 24 7 111 139 7 112 140 7 113 24 30 114 140 30 115 27 30 116 23 7 117 28 7 118 137 7 119 22 31 120 29 31 121 28 31 122 27 32 123 26 32 124 25 32 125 34 33 126 26 33 127 35 33 128 25 34 129 34 34 130 33 34 131 25 35 132 26 35 133 34 35 134 30 3 135 29 3 136 31 3 137 22 36 138 32 36 139 31 36 140 22 3 141 31 3 142 29 3 143 37 37 144 38 37 145 39 37 146 45 38 147 46 38 148 43 38 149 45 39 150 44 39 151 133 39 152 47 3 153 50 3 154 43 3 155 41 40 156 42 40 157 38 40 158 39 41 159 48 41 160 142 41 161 40 42 162 135 42 163 45 42 164 134 43 165 133 43 166 44 43 167 37 44 168 135 44 169 41 44 170 38 45 171 42 45 172 134 45 173 38 46 174 134 46 175 44 46 176 37 47 177 45 47 178 135 47 179 46 48 180 45 48 181 37 48 182 44 49 183 43 49 184 39 49 185 49 50 186 43 50 187 50 50 188 39 51 189 49 51 190 48 51 191 39 52 192 43 52 193 49 52 194 47 53 195 46 53 196 143 53 197 36 3 198 142 3 199 143 3 200 36 54 201 143 54 202 46 54 203 51 55 204 52 55 205 53 55 206 63 1 207 64 1 208 61 1 209 63 56 210 62 56 211 60 56 212 65 3 213 132 3 214 61 3 215 57 57 216 58 57 217 53 57 218 54 58 219 68 58 220 67 58 221 55 59 222 56 59 223 63 59 224 59 7 225 60 7 226 62 7 227 52 60 228 56 60 229 57 60 230 53 61 231 58 61 232 59 61 233 53 7 234 59 7 235 62 7 236 52 62 237 63 62 238 56 62 239 64 63 240 63 63 241 52 63 242 62 64 243 61 64 244 54 64 245 69 3 246 61 3 247 132 3 248 54 65 249 69 65 250 68 65 251 54 66 252 61 66 253 69 66 254 65 3 255 64 3 256 66 3 257 51 3 258 67 3 259 66 3 260 51 3 261 66 3 262 64 3 263 71 67 264 72 67 265 73 67 266 81 68 267 82 68 268 83 68 269 82 69 270 81 69 271 79 69 272 95 70 273 80 70 274 83 70 275 76 3 276 77 3 277 72 3 278 73 7 279 93 7 280 92 7 281 74 71 282 75 71 283 82 71 284 78 72 285 79 72 286 81 72 287 71 73 288 75 73 289 76 73 290 72 74 291 77 74 292 78 74 293 72 3 294 78 3 295 81 3 296 71 75 297 82 75 298 75 75 299 83 76 300 82 76 301 71 76 302 81 77 303 80 77 304 73 77 305 94 7 306 80 7 307 95 7 308 73 78 309 94 78 310 93 78 311 73 7 312 80 7 313 94 7 314 90 79 315 83 79 316 91 79 317 70 7 318 92 7 319 91 7 320 70 80 321 91 80 322 83 80 323 88 81 324 85 81 325 86 81 326 84 82 327 85 82 328 88 82 329 95 1 330 90 1 331 84 1 332 91 83 333 85 83 334 84 83 335 92 84 336 86 84 337 85 84 338 93 0 339 87 0 340 86 0 341 94 85 342 88 85 343 87 85 344 95 86 345 89 86 346 88 86 347 3 0 636 0 0 637 2 0 638 7 1 639 8 1 640 6 1 641 183 122 642 8 122 643 180 122 644 9 3 645 16 3 646 6 3 647 1 123 648 182 123 649 2 123 650 0 124 651 3 124 652 18 124 653 0 125 654 9 125 655 1 125 656 2 126 657 7 126 658 3 126 659 14 3 660 11 3 661 13 3 662 15 3 663 10 3 664 14 3 665 15 1 666 21 1 667 10 1 668 10 127 669 16 127 670 11 127 671 17 128 672 18 128 673 11 128 674 18 129 675 19 129 676 12 129 677 19 20 678 20 20 679 13 20 680 14 130 681 20 130 682 15 130 683 25 131 684 22 131 685 24 131 686 26 132 687 27 132 688 29 132 689 136 7 690 28 7 691 141 7 692 29 133 693 30 133 694 26 133 695 23 7 696 138 7 697 24 7 698 22 134 699 25 134 700 32 134 701 23 135 702 22 135 703 28 135 704 24 136 705 27 136 706 25 136 707 36 137 708 37 137 709 39 137 710 44 138 711 45 138 712 43 138 713 40 139 714 45 139 715 133 139 716 46 140 717 47 140 718 43 140 719 37 141 720 41 141 721 38 141 722 36 142 723 39 142 724 142 142 725 36 143 726 46 143 727 37 143 728 38 144 729 44 144 730 39 144 731 54 145 732 51 145 733 53 145 734 62 1 735 63 1 736 61 1 737 55 7 738 63 7 739 60 7 740 64 146 741 65 146 742 61 146 743 52 7 744 57 7 745 53 7 746 51 147 747 54 147 748 67 147 749 51 148 750 64 148 751 52 148 752 53 149 753 62 149 754 54 149 755 70 150 756 71 150 757 73 150 758 80 151 759 81 151 760 83 151 761 74 152 762 82 152 763 79 152 764 90 153 765 95 153 766 83 153 767 71 3 768 76 3 769 72 3 770 70 154 771 73 154 772 92 154 773 70 155 774 83 155 775 71 155 776 72 156 777 81 156 778 73 156 779 87 7 780 88 7 781 86 7 782 89 7 783 84 7 784 88 7 785 89 157 786 95 157 787 84 157 788 90 158 789 91 158 790 84 158 791 91 159 792 92 159 793 85 159 794 92 0 795 93 0 796 86 0 797 93 160 798 94 160 799 87 160 800 94 161 801 95 161 802 88 161 803</p>
        </polylist>
        <polylist material="Rope-material" count="192">
          <input semantic="VERTEX" source="#Cube_012-mesh-vertices" offset="0"/>
          <input semantic="NORMAL" source="#Cube_012-mesh-normals" offset="1"/>
          <input semantic="TEXCOORD" source="#Cube_012-mesh-map-0" offset="2" set="0"/>
          <vcount>3 3 3 3 3 3 3 3 3 3 3 3 3 3 3 3 3 3 3 3 3 3 3 3 3 3 3 3 3 3 3 3 3 3 3 3 3 3 3 3 3 3 3 3 3 3 3 3 3 3 3 3 3 3 3 3 3 3 3 3 3 3 3 3 3 3 3 3 3 3 3 3 3 3 3 3 3 3 3 3 3 3 3 3 3 3 3 3 3 3 3 3 3 3 3 3 3 3 3 3 3 3 3 3 3 3 3 3 3 3 3 3 3 3 3 3 3 3 3 3 3 3 3 3 3 3 3 3 3 3 3 3 3 3 3 3 3 3 3 3 3 3 3 3 3 3 3 3 3 3 3 3 3 3 3 3 3 3 3 3 3 3 3 3 3 3 3 3 3 3 3 3 3 3 3 3 3 3 3 3 3 3 3 3 3 3 3 3 3 3 3 3 </vcount>
          <p>77 87 348 96 88 349 97 89 350 78 90 351 97 89 352 98 91 353 79 92 354 98 91 355 99 93 356 99 93 357 100 94 358 75 95 359 100 94 360 101 96 361 76 97 362 96 88 363 77 87 364 76 97 365 96 88 366 101 96 367 102 98 368 103 99 369 102 98 370 101 96 371 104 100 372 103 99 373 100 94 374 98 91 375 107 101 376 104 100 377 97 89 378 105 102 379 107 101 380 96 88 381 106 103 382 105 102 383 108 104 384 109 105 385 105 102 386 109 105 387 113 106 388 107 101 389 113 106 390 110 107 391 104 100 392 104 100 393 110 107 394 111 108 395 103 99 396 111 108 397 112 109 398 108 104 399 106 103 400 102 98 401 108 104 402 112 109 403 58 110 404 111 108 405 59 111 406 58 110 407 110 107 408 60 112 409 59 111 410 113 106 411 55 113 412 60 112 413 56 114 414 55 113 415 113 106 416 57 115 417 56 114 418 109 105 419 41 116 420 135 114 421 118 105 422 135 114 423 40 113 424 114 106 425 114 106 426 40 113 427 133 112 428 117 107 429 133 112 430 134 111 431 116 108 432 134 111 433 42 110 434 119 104 435 115 109 436 42 110 437 119 104 438 121 103 439 125 98 440 124 99 441 116 108 442 115 109 443 123 100 444 117 107 445 116 108 446 114 106 447 117 107 448 123 100 449 118 105 450 114 106 451 120 101 452 119 104 453 118 105 454 122 102 455 131 88 456 121 103 457 122 102 458 130 89 459 122 102 460 120 101 461 120 101 462 123 100 463 128 93 464 123 100 465 124 99 466 127 94 467 124 99 468 125 98 469 126 96 470 131 88 471 126 96 472 125 98 473 67 87 474 68 97 475 126 96 476 127 94 477 126 96 478 68 97 479 128 93 480 127 94 481 69 117 482 129 91 483 128 93 484 132 118 485 66 90 486 130 89 487 129 91 488 67 87 489 131 88 490 130 89 491 142 87 492 144 88 493 145 89 494 143 90 495 145 89 496 146 91 497 47 119 498 146 91 499 147 93 500 147 93 501 148 94 502 49 117 503 148 94 504 149 96 505 48 120 506 142 87 507 48 120 508 149 96 509 144 88 510 149 96 511 150 98 512 151 99 513 150 98 514 149 96 515 152 100 516 151 99 517 148 94 518 146 91 519 155 101 520 152 100 521 145 89 522 153 102 523 155 101 524 144 88 525 154 103 526 153 102 527 156 104 528 157 105 529 153 102 530 157 105 531 161 106 532 155 101 533 161 106 534 158 107 535 152 100 536 152 100 537 158 107 538 159 108 539 151 99 540 159 108 541 160 109 542 156 104 543 154 103 544 150 98 545 156 104 546 160 109 547 139 110 548 159 108 549 140 111 550 139 110 551 158 107 552 141 112 553 140 111 554 136 113 555 141 112 556 158 107 557 137 114 558 136 113 559 161 106 560 138 116 561 137 114 562 157 105 563 182 116 564 4 114 565 166 105 566 4 114 567 183 113 568 162 106 569 183 113 570 180 112 571 165 107 572 165 107 573 180 112 574 181 111 575 164 108 576 181 111 577 5 110 578 167 104 579 163 109 580 5 110 581 167 104 582 169 103 583 173 98 584 172 99 585 164 108 586 163 109 587 171 100 588 165 107 589 164 108 590 162 106 591 165 107 592 171 100 593 166 105 594 162 106 595 168 101 596 167 104 597 166 105 598 170 102 599 179 88 600 169 103 601 170 102 602 178 89 603 170 102 604 168 101 605 177 91 606 168 101 607 171 100 608 171 100 609 172 99 610 175 94 611 172 99 612 173 98 613 174 96 614 179 88 615 174 96 616 173 98 617 179 88 618 32 87 619 33 97 620 175 94 621 174 96 622 33 97 623 176 93 624 175 94 625 34 95 626 177 91 627 176 93 628 35 121 629 31 90 630 178 89 631 177 91 632 32 87 633 179 88 634 178 89 635 78 90 804 77 87 805 97 89 806 79 92 807 78 90 808 98 91 809 74 121 810 79 92 811 99 93 812 74 121 813 99 93 814 75 95 815 75 95 816 100 94 817 76 97 818 101 96 819 96 88 820 76 97 821 106 103 822 96 88 823 102 98 824 100 94 825 103 99 826 101 96 827 99 93 828 104 100 829 100 94 830 99 93 831 98 91 832 104 100 833 98 91 834 97 89 835 107 101 836 97 89 837 96 88 838 105 102 839 106 103 840 108 104 841 105 102 842 105 102 843 109 105 844 107 101 845 107 101 846 113 106 847 104 100 848 103 99 849 104 100 850 111 108 851 102 98 852 103 99 853 112 109 854 112 109 855 108 104 856 102 98 857 57 115 858 108 104 859 58 110 860 112 109 861 111 108 862 58 110 863 111 108 864 110 107 865 59 111 866 110 107 867 113 106 868 60 112 869 109 105 870 56 114 871 113 106 872 108 104 873 57 115 874 109 105 875 119 104 876 41 116 877 118 105 878 118 105 879 135 114 880 114 106 881 117 107 882 114 106 883 133 112 884 116 108 885 117 107 886 134 111 887 115 109 888 116 108 889 42 110 890 41 116 891 119 104 892 42 110 893 115 109 894 119 104 895 125 98 896 125 98 897 124 99 898 115 109 899 124 99 900 123 100 901 116 108 902 120 101 903 114 106 904 123 100 905 122 102 906 118 105 907 120 101 908 121 103 909 119 104 910 122 102 911 130 89 912 131 88 913 122 102 914 129 91 915 130 89 916 120 101 917 129 91 918 120 101 919 128 93 920 128 93 921 123 100 922 127 94 923 127 94 924 124 99 925 126 96 926 121 103 927 131 88 928 125 98 929 131 88 930 67 87 931 126 96 932 69 117 933 127 94 934 68 97 935 132 118 936 128 93 937 69 117 938 65 119 939 129 91 940 132 118 941 65 119 942 66 90 943 129 91 944 66 90 945 67 87 946 130 89 947 143 90 948 142 87 949 145 89 950 47 119 951 143 90 952 146 91 953 50 118 954 47 119 955 147 93 956 50 118 957 147 93 958 49 117 959 49 117 960 148 94 961 48 120 962 144 88 963 142 87 964 149 96 965 154 103 966 144 88 967 150 98 968 148 94 969 151 99 970 149 96 971 147 93 972 152 100 973 148 94 974 147 93 975 146 91 976 152 100 977 146 91 978 145 89 979 155 101 980 145 89 981 144 88 982 153 102 983 154 103 984 156 104 985 153 102 986 153 102 987 157 105 988 155 101 989 155 101 990 161 106 991 152 100 992 151 99 993 152 100 994 159 108 995 150 98 996 151 99 997 160 109 998 160 109 999 156 104 1000 150 98 1001 138 116 1002 156 104 1003 139 110 1004 160 109 1005 159 108 1006 139 110 1007 159 108 1008 158 107 1009 140 111 1010 161 106 1011 136 113 1012 158 107 1013 157 105 1014 137 114 1015 161 106 1016 156 104 1017 138 116 1018 157 105 1019 167 104 1020 182 116 1021 166 105 1022 166 105 1023 4 114 1024 162 106 1025 162 106 1026 183 113 1027 165 107 1028 164 108 1029 165 107 1030 181 111 1031 163 109 1032 164 108 1033 5 110 1034 182 116 1035 167 104 1036 5 110 1037 163 109 1038 167 104 1039 173 98 1040 173 98 1041 172 99 1042 163 109 1043 172 99 1044 171 100 1045 164 108 1046 168 101 1047 162 106 1048 171 100 1049 170 102 1050 166 105 1051 168 101 1052 169 103 1053 167 104 1054 170 102 1055 178 89 1056 179 88 1057 170 102 1058 177 91 1059 178 89 1060 168 101 1061 176 93 1062 177 91 1063 171 100 1064 176 93 1065 171 100 1066 175 94 1067 175 94 1068 172 99 1069 174 96 1070 169 103 1071 179 88 1072 173 98 1073 174 96 1074 179 88 1075 33 97 1076 34 95 1077 175 94 1078 33 97 1079 35 121 1080 176 93 1081 34 95 1082 30 119 1083 177 91 1084 35 121 1085 30 119 1086 31 90 1087 177 91 1088 31 90 1089 32 87 1090 178 89 1091</p>
        </polylist>
      </mesh>
    </geometry>
  </library_geometries>
  <library_controllers/>
  <library_visual_scenes>
    <visual_scene id="Scene" name="Scene">
      <node id="Camera" name="Camera" type="NODE">
        <matrix sid="transform">0.5264388 -0.3173701 0.7887575 25.27253 0.8433613 0.3124686 -0.4371557 -13.94237 -0.1077218 0.8953432 0.4321533 14.3528 0 0 0 1</matrix>
        <instance_camera url="#Camera-camera"/>
      </node>
      <node id="Lamp" name="Lamp" type="NODE">
        <matrix sid="transform">0.6316198 0.3033324 0.7134745 24.26073 0.01053828 0.9168376 -0.3991211 -0.7067547 -0.7752066 0.2596116 0.5758962 22.87521 0 0 0 1</matrix>
        <instance_light url="#Lamp-light"/>
      </node>
      <node id="RopeFence1" name="RopeFence1" type="NODE">
        <matrix sid="transform">1.88745e-8 0.25 0 -0.001428604 -0.25 1.88745e-8 1.86265e-9 0.9985716 1.86265e-9 0 0.25 0 0 0 0 1</matrix>
        <instance_geometry url="#Cube_012-mesh" name="RopeFence1">
          <bind_material>
            <technique_common>
              <instance_material symbol="PostMat-material" target="#PostMat-material">
                <bind_vertex_input semantic="UVTex" input_semantic="TEXCOORD" input_set="0"/>
              </instance_material>
              <instance_material symbol="Rope-material" target="#Rope-material">
                <bind_vertex_input semantic="UVTex" input_semantic="TEXCOORD" input_set="0"/>
              </instance_material>
            </technique_common>
          </bind_material>
        </instance_geometry>
      </node>
    </visual_scene>
  </library_visual_scenes>
  <scene>
    <instance_visual_scene url="#Scene"/>
  </scene>
</COLLADA>