<?xml version="1.0" encoding="utf-8"?>
<COLLADA xmlns="http://www.collada.org/2005/11/COLLADASchema" version="1.4.1">
  <asset>
    <contributor>
      <author>Russell</author>
      <authoring_tool>OpenCOLLADA for 3ds Max;  Version: 1.2.5;  Revision: 673;  Platform: x64;  Configuration: Release Max2010</authoring_tool>
      <source_data>file:///E:/Projects/Pacific_Art/06_Rocks/03_All%20Rocks%20V2/Allrocks_V2_01.max</source_data>
    </contributor>
    <created>2011-04-26T19:50:17</created>
    <modified>2011-04-26T19:50:17</modified>
    <unit name="meter" meter="1"/>
    <up_axis>Z_UP</up_axis>
  </asset>
  <library_effects>
    <effect id="greyrock">
      <profile_COMMON>
        <newparam sid="grayrock_diffuse_dds-surface">
          <surface type="2D">
            <init_from>grayrock_diffuse_dds</init_from>
          </surface>
        </newparam>
        <newparam sid="grayrock_diffuse_dds-sampler">
          <sampler2D>
            <source>grayrock_diffuse_dds-surface</source>
          </sampler2D>
        </newparam>
        <technique sid="common">
          <blinn>
            <emission>
              <color>0 0 0 1</color>
            </emission>
            <ambient>
              <texture texture="grayrock_diffuse_dds-sampler" texcoord="CHANNEL1"/>
            </ambient>
            <diffuse>
              <texture texture="grayrock_diffuse_dds-sampler" texcoord="CHANNEL1"/>
            </diffuse>
            <specular>
              <color>0.9 0.9 0.9 1</color>
            </specular>
            <shininess>
              <float>9.999999</float>
            </shininess>
            <reflective>
              <color>0 0 0 1</color>
            </reflective>
            <transparent opaque="A_ONE">
              <color>1 1 1 1</color>
            </transparent>
            <transparency>
              <float>1</float>
            </transparency>
          </blinn>
        </technique>
      </profile_COMMON>
      <extra>
        <technique profile="OpenCOLLADA3dsMax">
          <extended_shader>
            <apply_reflection_dimming>0</apply_reflection_dimming>
            <dim_level>0</dim_level>
            <falloff_type>0</falloff_type>
            <index_of_refraction>1.5</index_of_refraction>
            <opacity_type>0</opacity_type>
            <reflection_level>3</reflection_level>
            <wire_size>1</wire_size>
            <wire_units>0</wire_units>
          </extended_shader>
          <shader>
            <ambient_diffuse_lock>1</ambient_diffuse_lock>
            <ambient_diffuse_texture_lock>1</ambient_diffuse_texture_lock>
            <diffuse_specular_lock>0</diffuse_specular_lock>
            <soften>0.1</soften>
            <use_self_illum_color>0</use_self_illum_color>
          </shader>
        </technique>
      </extra>
    </effect>
    <effect id="greyrock_1">
      <profile_COMMON>
        <newparam sid="grayrock_diffuse_png-surface">
          <surface type="2D">
            <init_from>grayrock_diffuse_png</init_from>
          </surface>
        </newparam>
        <newparam sid="grayrock_diffuse_png-sampler">
          <sampler2D>
            <source>grayrock_diffuse_png-surface</source>
          </sampler2D>
        </newparam>
        <technique sid="common">
          <blinn>
            <emission>
              <color>0 0 0 1</color>
            </emission>
            <ambient>
              <color>0.588 0.588 0.588 1</color>
            </ambient>
            <diffuse>
              <texture texture="grayrock_diffuse_png-sampler" texcoord="CHANNEL1"/>
            </diffuse>
            <specular>
              <color>0.9 0.9 0.9 1</color>
            </specular>
            <shininess>
              <float>10</float>
            </shininess>
            <reflective>
              <color>0 0 0 1</color>
            </reflective>
            <transparent opaque="A_ONE">
              <color>1 1 1 1</color>
            </transparent>
            <transparency>
              <float>1</float>
            </transparency>
          </blinn>
        </technique>
      </profile_COMMON>
      <extra>
        <technique profile="OpenCOLLADA3dsMax">
          <extended_shader>
            <apply_reflection_dimming>0</apply_reflection_dimming>
            <dim_level>0</dim_level>
            <falloff_type>0</falloff_type>
            <index_of_refraction>1.5</index_of_refraction>
            <opacity_type>0</opacity_type>
            <reflection_level>3</reflection_level>
            <wire_size>1</wire_size>
            <wire_units>0</wire_units>
          </extended_shader>
          <shader>
            <ambient_diffuse_lock>1</ambient_diffuse_lock>
            <ambient_diffuse_texture_lock>1</ambient_diffuse_texture_lock>
            <diffuse_specular_lock>0</diffuse_specular_lock>
            <soften>0.1</soften>
            <use_self_illum_color>0</use_self_illum_color>
          </shader>
        </technique>
      </extra>
    </effect>
    <effect id="ColorEffectR26G177B26">
      <profile_COMMON>
        <technique sid="common">
          <phong>
            <ambient>
              <color>0.1019608 0.6941177 0.1019608 1</color>
            </ambient>
            <diffuse>
              <color>0.1019608 0.6941177 0.1019608 1</color>
            </diffuse>
            <specular>
              <color>1 1 1 1</color>
            </specular>
            <shininess>
              <float>10</float>
            </shininess>
            <reflective>
              <color>0 0 0 1</color>
            </reflective>
            <transparent>
              <color>1 1 1 1</color>
            </transparent>
            <transparency>
              <float>1</float>
            </transparency>
          </phong>
        </technique>
      </profile_COMMON>
      <extra>
        <technique profile="OpenCOLLADA3dsMax">
          <extended_shader>
            <apply_reflection_dimming>0</apply_reflection_dimming>
            <dim_level>0</dim_level>
            <falloff_type>0</falloff_type>
            <index_of_refraction>1.5</index_of_refraction>
            <opacity_type>0</opacity_type>
            <reflection_level>3</reflection_level>
            <wire_size>1</wire_size>
            <wire_units>0</wire_units>
          </extended_shader>
          <shader>
            <ambient_diffuse_lock>1</ambient_diffuse_lock>
            <ambient_diffuse_texture_lock>1</ambient_diffuse_texture_lock>
            <diffuse_specular_lock>0</diffuse_specular_lock>
            <soften>0.1</soften>
            <use_self_illum_color>0</use_self_illum_color>
          </shader>
        </technique>
      </extra>
    </effect>
  </library_effects>
  <library_materials>
    <material id="ColorEffectR26G177B26-material" name="ColorEffectR26G177B26-material">
      <instance_effect url="#ColorEffectR26G177B26"/>
    </material>
    <material id="greyrock-material" name="greyrock">
      <instance_effect url="#greyrock"/>
    </material>
    <material id="greyrock_1-material" name="greyrock">
      <instance_effect url="#greyrock_1"/>
    </material>
  </library_materials>
  <library_geometries>
    <geometry id="geom-genericprismtwo400" name="genericprismtwo400">
      <mesh>
        <source id="geom-genericprismtwo400-positions">
          <float_array id="geom-genericprismtwo400-positions-array" count="537">-6.044177 4.615494 3.291673 5.510013 -3.491451 1.99627 -4.889935 4.556098 5.373857 5.716274 4.064354 4.751328 -6.586245 0.3153912 3.633359 -6.411405 -1.322789 0.5441951 4.999395 4.522617 5.291777 6.651289 1.926535 3.111256 5.938556 -1.305157 -0.215777 -4.54459 5.33452 4.519419 -5.468579 3.870513 5.480094 -5.016744 -3.386863 2.720463 -3.01422 4.424466 1.650773 -2.180506 1.159994 7.15287 -2.749547 -0.5352083 6.329024 -2.455899 -3.788602 -0.9456099 -3.039086 -2.525575 -2.007315 0.3718839 4.629896 5.032203 1.787667 -0.4807214 6.191607 1.787658 -3.765518 2.79653 4.88061 0.9490522 -0.8199219 4.725299 5.13517 4.726583 5.073351 1.126697 6.168743 5.946352 -2.11574 3.023563 -5.173789 2.697696 2.510447 -7.131319 1.278554 3.010157 -6.785951 0.716202 2.293941 -6.890376 -0.00169453 2.770937 -6.045135 -1.000573 4.744534 -5.034081 4.651035 4.640349 -3.807519 3.832603 6.129848 -3.90332 5.191797 4.585627 -5.488939 4.503003 4.83197 -5.281913 -1.089202 5.536964 -5.680548 -2.127508 4.60757 -1.59805 4.228886 1.759067 -3.011119 5.280897 2.397152 -1.881767 4.686375 2.701954 -1.612875 -0.5552274 6.446169 -1.895768 -0.04828784 6.957628 -3.015712 -4.073045 2.197939 0.6537809 -0.511593 6.298981 0.3704491 2.279388 6.625421 -1.046211 -2.540568 4.935106 0.08711624 -3.729756 2.785544 1.517235 5.014043 2.522086 3.131651 5.271806 4.756085 2.360201 4.023138 5.989117 2.898008 1.714694 6.402607 2.349168 -3.904359 2.202234 2.927936 -1.516904 -1.828925 4.801744 2.904498 2.087745 3.520709 1.409588 -1.279181 5.348814 4.701541 3.707873 4.693609 -0.4766518 5.974224 3.816134 -3.897837 2.056804 3.483683 -3.537159 0.01233041 7.240259 0.3519674 1.203519 7.068203 1.315048 2.347346 6.569731 0.5815489 2.496728 5.760043 1.306566 5.423007 5.937193 -2.930215 2.084707 5.688515 -2.771849 0.3289675 -5.939829 3.375742 4.210526 -4.435555 0.6868823 6.324089 -4.432309 -3.142018 3.973987 -4.871614 -2.87149 4.423813 -5.581977 -2.924101 3.454041 -3.846219 -3.066542 -1.289425 -3.885483 -3.371099 -0.5900398 -5.532063 -2.165193 -0.8446013 -1.896598 0.5442593 7.212722 -2.468086 -1.094006 6.151951 -2.732441 -3.34045 -1.627511 -0.2010589 4.911005 2.5751 0.0627265 4.409152 5.51204 -0.1970582 5.171311 4.143769 -0.2002544 4.359591 6.062983 0.08711672 0.6128678 6.504561 -0.1962161 -2.122499 5.424177 -1.046211 -3.190661 -1.509451 2.060895 5.743999 4.105201 1.235107 4.495823 5.791024 2.344606 -2.879466 -1.212977 2.071296 -3.578957 0.8965478 4.706337 2.609778 0.3284576 5.193093 2.186105 0.1234928 5.525161 4.499846 4.835042 4.394449 5.237423 4.15242 4.46214 1.125046 6.488166 3.464386 0.002816886 6.426663 4.657168 -2.427022 -0.793249 5.256234 -2.444125 -0.5091735 6.645661 2.348645 1.538295 -5.839601 -0.3525708 0.7582457 -5.710249 2.518284 5.530427 -6.29515 -1.083661 3.995738 -5.559873 -0.3904827 -1.164241 -4.024975 5.606675 3.152619 -3.598485 4.874465 5.097513 -5.454234 -3.158142 0.7570179 -4.447541 -2.239038 -1.496331 -3.916969 -0.9408738 -2.037298 -2.766177 -0.1054893 -2.166907 -2.190279 5.213163 3.473771 -3.327986 5.554835 4.169408 -1.329543 -3.722878 3.453765 -0.4794354 5.185304 3.475404 -1.046211 -2.034676 5.323653 1.220232 -0.3087872 -2.174754 1.779147 5.142901 5.355563 3.11772 5.017954 5.257702 1.220445 2.285908 6.665656 1.787983 -1.578913 5.761677 2.347036 -3.380964 3.294151 1.787924 -3.854699 1.552953 3.270432 -0.8666557 -2.028525 3.194167 -3.227041 -0.6179246 3.520906 0.5643291 -1.587354 5.065628 -0.3375526 -1.232897 4.681583 4.89268 3.389282 4.043818 4.922116 5.272434 5.203241 2.631801 5.878944 3.477101 -1.691963 5.846615 5.171194 -1.253008 5.290782 4.083778 -2.859294 4.323812 5.633072 -2.772393 3.142073 4.083283 -3.030959 -0.5682565 -4.410952 1.92998 0.1052929 -3.140263 2.317369 -0.09252584 2.629027 2.841964 0.4923334 0.9720302 2.802107 0.2207544 3.305968 2.600119 0.8791752 4.693177 2.902896 0.8241786 -5.832982 1.473515 0.3419254 -2.33364 2.205457 0.2116112 4.218 2.902731 0.7444748 -3.670658 3.268178 0.7912784 -2.775038 3.963663 0.4728972 -3.823245 2.212569 0.03375506 2.32162 2.951061 0.5122046 3.516541 2.798081 -0.8498346 1.899951 2.133164 -1.102964 2.055557 4.159098 1.480008 2.422059 4.193074 1.436806 2.882892 2.888906 0.8333891 -2.373765 4.221954 1.711054 4.668458 2.780326 0.4748292 4.785965 1.951221 -0.3692403 -5.322727 2.032125 1.582265 -5.734375 0.5652092 -0.5117136 -5.054979 1.715085 0.1675321 -5.181949 0.8146616 -0.6551117 -4.684163 3.797987 1.878937 -4.477145 -0.08010373 -1.768331 -3.669945 0.8406992 -1.341693 -2.927119 2.1584 -0.0528847 -2.751622 1.106699 -1.111781 -1.700303 3.550844 0.7118174 -0.1684251 3.655634 1.406285 -1.209453 2.261739 0.1476676 0.3264322 0.6339943 -1.713762 0.1736217 4.464318 2.187582 4.338738 1.463542 -1.221038 2.81526 4.18877 1.791951 3.637238 2.688903 0.9431889 4.510528 2.426991 0.1433259 4.546294 2.918935 1.022227 3.201083 4.876325 3.046183 -4.424732 0.7641565 -0.9402066 1.099585 3.896955 1.645373 3.775069 1.946987 -0.4760522 4.290586 1.547167 -0.08426559 4.734382 3.171118 2.423061 -4.422804 3.130416 1.187512 -2.26012 3.82765 0.5766522 -0.957943 1.090335 -1.031679 4.66702 1.916041 -0.0733062 4.113595 4.002149 2.045103</float_array>
          <technique_common>
            <accessor source="#geom-genericprismtwo400-positions-array" count="179" stride="3">
              <param name="X" type="float"/>
              <param name="Y" type="float"/>
              <param name="Z" type="float"/>
            </accessor>
          </technique_common>
        </source>
        <source id="geom-genericprismtwo400-normals">
          <float_array id="geom-genericprismtwo400-normals-array" count="537">0.624408 0.7065841 -0.3329467 0.5613298 0.5936804 -0.5765868 0.4000676 0.7445592 -0.5343946 -0.2607605 -0.4619905 0.8476844 0.01304052 -0.526594 0.8500168 -0.4125452 -0.09882071 0.9055611 0.1543249 -0.2383723 0.9588339 0.0026009 -0.186936 0.9823686 0.9074764 0.3217688 0.2700955 0.7757455 0.5043826 0.3792324 0.4140737 0.479433 0.7737486 0.4384075 -0.3133848 0.842371 0.604519 -0.06279434 0.7941118 0.2325066 0.02358357 0.9723089 0.5529988 -0.4838367 -0.6783025 0.7402627 -0.5754246 -0.3477031 0.2686284 -0.701126 -0.6605006 -0.9740904 0.2135581 0.07443629 -0.8512049 0.468749 -0.2360608 -0.845463 0.3017015 -0.4406456 -0.8598332 0.1770245 -0.4789043 -0.9807003 0.141831 -0.1345765 -0.9524566 0.2566865 -0.1641292 -0.9395164 -0.2788751 0.1988406 -0.975893 -0.2137056 -0.04430387 -0.2276016 0.9368687 -0.2654701 -0.04909059 0.8029101 -0.5940751 -0.6524194 0.6813164 0.3318988 -0.5079656 0.8433695 0.1752108 -0.4126686 0.8802682 0.2341632 0.0230247 0.8990143 0.4373135 -0.03421063 0.9666186 0.2539255 -0.3499149 0.6334511 0.6901444 -0.2455257 0.4142829 0.8764057 -0.8543592 -0.163553 0.4932756 -0.4739488 -0.3283062 0.8170603 -0.7322459 0.1052607 0.6728567 -0.6963459 -0.5205109 0.4941365 -0.07762105 -0.5171152 0.8523889 -0.172248 -0.9129627 0.369905 0.03334735 -0.9073495 0.4190525 -0.2790561 -0.7645829 0.5809826 -0.6457278 -0.7482311 -0.152269 -0.1194001 -0.9888636 0.08883968 -0.4087998 -0.9035985 0.1280331 -0.456932 -0.3394729 -0.8221747 -0.1611798 -0.3138589 -0.9356888 -0.4201943 -0.6921574 -0.5868176 -0.5196126 0.617725 -0.59027 -0.09521118 0.7160819 -0.6914924 -0.3261079 0.5687795 -0.7550784 0.2344675 0.7845176 -0.5740706 -0.02988855 0.7824063 0.6220507 0.08679516 0.707578 0.7012845 -0.03935925 -0.5633485 0.8252814 0.1659849 -0.5737878 0.8020078 -0.299428 -0.04854477 -0.9528831 -0.06228162 0.3196921 -0.9454723 0.04675585 0.1376275 -0.9893798 0.03654141 0.8356783 -0.5480022 0.5139141 0.7361662 -0.4403994 -0.1139154 0.6348383 -0.7642013 0.05818896 0.8725705 -0.48501 0.01636377 0.9807774 -0.1944427 -0.05760191 0.8515146 -0.5211572 0.008847608 0.9731531 0.2299884 -0.08740997 0.6105559 0.7871346 0.03495834 0.9648191 0.2605799 -0.1349805 0.1350283 0.9816046 0.06205169 0.15328 0.9862326 -0.02913091 -0.6173321 0.786163 -0.08346074 -0.2958958 0.9515671 0.05309954 -0.9917023 0.117077 0.05748141 -0.9503289 0.3058933 0.04671023 -0.8617349 0.505204 -0.02834936 -0.6514575 0.7581554 -0.03038428 -0.7144613 0.6990148 -0.05140531 -0.9472889 -0.3162297 0.1424306 -0.7245238 -0.6743729 0.1614978 -0.3942361 -0.9047079 -0.1518611 0.927166 0.3424927 0.1108012 0.7291231 0.6753537 0.08625235 0.9132014 0.3982761 -0.1055563 0.8761828 0.4702781 -0.02154491 0.9945911 0.1016099 0.119204 -0.5904458 0.7982256 0.1375111 -0.983851 0.1145772 0.2087752 -0.8113173 0.546056 0.09090621 -0.957908 -0.2723019 0.09897764 -0.9659757 -0.2389445 0.229835 0.2694632 -0.935182 0.6361347 0.3683037 -0.6780006 0.6235105 0.09858723 -0.7755741 -0.1808505 0.6215278 -0.7622311 0.1642766 0.6712471 -0.7228005 0.4801717 0.7221326 -0.4979556 0.5246857 0.232875 0.8188249 0.8522918 -0.05159531 0.5205158 0.2368836 0.9625166 -0.1320906 0.7577091 0.5472582 -0.3555074 0.3412369 0.7826548 -0.5205852 0.07986285 0.5273556 0.845883 0.08235531 0.09461658 0.9921014 0.03872023 -0.1882415 0.9813592 0.6573485 -0.4314657 0.6178432 0.08641926 -0.9331705 -0.3488905 0.5106649 -0.8553778 0.08689198 0.06840616 -0.8035795 -0.5912534 0.3259222 -0.4700124 -0.8202823 0.9420152 -0.2546293 -0.2185668 0.6901574 0.6187562 -0.3752646 0.9741024 0.02499672 0.2247214 0.8645121 -0.1353583 -0.4840423 0.933535 0.2494674 0.2574459 0.9031223 -0.4257385 0.0558286 0.8665336 -0.389885 0.3116235 -0.730661 0.1552108 -0.664864 -0.6973954 -0.4208938 -0.5800759 -0.9889644 3.93907e-4 -0.1481529 -0.3800721 -0.8755608 -0.2982253 -0.9139621 -0.1036319 0.3923439 0.1857186 0.8962833 -0.4027218 0.06617841 0.855899 -0.5128911 -0.1282507 -0.6804551 -0.7214794 0.05481396 0.1207879 0.9911638 0.1172876 0.3836906 0.9159831 0.04659069 -0.1576522 0.986395 0.04508782 -0.9025222 0.4282765 0.3646784 0.8877335 0.2809604 0.2330551 -0.08751968 -0.9685172 0.9195215 -0.2589534 0.2956748 0.6478562 -0.6265603 0.4332487 -0.8009815 -0.5754896 0.1650461 0.1161816 -0.638588 -0.7607281 -0.2389475 0.4385847 -0.8663415 -0.8123475 0.2958906 -0.502534 -0.3374477 0.6397672 -0.6905266 -0.356203 0.5636521 -0.7452621 -0.5713928 0.459816 -0.6797643 -0.6170572 0.3044728 0.7256285 -0.4145991 0.3487461 -0.8405259 -0.2092692 0.6538202 -0.7271352 0.3340624 0.4688151 -0.8176886 0.0147897 0.6933712 -0.7204288 0.3167826 0.5493276 -0.7732322 0.04938111 0.7161483 -0.6961991 -0.03100841 0.6358916 -0.7711552 0.1468624 0.9012337 -0.4076878 -0.06399773 0.5210198 -0.851142 0.1439414 0.4434146 -0.8846833 0.002891678 0.6617247 -0.7497413 -0.01271378 0.8450326 -0.5345636 0.5016194 0.5542731 -0.6641983 0.306746 0.7737517 -0.55427 -0.1834712 0.4692759 -0.8637816 -0.6363783 0.40874 -0.6541821 0.1839174 0.9077902 -0.3769499 0.223075 0.8616505 -0.4558465 0.1960239 0.8314283 -0.5199053 -0.3548413 0.6125478 -0.7063093 -0.1160185 0.696374 -0.7082393 0.7655964 0.6229399 -0.1606488 0.1499597 0.8144805 -0.5604762 -0.08995765 0.6985845 -0.7098502 0.560418 0.780013 -0.2784086 -0.8626246 0.4443818 -0.2416684 -0.9311973 0.3643357 -0.01144957 -0.5427227 0.5933261 -0.5944882 0.3376594 0.6218851 -0.7065727 -0.08874472 0.7048839 -0.7037492 -0.7559385 0.212035 -0.6193531 0.4859625 0.6813598 -0.5473475 -0.3344505 0.6268414 -0.7037136 0.08478077 0.4255342 -0.9009622 -0.1009393 0.7920749 -0.6020205 0.2625408 0.9461502 -0.1893993 0.3308266 0.689536 -0.6442777 0.1543038 0.5058895 -0.848685 -0.01954826 0.6668263 -0.7449567</float_array>
          <technique_common>
            <accessor source="#geom-genericprismtwo400-normals-array" count="179" stride="3">
              <param name="X" type="float"/>
              <param name="Y" type="float"/>
              <param name="Z" type="float"/>
            </accessor>
          </technique_common>
        </source>
        <source id="geom-genericprismtwo400-map1">
          <float_array id="geom-genericprismtwo400-map1-array" count="615">0.4308243 0.7441748 0 0.3824902 0.1964381 0 0.6682236 0.5054232 0 0.6815008 0.529972 0 0.4579859 0.7647623 0 0.6330184 0.5175089 0 0.2689114 0.2038901 0 0.4107475 0.2550035 0 0.3416192 0.1615204 0 0.3630421 0.1658345 0 0.3144068 0.1990514 0 0.2486717 0.3195937 0 0.2464184 0.289806 0 0.3809513 0.7807244 0 0.5202585 0.7740343 0 0.458982 0.7846428 0 0.6603991 0.7295007 0 0.2695224 0.3910064 0 0.382368 0.1599013 0 0.6748711 0.7760981 0 0.6560243 0.7812572 0 0.1616522 0.3233094 0 0.3449543 0.9019821 0 0.3587608 0.9119247 0 0.3332202 0.9435042 0 0.4057373 0.8646594 0 0.2197296 0.3268498 0 0.4015209 0.1672225 0 0.6742823 0.2750784 0 0.3741564 0.4841696 0 0.3213995 0.4351856 0 0.2070863 0.2978787 0 0.2435942 0.4171311 0 0.6778086 0.3365926 0 0.3242009 0.7096313 0 0.3517959 0.7221556 0 0.3448097 0.8230778 0 0.3377157 0.6815175 0 0.4171175 0.4796024 0 0.2136221 0.1926934 0 0.7221276 0.1885708 0 0.4385385 0.7258358 0 0.2811457 0.1600321 0 0.1194965 0.3327878 0 0.4113611 0.2202727 0 0.4569086 0.2548154 0 0.3684898 0.8760066 0 0.1447379 0.3017974 0 0.3737134 0.6408557 0 0.4691074 0.6150079 0 0.5697175 0.8627948 0 0.3613726 0.657118 0 0.188514 0.4581649 0 0.1283662 0.3816655 0 0.3928325 0.5063804 0 0.3881008 0.4498268 0 0.4006381 0.4324625 0 0.5609071 0.2225891 0 0.6241665 0.3921517 0 0.4479822 0.2212194 0 0.5180894 0.8635185 0 0.4807533 0.6864278 0 0.4658336 0.7434101 0 0.2488968 0.1593865 0 0.5389795 0.8730084 0 0.4224314 0.9351237 0 0.4512906 0.801414 0 0.531867 0.8215579 0 0.5068073 0.6840018 0 0.4353507 0.5288309 0 0.4955166 0.1914295 0 0.5986253 0.8895059 0 0.5357903 0.7391376 0 0.4165189 0.5911655 0 0.5822099 0.5910845 0 0.5127715 0.6037136 0 0.5830467 0.6166736 0 0.5689179 0.7005303 0 0.4798812 0.6671816 0 0.6207987 0.6958895 0 0.5800558 0.4988294 0 0.5971775 0.4584268 0 0.7115085 0.1781215 0 0.713199 0.1645461 0 0.7690981 0.184009 0 0.6449717 0.8867418 0 0.6374902 0.6421956 0 0.6461264 0.9062518 0 0.5303829 0.9278315 0 0.5493791 0.8915447 0 0.5723748 0.5609832 0 0.563944 0.5808768 0 0.7975978 0.2207836 0 0.6088187 0.7989517 0 0.6233285 0.7507749 0 0.6700749 0.1785436 0 0.6851002 0.2023007 0 0.6737847 0.6980615 0 0.6151364 0.5409894 0 0.6750879 0.5870318 0 0.5045893 0.2216677 0 0.5580837 0.8209527 0 0.5708014 0.7368027 0 0.565138 0.60022 0 0.6814704 0.8139013 0 0.6961957 0.6426637 0 0.6254079 0.585227 0 0.6061937 0.5211207 0 0.5049338 0.1722383 0 0.6163072 0.4196452 0 0.6092663 0.9246254 0 0.6898872 0.922094 0 0.6854051 0.6264646 0 0.6916974 0.5864317 0 0.3101392 0.2636328 0 0.439169 0.1900099 0 0.3393813 0.6438441 0 0.3570711 0.602037 0 0.6963519 0.7701012 0 0.6500668 0.4993429 0 0.6851053 0.8660647 0 0.676878 0.8833772 0 0.6882592 0.4863488 0 0.6674828 0.4330127 0 0.3412623 0.4966321 0 0.3133375 0.5068126 0 0.3918126 0.5277067 0 0.4267241 0.5048531 0 0.6058524 0.4424599 0 0.4777212 0.5033662 0 0.5468307 0.429718 0 0.7555754 0.3385433 0 0.7148615 0.2964526 0 0.4019352 0.9189115 0 0.7501411 0.2962399 0 0.5802959 0.1735564 0 0.6651448 0.3275403 0 0.6664323 0.2013873 0 0.657227 0.1736799 0 0.4127722 0.8853621 0 0.701106 0.9026066 0 0.7601696 0.4094273 0 0.7517534 0.2704309 0 0.8378573 0.3804544 0 0.8005787 0.4209666 0 0.3426542 0.5523466 0 0.3814886 0.9217174 0 0.6054925 0.8539294 0 0.3451777 0.8636534 0 0.7668752 0.3080738 0 0.7100949 0.4157941 0 0.6760427 0.3875889 0 0.6861864 0.1669946 0 0.8358247 0.3424319 0 0.3635565 0.3501704 0 0.4061708 0.3353416 0 0.5964594 0.3178852 0 0.5416492 0.3243963 0 0.6226484 0.3110702 0 0.6653389 0.3085191 0 0.315705 0.3484289 0 0.4330235 0.3302211 0 0.648807 0.3110908 0 0.389271 0.3012571 0 0.4161353 0.2873549 0 0.3833222 0.3425212 0 0.5857608 0.3161447 0 0.6184444 0.355375 0 0.572332 0.3712176 0 0.5770925 0.2652824 0 0.590668 0.2638565 0 0.6071789 0.3071034 0 0.4318261 0.2562253 0 0.6627083 0.3208661 0 0.6662682 0.3570191 0 0.3199536 0.3052821 0 0.3120213 0.4050101 0 0.3441489 0.3527407 0 0.3394839 0.3948071 0 0.3589272 0.2564092 0 0.3610618 0.4292099 0 0.3883189 0.3933772 0 0.4133252 0.3350047 0 0.4190968 0.3802486 0 0.4526353 0.2910782 0 0.5042791 0.2769973 0 0.4696912 0.3328795 0 0.5195305 0.4098618 0 0.5163763 0.2406631 0 0.6512505 0.3879781 0 0.6038004 0.2566677 0 0.6308338 0.3099175 0 0.6595754 0.336071 0 0.6619254 0.3034 0 0.6185043 0.2104263 0 0.3625859 0.3966252 0 0.5464224 0.2666359 0 0.634491 0.3599376 0 0.6560412 0.3567562 0 0.6702533 0.2607262 0 0.3654695 0.2934051 0 0.427397 0.285216 0 0.4778944 0.385116 0 0.6653853 0.3504255 0 0.6471937 0.2546671 0</float_array>
          <technique_common>
            <accessor source="#geom-genericprismtwo400-map1-array" count="205" stride="3">
              <param name="S" type="float"/>
              <param name="T" type="float"/>
              <param name="P" type="float"/>
            </accessor>
          </technique_common>
        </source>
        <vertices id="geom-genericprismtwo400-vertices">
          <input semantic="POSITION" source="#geom-genericprismtwo400-positions"/>
        </vertices>
        <triangles material="greyrock_1" count="354">
          <input semantic="VERTEX" source="#geom-genericprismtwo400-vertices" offset="0"/>
          <input semantic="NORMAL" source="#geom-genericprismtwo400-normals" offset="1"/>
          <input semantic="TEXCOORD" source="#geom-genericprismtwo400-map1" offset="2" set="1"/>
          <p>51 0 28 86 1 33 85 2 136 14 3 0 39 4 4 64 5 13 39 4 4 78 6 14 71 7 15 3 8 40 87 9 82 6 10 83 54 11 16 22 12 19 89 13 20 92 14 2 62 15 3 127 16 5 63 17 6 0 18 10 24 19 114 26 20 11 25 21 12 24 19 114 25 21 12 63 17 6 24 19 114 94 22 17 96 23 21 27 24 26 0 18 10 98 25 1 12 26 7 32 27 22 29 28 23 0 18 24 29 28 8 9 29 9 98 25 1 9 29 9 31 30 18 98 25 1 31 30 18 105 31 27 98 25 1 32 27 22 2 32 46 29 28 23 64 5 13 30 33 25 2 32 46 28 34 34 33 35 35 95 36 36 28 34 34 34 37 37 33 35 35 64 5 13 33 35 35 72 38 41 65 39 48 106 40 49 66 41 51 100 42 145 40 43 73 11 44 117 101 45 29 16 46 38 68 47 54 137 48 163 138 49 164 139 50 165 12 26 7 98 25 1 36 51 44 99 52 139 30 33 25 77 53 60 72 38 41 108 54 61 38 55 62 72 38 41 66 41 51 108 54 61 102 56 55 103 57 56 16 46 38 16 46 38 103 57 56 109 58 130 140 59 166 141 60 167 142 61 168 37 62 59 107 63 70 74 64 100 105 31 27 76 65 108 107 63 70 77 53 60 82 66 50 75 67 64 105 31 65 77 53 60 75 67 64 30 33 25 13 68 66 77 53 60 77 53 60 42 69 67 82 66 50 38 55 62 108 54 61 78 6 14 78 6 14 79 70 68 41 71 72 108 54 61 79 70 68 78 6 14 40 43 73 49 72 74 44 73 75 106 40 49 114 74 76 113 75 77 66 41 51 43 76 78 108 54 61 66 41 51 106 40 49 43 76 78 15 77 69 83 78 80 40 43 73 16 46 38 109 58 130 50 79 81 110 80 71 111 81 85 46 82 87 76 65 88 17 83 89 81 84 110 17 83 89 82 66 50 110 80 71 41 71 72 113 75 77 123 85 79 114 74 76 55 86 106 125 87 86 83 78 80 84 88 90 115 89 91 118 90 109 20 91 151 119 92 123 143 93 169 144 94 170 145 95 171 122 96 84 60 97 92 3 8 40 88 98 95 53 99 96 120 100 137 87 9 82 3 8 40 53 99 96 81 84 110 46 82 87 88 98 111 111 81 85 6 10 120 121 101 121 48 102 93 90 103 94 89 13 20 125 87 86 124 104 97 123 85 79 56 105 98 1 106 99 55 86 106 117 107 107 91 108 119 127 16 5 57 109 131 93 110 132 58 111 134 8 112 141 86 1 33 93 110 132 58 111 134 7 113 142 60 97 92 93 110 132 3 8 40 7 113 142 61 114 143 62 15 144 59 115 149 8 112 141 119 92 150 20 91 151 8 112 122 92 14 2 119 92 123 97 116 30 70 117 124 5 118 125 70 117 124 69 119 126 100 42 145 27 24 26 4 120 31 26 20 11 94 22 17 5 118 32 96 23 21 146 121 172 12 26 7 37 62 59 37 62 59 35 122 45 146 121 172 31 30 133 99 52 139 77 53 60 14 3 0 72 38 41 38 55 62 40 43 73 69 119 126 15 77 69 69 119 126 73 123 127 15 77 69 13 68 66 71 7 15 42 69 67 106 40 49 40 43 73 44 73 75 17 83 89 110 80 71 46 82 87 112 124 101 6 10 120 47 125 147 18 126 102 48 102 93 112 124 101 41 71 72 123 85 79 18 126 102 44 73 75 49 72 74 19 127 103 117 107 107 56 105 98 84 88 90 46 82 87 21 128 140 88 98 111 89 13 20 122 96 104 6 10 120 48 102 93 89 13 20 6 10 120 50 79 81 116 129 128 91 108 119 23 130 105 126 131 112 61 114 113 96 23 21 95 36 39 4 120 31 4 120 31 95 36 39 25 21 12 2 32 46 99 52 139 9 29 146 67 132 116 11 44 117 66 41 51 66 41 51 11 44 117 65 39 48 70 117 124 68 47 54 69 119 126 100 42 145 69 119 126 40 43 73 70 117 124 97 116 30 101 45 29 64 5 13 39 4 4 71 7 15 68 47 54 16 46 38 73 123 127 75 67 64 17 83 89 76 65 88 44 73 75 114 74 76 106 40 49 73 123 127 50 79 81 80 133 129 80 133 129 50 79 81 83 78 80 82 66 50 47 125 147 110 80 71 83 78 80 117 107 107 84 88 90 148 134 174 85 2 136 86 1 33 86 1 33 20 91 151 148 134 174 121 101 121 6 10 120 21 128 140 6 10 83 87 9 82 21 128 152 89 13 20 22 12 19 122 96 104 125 87 86 126 131 112 124 104 97 91 108 119 92 14 2 127 16 5 127 16 5 62 15 3 56 105 98 27 24 26 26 20 11 94 22 17 63 17 6 32 27 42 0 18 10 26 20 11 4 120 31 25 21 12 25 21 12 95 36 39 63 17 6 27 24 26 96 23 21 4 120 31 96 23 21 34 37 43 28 34 47 96 23 21 28 34 47 95 36 39 96 23 21 5 118 32 34 37 43 34 37 43 5 118 32 100 42 52 34 37 43 100 42 52 67 132 53 94 22 17 97 116 30 5 118 32 5 118 125 70 117 124 100 42 145 150 135 176 151 136 177 152 137 178 153 138 179 24 19 114 0 18 10 0 18 10 12 26 7 153 138 179 29 28 23 2 32 46 9 29 146 0 18 10 29 28 8 98 25 1 9 29 146 99 52 139 31 30 133 32 27 42 63 17 6 10 139 63 32 27 22 10 139 148 2 32 46 63 17 6 95 36 39 10 139 63 10 139 148 95 36 36 64 5 13 10 139 148 64 5 13 2 32 46 95 36 36 33 35 35 64 5 13 72 38 41 33 35 35 66 41 51 34 37 37 66 41 51 33 35 35 65 39 48 11 44 117 40 43 73 65 39 48 40 43 73 106 40 49 34 37 37 67 132 116 66 41 51 67 132 116 100 42 145 11 44 117 70 117 124 101 45 29 68 47 54 101 45 29 102 56 55 16 46 38 101 45 29 97 116 30 102 56 55 154 140 180 103 57 56 102 56 55 102 56 55 97 116 30 154 140 180 155 141 181 156 142 182 157 143 183 158 144 184 159 145 185 160 146 186 12 26 7 36 51 44 104 147 115 12 26 7 104 147 115 37 62 59 105 31 65 31 30 133 77 53 60 98 25 1 105 31 27 36 51 44 36 51 44 105 31 27 104 147 115 99 52 139 2 32 46 30 33 25 13 68 66 64 5 13 71 7 15 39 4 4 14 3 0 38 55 62 30 33 25 64 5 13 13 68 66 64 5 13 72 38 41 14 3 0 69 119 126 68 47 54 73 123 127 161 148 187 52 149 58 109 58 130 109 58 130 103 57 56 161 148 187 162 150 188 35 122 45 74 64 100 74 64 100 45 151 57 162 150 188 35 122 45 37 62 59 74 64 100 37 62 59 104 147 115 107 63 70 74 64 100 107 63 70 45 151 57 105 31 27 107 63 70 104 147 115 105 31 65 75 67 64 76 65 88 107 63 70 76 65 108 45 151 57 13 68 66 42 69 67 77 53 60 42 69 67 71 7 15 78 6 14 42 69 67 78 6 14 112 124 101 39 4 4 38 55 62 78 6 14 41 71 72 79 70 68 113 75 77 108 54 61 43 76 78 79 70 68 79 70 68 43 76 78 106 40 49 79 70 68 106 40 49 113 75 77 15 77 69 73 123 127 80 133 129 15 77 69 80 133 129 83 78 80 73 123 127 16 46 38 50 79 81 109 58 130 52 149 58 118 90 109 109 58 130 118 90 109 116 129 128 45 151 57 76 65 108 81 84 135 81 84 110 17 83 89 46 82 87 110 80 71 47 125 147 111 81 85 17 83 89 75 67 64 82 66 50 47 125 147 82 66 50 112 124 101 82 66 50 42 69 67 112 124 101 18 126 102 90 103 94 48 102 93 112 124 101 48 102 93 6 10 120 112 124 101 78 6 14 18 126 102 78 6 14 41 71 72 18 126 102 18 126 102 123 85 79 90 103 94 113 75 77 114 74 76 125 87 86 114 74 76 49 72 74 55 86 106 113 75 77 125 87 86 123 85 79 114 74 76 44 73 75 19 127 103 49 72 74 40 43 73 115 89 91 114 74 76 19 127 103 49 72 74 115 89 91 40 43 73 83 78 80 50 79 81 109 58 130 116 129 128 83 78 80 50 79 81 117 107 107 115 89 91 84 88 90 49 72 74 163 152 189 20 91 151 118 90 109 118 90 109 52 149 58 163 152 189 144 94 170 164 153 190 165 154 191 166 155 192 167 156 193 147 157 173 45 151 57 81 84 135 88 98 138 46 82 87 111 81 85 121 101 121 46 82 87 121 101 121 21 128 140 6 10 83 122 96 84 3 8 40 168 158 194 45 151 57 88 98 138 88 98 138 120 100 137 168 158 194 88 98 95 21 128 152 53 99 96 21 128 152 87 9 82 53 99 96 120 100 137 53 99 96 51 0 28 53 99 96 3 8 40 51 0 28 111 81 85 47 125 147 6 10 120 89 13 20 90 103 94 54 11 16 54 11 16 124 104 97 22 12 19 22 12 19 124 104 97 60 97 118 90 103 94 123 85 79 54 11 16 123 85 79 124 104 97 54 11 16 125 87 86 55 86 106 126 131 112 126 131 112 55 86 106 1 106 99 49 72 74 84 88 90 56 105 98 49 72 74 56 105 98 55 86 106 91 108 119 116 129 128 92 14 2 92 14 2 116 129 128 119 92 123 56 105 98 62 15 3 1 106 99 56 105 98 117 107 107 127 16 5 117 107 107 50 79 81 91 108 119 116 129 128 118 90 109 119 92 123 57 109 131 59 115 149 8 112 141 59 115 149 57 109 131 58 111 134 57 109 131 8 112 141 93 110 132 93 110 132 7 113 142 58 111 134 8 112 141 20 91 151 86 1 33 51 0 28 3 8 40 93 110 132 93 110 132 86 1 33 51 0 28 60 97 92 23 130 153 59 115 149 59 115 149 58 111 134 60 97 92 7 113 142 3 8 40 60 97 92 60 97 118 122 96 104 22 12 19 23 130 105 60 97 118 124 104 97 124 104 97 126 131 112 23 130 105 59 115 149 23 130 153 61 114 143 61 114 113 126 131 112 1 106 99 1 106 99 62 15 3 61 114 113 59 115 149 62 15 144 8 112 141 8 112 122 62 15 3 92 14 2 152 137 178 139 50 165 169 159 195 169 159 195 155 141 181 154 140 180 170 160 196 143 93 169 140 59 166 162 150 188 170 160 196 159 145 185 141 60 167 145 95 171 171 161 197 171 161 197 172 162 198 163 152 189 173 163 199 120 100 137 51 0 28 133 164 159 173 163 199 51 0 28 51 0 28 85 2 136 147 157 173 133 164 159 51 0 28 147 157 173 150 135 176 97 116 30 94 22 17 134 165 160 150 135 176 94 22 17 94 22 17 26 20 11 24 19 114 94 22 17 24 19 114 149 166 175 134 165 160 94 22 17 149 166 175 151 136 177 174 167 200 137 48 163 149 166 175 153 138 179 174 167 200 156 142 182 175 168 201 158 144 184 138 49 164 146 121 172 175 168 201 157 143 183 160 146 186 176 169 202 176 169 202 142 61 168 161 148 187 172 162 198 165 154 191 177 170 203 177 170 203 166 155 192 148 134 174 167 156 193 178 171 204 173 163 199 164 153 190 168 158 194 178 171 204 128 172 154 137 48 163 139 50 165 137 48 163 12 26 7 138 49 164 139 50 165 138 49 164 129 173 155 131 174 157 140 59 166 142 61 168 140 59 166 130 175 156 141 60 167 142 61 168 141 60 167 52 149 58 130 175 156 143 93 169 145 95 171 143 93 169 45 151 57 144 94 170 145 95 171 144 94 170 132 176 158 97 116 30 150 135 176 152 137 178 150 135 176 134 165 160 151 136 177 152 137 178 151 136 177 128 172 154 103 57 56 155 141 181 157 143 183 155 141 181 129 173 155 156 142 182 157 143 183 156 142 182 135 177 161 135 177 161 158 144 184 160 146 186 158 144 184 35 122 45 159 145 185 160 146 186 159 145 185 131 174 157 132 176 158 144 94 170 165 154 191 144 94 170 45 151 57 164 153 190 165 154 191 164 153 190 136 178 162 85 2 136 166 155 192 147 157 173 166 155 192 136 178 162 167 156 193 147 157 173 167 156 193 133 164 159 169 159 195 154 140 180 97 116 30 97 116 30 152 137 178 169 159 195 152 137 178 128 172 154 139 50 165 129 173 155 155 141 181 169 159 195 169 159 195 139 50 165 129 173 155 154 140 180 155 141 181 103 57 56 131 174 157 159 145 185 170 160 196 170 160 196 140 59 166 131 174 157 170 160 196 162 150 188 45 151 57 45 151 57 143 93 169 170 160 196 140 59 166 143 93 169 130 175 156 35 122 45 162 150 188 159 145 185 171 161 197 163 152 189 52 149 58 52 149 58 141 60 167 171 161 197 141 60 167 130 175 156 145 95 171 132 176 158 172 162 198 171 161 197 171 161 197 145 95 171 132 176 158 163 152 189 172 162 198 20 91 151 128 172 154 151 136 177 137 48 163 134 165 160 149 166 175 174 167 200 174 167 200 151 136 177 134 165 160 174 167 200 153 138 179 12 26 7 12 26 7 137 48 163 174 167 200 149 166 175 24 19 114 153 138 179 135 177 161 156 142 182 158 144 184 129 173 155 138 49 164 175 168 201 175 168 201 156 142 182 129 173 155 175 168 201 146 121 172 35 122 45 35 122 45 158 144 184 175 168 201 138 49 164 12 26 7 146 121 172 176 169 202 161 148 187 103 57 56 103 57 56 157 143 183 176 169 202 157 143 183 135 177 161 160 146 186 131 174 157 142 61 168 176 169 202 176 169 202 160 146 186 131 174 157 161 148 187 142 61 168 52 149 58 177 170 203 148 134 174 20 91 151 20 91 151 172 162 198 177 170 203 172 162 198 132 176 158 165 154 191 136 178 162 166 155 192 177 170 203 177 170 203 165 154 191 136 178 162 148 134 174 166 155 192 85 2 136 133 164 159 167 156 193 173 163 199 136 178 162 164 153 190 178 171 204 178 171 204 167 156 193 136 178 162 178 171 204 168 158 194 120 100 137 120 100 137 173 163 199 178 171 204 164 153 190 45 151 57 168 158 194</p>
        </triangles>
      </mesh>
    </geometry>
    <geometry id="geom-genericprismtwo200" name="genericprismtwo200">
      <mesh>
        <source id="geom-genericprismtwo200-positions">
          <float_array id="geom-genericprismtwo200-positions-array" count="210">-5.532063 -2.135088 -0.8446013 4.338738 1.493646 -1.221038 4.725299 5.165274 4.726583 -4.54459 5.364624 4.519419 5.256234 -2.414021 -0.5091735 3.477101 -1.661859 5.846615 -2.775038 3.993767 0.4728972 -5.680548 -2.097404 4.60757 5.510013 -3.461347 1.99627 -1.896598 0.5743632 7.212722 -4.477145 -0.04999971 -1.768331 7.068203 1.345152 2.347346 -6.044177 4.645598 3.291673 4.668458 2.81043 0.4748292 -7.131319 1.308658 3.010157 5.073351 1.156802 6.168743 -4.422804 3.160521 1.187512 -3.015712 -4.04294 2.197939 1.517235 5.044147 2.522086 -2.732441 -3.310346 -1.627511 3.270432 -0.8365512 -2.028525 -4.024975 5.636779 3.152619 1.235107 4.525927 5.791024 2.882892 2.91901 0.8333891 -5.710249 2.548388 5.530427 -3.140263 2.347473 -0.09252584 3.516541 2.828185 -0.8498346 0.08711672 0.6429715 6.504561 -5.832982 1.50362 0.3419254 4.999395 4.552722 5.291777 -6.411405 -1.292684 0.5441951 3.194167 -3.196937 -0.6179246 -2.190279 5.243267 3.473771 -6.29515 -1.053557 3.995738 2.349168 -3.874256 2.202234 -1.046211 -2.004571 5.323653 4.681583 4.922784 3.389282 4.801744 2.934602 2.087745 4.88061 0.979156 -0.8199219 -4.889935 4.586201 5.373857 5.171194 -1.222904 5.290782 6.645661 2.378749 1.538295 -4.871614 -2.841385 4.423813 0.3704491 2.309493 6.625421 2.422059 4.223177 1.436806 -5.173789 2.727801 2.510447 4.218 2.932835 0.7444748 1.779147 5.173005 5.355563 -1.209453 2.291844 0.1476676 -5.454234 -3.128038 0.7570179 -3.011119 5.311001 2.397152 -2.373765 4.252059 1.711054 -5.839601 -0.3224664 0.7582457 2.060895 5.774104 4.105201 -5.559873 -0.3603787 -1.164241 1.099585 3.92706 1.645373 -4.435555 0.7169862 6.324089 4.46214 1.15515 6.488166 4.083778 -2.82919 4.323812 5.938556 -1.275053 -0.215777 -5.939829 3.405846 4.210526 3.520709 1.439692 -1.279181 -6.890376 0.02840948 2.770937 5.716274 4.094458 4.751328 -1.329543 -3.692773 3.453765 0.3718839 4.66 5.032203 -3.327986 5.584939 4.169408 -5.581977 -2.893997 3.454041 7.240259 0.382072 1.203519 5.633072 -2.742288 3.142073</float_array>
          <technique_common>
            <accessor source="#geom-genericprismtwo200-positions-array" count="70" stride="3">
              <param name="X" type="float"/>
              <param name="Y" type="float"/>
              <param name="Z" type="float"/>
            </accessor>
          </technique_common>
        </source>
        <source id="geom-genericprismtwo200-normals">
          <float_array id="geom-genericprismtwo200-normals-array" count="210">-0.2744196 -0.7556456 0.5947214 0.04635267 -0.9194191 0.3905382 -5.49931e-4 -0.6301109 0.7765049 -0.8435832 0.4210321 -0.3333159 -0.7161406 0.188171 -0.6721119 -0.9519638 0.2554262 -0.1688855 0.00768259 0.8286523 -0.559711 0.1793118 0.965381 -0.1894384 0.024966 0.9853677 0.168604 -0.6932843 0.1476191 0.7053832 -0.6814157 -0.4565286 0.5720614 -0.4429795 -0.1050576 0.890355 -0.1333967 -0.6741041 -0.726491 -0.3225818 0.2988607 -0.8981221 0.2472154 -0.0841327 -0.9653011 0.8505054 -0.2637637 -0.4550486 0.1691786 0.7617177 -0.6254316 0.6848476 0.5987975 -0.4152413 0.6763595 -0.04827495 0.734988 0.7034948 -0.6044704 0.3737789 0.9831004 0.02916517 0.1807295 -0.4448859 0.5696985 0.6910283 -0.01677066 -0.1533975 0.9880222 -0.04520088 0.5612513 0.8264102 -0.008990082 0.6459552 -0.7633224 0.5577304 0.7279927 -0.3987023 -0.03047322 0.3371307 -0.9409645 -0.9774741 0.192529 -0.08646999 -0.8446636 0.2817278 -0.4551625 -0.6320927 -0.760734 -0.1474539 -0.1321371 -0.9883937 0.07495248 -0.7776206 -0.6126744 0.1411966 0.1782656 -0.8070773 -0.5628923 0.599712 -0.7986895 0.04940183 0.6262867 -0.4937922 -0.6032696 0.05939051 0.19521 0.9789616 0.2682543 -0.01297811 0.9632607 0.4565068 0.507479 0.7307987 -0.05430547 0.6984735 -0.7135724 0.4508321 0.740055 -0.4990682 0.03299049 0.5734912 -0.8185472 -0.5706612 0.5576133 -0.6028376 -0.1068963 0.664502 -0.7396015 -0.1350411 0.5048107 -0.852602 0.5675026 0.7374373 -0.3662333 0.8626898 0.4424462 0.2449646 0.1462789 0.8528262 -0.5012884 0.7365779 0.3176758 -0.5971056 0.3174293 0.7923179 -0.5210288 -0.9189052 -0.2635056 0.2935609 -0.9889644 3.94087e-4 -0.1481529 0.1493725 -0.2641922 0.9528328 0.1526636 -0.5356872 0.8305017 0.2521445 -0.8251139 0.5055792 0.7218161 -0.3508269 0.5965751 -0.8560348 0.4721986 -0.2103165 -0.9859375 0.1628748 0.03740312 0.07696461 -0.9913482 0.1063261 0.3378826 0.8477084 -0.4089326 -0.6540491 -0.4262558 -0.6249207 0.07337785 0.9740667 0.2140317 0.02046243 0.9709296 0.2384891 -0.2298081 0.9291992 -0.2894426 0.1424095 0.755995 -0.6388984 0.5838519 0.4808244 -0.6541595 -0.1071876 0.9730453 0.2041902 0.4257239 0.8714159 0.2437079 -0.9441327 -0.3229975 -0.06546693 -0.6946807 0.7019486 0.1571207 0.9207069 -0.3795667 -0.09070859</float_array>
          <technique_common>
            <accessor source="#geom-genericprismtwo200-normals-array" count="70" stride="3">
              <param name="X" type="float"/>
              <param name="Y" type="float"/>
              <param name="Z" type="float"/>
            </accessor>
          </technique_common>
        </source>
        <source id="geom-genericprismtwo200-map1">
          <float_array id="geom-genericprismtwo200-map1-array" count="270">0.3830958 0.1944834 0 0.6695544 0.5042527 0 0.2692288 0.2019543 0 0.3421212 0.1594771 0 0.3635983 0.1638022 0 0.3148397 0.1971034 0 0.2466787 0.2880883 0 0.3815531 0.7802525 0 0.5212139 0.7735453 0 0.4597818 0.7841808 0 0.2698414 0.3895456 0 0.6762187 0.7756145 0 0.6573244 0.7807866 0 0.1616976 0.3216767 0 0.3337008 0.9434453 0 0.2199221 0.3252261 0 0.4021749 0.1651936 0 0.6756285 0.2733233 0 0.3218501 0.4338368 0 0.2438474 0.4157365 0 0.3246586 0.7089789 0 0.3453197 0.8227134 0 0.3382078 0.6807939 0 0.2137993 0.1907293 0 0.7235952 0.1865961 0 0.1194348 0.3311791 0 0.4120401 0.2183785 0 0.36906 0.8757764 0 0.469933 0.6141152 0 0.5707983 0.8625312 0 0.3619248 0.6563324 0 0.1886274 0.4568745 0 0.128327 0.3801809 0 0.5619656 0.2207009 0 0.6253854 0.3906937 0 0.4816084 0.6857166 0 0.4231385 0.9350437 0 0.5328517 0.8211895 0 0.5997794 0.88931 0 0.417211 0.5902126 0 0.5833225 0.5901313 0 0.6220092 0.6952022 0 0.714644 0.1625105 0 0.770685 0.1820227 0 0.638743 0.641372 0 0.531364 0.9277328 0 0.5504083 0.8913541 0 0.6751295 0.6973797 0 0.6764362 0.5860684 0 0.607367 0.51999 0 0.6104474 0.9245186 0 0.691273 0.9219807 0 0.6867796 0.6256011 0 0.3105613 0.2618487 0 0.4399185 0.1880389 0 0.3398776 0.6430248 0 0.6864792 0.8658094 0 0.6896408 0.48513 0 0.3417634 0.4954393 0 0.3137677 0.5056456 0 0.4274421 0.5036812 0 0.607025 0.4411297 0 0.7571279 0.3369492 0 0.7163107 0.2947517 0 0.7516799 0.2945385 0 0.5814034 0.1715436 0 0.6677585 0.1994452 0 0.7025202 0.9024439 0 0.7617337 0.4080132 0 0.8396185 0.3789667 0 0.8022455 0.4195817 0 0.3431588 0.551295 0 0.3820918 0.9216032 0 0.6773933 0.3861193 0 0.6875627 0.1649652 0 0.8375809 0.3408477 0 0.4068366 0.3337395 0 0.3161411 0.34686 0 0.6500886 0.3094271 0 0.4168264 0.285631 0 0.6196488 0.3538236 0 0.591802 0.2620729 0 0.6083549 0.3054295 0 0.4325569 0.2544223 0 0.6640251 0.3192272 0 0.3616132 0.427846 0 0.4705182 0.3312711 0 0.6525382 0.3865095 0 0.5474441 0.2648594 0 0.3660319 0.2916965 0</float_array>
          <technique_common>
            <accessor source="#geom-genericprismtwo200-map1-array" count="90" stride="3">
              <param name="S" type="float"/>
              <param name="T" type="float"/>
              <param name="P" type="float"/>
            </accessor>
          </technique_common>
        </source>
        <vertices id="geom-genericprismtwo200-vertices">
          <input semantic="POSITION" source="#geom-genericprismtwo200-positions"/>
        </vertices>
        <triangles material="greyrock" count="136">
          <input semantic="VERTEX" source="#geom-genericprismtwo200-vertices" offset="0"/>
          <input semantic="NORMAL" source="#geom-genericprismtwo200-normals" offset="1"/>
          <input semantic="TEXCOORD" source="#geom-genericprismtwo200-map1" offset="2" set="1"/>
          <p>42 0 30 64 1 28 35 2 35 28 3 77 54 4 18 52 5 10 18 6 33 32 7 54 53 8 65 24 9 21 7 10 22 56 11 7 19 12 60 10 13 85 20 14 61 59 15 68 13 16 84 41 17 63 15 18 43 69 19 75 11 20 64 39 21 27 9 22 9 22 23 29 44 24 81 18 6 33 36 25 66 20 14 61 10 13 85 61 26 34 52 5 10 14 27 6 45 28 53 49 29 71 17 30 39 67 31 55 19 12 60 31 32 49 17 30 39 8 33 69 4 34 70 11 20 64 43 35 37 57 36 12 29 37 56 9 22 9 42 0 30 35 2 35 55 38 88 26 39 80 48 40 86 16 41 89 6 42 79 25 43 76 37 44 17 63 45 24 41 17 63 11 20 64 63 45 24 15 18 43 16 41 89 50 46 26 6 42 79 24 9 21 56 11 7 39 21 27 59 15 68 38 47 73 13 16 84 55 38 88 23 48 82 26 39 80 33 49 20 7 10 22 24 9 21 33 49 13 30 50 19 7 10 25 27 51 8 5 52 41 57 36 12 58 53 44 69 19 52 40 54 47 12 55 5 50 46 26 16 41 89 14 27 6 60 56 2 45 28 53 34 57 40 17 30 39 31 32 49 58 53 44 17 30 39 34 57 40 51 58 83 32 7 54 18 6 33 6 42 79 55 38 88 48 40 86 0 59 58 10 13 85 19 12 60 17 30 39 49 29 71 19 12 60 19 12 60 20 14 61 31 32 49 4 34 1 20 14 61 38 47 73 66 60 36 65 61 46 32 7 45 12 55 5 39 21 3 21 62 0 32 7 45 65 61 46 53 8 50 43 35 37 29 37 56 22 23 29 44 24 81 36 25 66 46 63 78 38 47 73 23 48 82 46 63 78 12 55 14 24 9 21 39 21 27 14 27 6 24 9 23 60 56 2 54 4 18 28 3 77 25 43 76 48 40 86 61 26 34 10 13 85 48 40 86 26 39 80 61 26 34 26 39 80 23 48 82 1 64 87 9 22 9 35 2 35 27 51 8 9 22 9 43 35 37 22 23 29 28 3 77 52 5 10 45 28 53 25 43 76 28 3 77 16 41 89 47 65 38 29 37 56 2 66 67 36 25 66 63 45 24 37 44 17 7 10 25 30 50 19 49 29 31 54 4 18 0 59 58 30 50 59 31 32 49 20 14 61 4 34 1 31 32 49 4 34 1 8 33 48 50 46 26 32 7 54 51 58 83 50 46 26 66 60 16 32 7 54 62 67 15 24 9 23 14 27 6 62 67 15 14 27 6 52 5 10 31 32 49 8 33 48 34 57 40 58 53 44 34 57 40 69 19 52 35 2 35 64 1 28 5 52 41 27 51 8 35 2 35 5 52 41 2 66 74 63 45 24 36 25 66 18 6 33 53 8 65 36 25 66 41 17 63 13 16 84 37 44 17 36 25 66 37 44 17 46 63 78 23 48 82 38 47 73 1 64 87 20 14 61 1 64 87 38 47 73 3 68 72 39 21 27 22 23 29 39 21 3 3 68 4 21 62 0 57 36 12 5 52 41 40 54 47 69 19 52 15 18 11 40 54 47 41 17 63 63 45 24 11 20 64 68 69 62 59 15 68 41 17 63 7 10 25 49 29 31 67 31 32 9 22 9 7 10 22 42 0 30 43 35 37 9 22 9 27 51 8 27 51 8 57 36 12 43 35 37 23 48 82 44 24 81 46 63 78 55 38 88 44 24 81 23 48 82 16 41 89 45 28 53 12 55 5 28 3 77 45 28 53 16 41 89 13 16 84 46 63 78 37 44 17 46 63 78 13 16 84 38 47 73 65 61 46 47 65 38 2 66 67 47 65 38 22 23 29 29 37 56 10 13 85 25 43 76 48 40 86 25 43 76 6 42 79 48 40 86 0 59 58 19 12 60 49 29 71 30 50 59 0 59 58 49 29 71 21 62 0 66 60 16 50 46 26 12 55 5 21 62 0 50 46 26 6 42 79 51 58 83 55 38 88 6 42 79 50 46 26 51 58 83 52 5 10 30 50 19 33 49 13 52 5 10 54 4 18 30 50 19 53 8 50 65 61 46 2 66 67 53 8 50 2 66 67 36 25 51 0 59 58 54 4 18 10 13 85 25 43 76 10 13 85 54 4 18 18 6 33 44 24 81 55 38 88 51 58 83 18 6 33 55 38 88 39 21 27 56 11 7 9 22 9 56 11 7 7 10 22 9 22 9 40 54 47 15 18 11 57 36 12 57 36 12 15 18 11 29 37 56 58 53 44 40 54 47 5 52 41 64 1 28 58 53 44 5 52 41 59 15 57 4 34 1 38 47 73 11 20 64 4 34 70 59 15 68 60 56 2 12 55 5 45 28 53 12 55 5 60 56 2 24 9 23 61 26 34 26 39 80 1 64 87 20 14 61 61 26 34 1 64 87 33 49 13 24 9 23 62 67 15 52 5 10 33 49 13 62 67 15 29 37 42 63 45 24 2 66 74 29 37 42 15 18 43 63 45 24 42 0 30 17 30 39 64 1 28 17 30 39 58 53 44 64 1 28 65 61 46 22 23 29 47 65 38 66 60 36 22 23 29 65 61 46 66 60 36 3 68 72 22 23 29 3 68 4 66 60 16 21 62 0 7 10 22 67 31 55 42 0 30 42 0 30 67 31 55 17 30 39 68 69 62 41 17 63 11 20 64 68 69 62 11 20 64 59 15 68 11 20 64 69 19 75 8 33 69 69 19 52 34 57 40 8 33 48</p>
        </triangles>
      </mesh>
    </geometry>
    <geometry id="geom-genericprismtwo100" name="genericprismtwo100">
      <mesh>
        <source id="geom-genericprismtwo100-positions">
          <float_array id="geom-genericprismtwo100-positions-array" count="117">-5.532063 -2.149845 -0.8446013 4.338738 1.47889 -1.221038 4.725299 5.150518 4.726583 -4.54459 5.349868 4.519419 5.256234 -2.428777 -0.5091735 3.477101 -1.676615 5.846615 -2.775038 3.979011 0.4728972 -5.680548 -2.11216 4.60757 5.510013 -3.476103 1.99627 -1.896598 0.559607 7.212722 -4.477145 -0.06475592 -1.768331 7.068203 1.330396 2.347346 -6.044177 4.630842 3.291673 4.668458 2.795673 0.4748292 -7.131319 1.293902 3.010157 5.073351 1.142045 6.168743 -4.422804 3.145765 1.187512 -3.015712 -4.057697 2.197939 1.517235 5.029392 2.522086 -2.732441 -3.325102 -1.627511 3.270432 -0.8513074 -2.028525 -4.024975 5.622022 3.152619 1.235107 4.511171 5.791024 2.882892 2.904254 0.8333891 -5.710249 2.533632 5.530427 -3.140263 2.332717 -0.09252584 3.516541 2.813428 -0.8498346 0.08711672 0.6282153 6.504561 -5.832982 1.488863 0.3419254 4.999395 4.537965 5.291777 -6.411405 -1.30744 0.5441951 3.194167 -3.211693 -0.6179246 -2.190279 5.228511 3.473771 -6.29515 -1.068313 3.995738 2.349168 -3.889012 2.202234 -1.046211 -2.019328 5.323653 4.681583 4.908027 3.389282 4.801744 2.919845 2.087745 4.88061 0.9643998 -0.8199219</float_array>
          <technique_common>
            <accessor source="#geom-genericprismtwo100-positions-array" count="39" stride="3">
              <param name="X" type="float"/>
              <param name="Y" type="float"/>
              <param name="Z" type="float"/>
            </accessor>
          </technique_common>
        </source>
        <source id="geom-genericprismtwo100-normals">
          <float_array id="geom-genericprismtwo100-normals-array" count="117">-0.5922475 -0.6090975 0.5274876 -0.2184862 -0.9644157 0.148883 -0.01684342 -0.6916858 0.7220021 -0.8615754 0.5030554 -0.06799465 -0.3889982 0.2382036 -0.8899098 -0.929634 -0.2493482 -0.2713042 0.08628275 0.9111893 -0.4028516 0.09776086 0.991274 -0.08842338 0.5071731 0.8366046 0.207047 -0.6215417 0.1962374 0.7584041 -0.0412668 -0.1298814 0.9906704 -0.1641399 -0.6845024 -0.7102919 0.2457356 -0.07917224 -0.9660982 0.6687137 -0.4307034 -0.6060665 0.3939469 0.6500152 -0.6498353 0.9757388 0.1896735 -0.1093512 0.5486293 -0.04501257 0.8348531 0.6319932 -0.7681707 0.1024614 -0.301962 0.8013343 0.516413 0.02887324 0.6174333 0.7860932 0.6221889 0.7408129 -0.2531349 0.6281083 0.7021177 -0.3354259 0.5484217 0.5024246 -0.6684334 -0.9905021 0.121615 -0.06414974 -0.5560991 0.5108456 -0.6555841 -0.7010468 -0.4672029 -0.5387531 0.1782656 -0.8070773 -0.5628923 0.1802259 -0.1464231 0.9726659 0.6326747 0.4980527 0.5930146 0.5116103 0.6634167 -0.5460157 -0.1792596 0.5692602 -0.8023769 -0.06603426 0.5827314 -0.8099776 0.8267203 0.5244876 -0.2035837 -0.1259087 0.9597354 -0.2511077 0.8557822 0.2550678 -0.4500859 -0.9046212 -0.2836179 0.3181531 0.2678895 -0.5603147 0.7837619 -0.7757881 0.6125523 -0.1514346 0.07459011 -0.9845299 0.1585467</float_array>
          <technique_common>
            <accessor source="#geom-genericprismtwo100-normals-array" count="39" stride="3">
              <param name="X" type="float"/>
              <param name="Y" type="float"/>
              <param name="Z" type="float"/>
            </accessor>
          </technique_common>
        </source>
        <source id="geom-genericprismtwo100-map1">
          <float_array id="geom-genericprismtwo100-map1-array" count="159">0.3830958 0.1944834 0 0.6695544 0.5042527 0 0.3635983 0.1638022 0 0.3148397 0.1971034 0 0.2466787 0.2880883 0 0.5212139 0.7735453 0 0.4597818 0.7841808 0 0.6762187 0.7756145 0 0.1616976 0.3216767 0 0.3337008 0.9434453 0 0.6756285 0.2733233 0 0.2438474 0.4157365 0 0.3246586 0.7089789 0 0.3453197 0.8227134 0 0.3382078 0.6807939 0 0.2137993 0.1907293 0 0.1194348 0.3311791 0 0.5707983 0.8625312 0 0.1886274 0.4568745 0 0.5619656 0.2207009 0 0.4816084 0.6857166 0 0.417211 0.5902126 0 0.5833225 0.5901313 0 0.6220092 0.6952022 0 0.714644 0.1625105 0 0.770685 0.1820227 0 0.531364 0.9277328 0 0.6764362 0.5860684 0 0.607367 0.51999 0 0.4399185 0.1880389 0 0.6864792 0.8658094 0 0.3417634 0.4954393 0 0.3137677 0.5056456 0 0.4274421 0.5036812 0 0.607025 0.4411297 0 0.7516799 0.2945385 0 0.5814034 0.1715436 0 0.6677585 0.1994452 0 0.7025202 0.9024439 0 0.8396185 0.3789667 0 0.8022455 0.4195817 0 0.3820918 0.9216032 0 0.6773933 0.3861193 0 0.6875627 0.1649652 0 0.4068366 0.3337395 0 0.3161411 0.34686 0 0.4168264 0.285631 0 0.6196488 0.3538236 0 0.6083549 0.3054295 0 0.6640251 0.3192272 0 0.3616132 0.427846 0 0.6525382 0.3865095 0 0.3660319 0.2916965 0</float_array>
          <technique_common>
            <accessor source="#geom-genericprismtwo100-map1-array" count="53" stride="3">
              <param name="S" type="float"/>
              <param name="T" type="float"/>
              <param name="P" type="float"/>
            </accessor>
          </technique_common>
        </source>
        <vertices id="geom-genericprismtwo100-vertices">
          <input semantic="POSITION" source="#geom-genericprismtwo100-positions"/>
        </vertices>
        <triangles material="greyrock" count="74">
          <input semantic="VERTEX" source="#geom-genericprismtwo100-vertices" offset="0"/>
          <input semantic="NORMAL" source="#geom-genericprismtwo100-normals" offset="1"/>
          <input semantic="TEXCOORD" source="#geom-genericprismtwo100-map1" offset="2" set="1"/>
          <p>7 0 14 17 1 21 35 2 20 28 3 45 10 4 50 30 5 11 18 6 19 32 7 29 2 8 36 24 9 13 7 0 14 9 10 6 19 11 33 10 4 50 20 12 34 4 13 40 13 14 49 11 15 35 15 16 25 8 17 39 11 15 35 3 18 41 9 10 6 22 19 17 23 20 48 18 6 19 36 21 37 20 12 34 10 4 50 1 22 51 30 5 11 14 23 4 16 24 52 0 25 31 17 1 21 7 0 14 19 11 33 31 26 28 17 1 21 8 17 39 4 13 40 11 15 35 27 27 5 15 16 7 29 28 30 9 10 6 7 0 14 35 2 20 18 6 19 26 29 47 25 30 44 16 24 52 6 31 46 25 30 44 37 32 10 29 28 24 11 15 35 11 15 35 29 28 24 15 16 25 16 24 52 21 33 0 6 31 46 24 9 13 9 10 6 3 18 41 4 13 40 38 34 42 13 14 49 18 6 19 23 20 48 26 29 47 33 35 12 7 0 14 24 9 13 33 35 8 30 5 11 7 0 16 27 27 5 5 36 23 15 16 7 5 36 23 8 17 27 15 16 7 12 37 3 21 33 0 16 24 52 14 23 4 12 37 3 16 24 52 34 38 22 17 1 21 31 26 28 5 36 23 17 1 21 34 38 22 6 31 46 32 7 29 18 6 19 6 31 46 18 6 19 25 30 44 0 25 31 10 4 50 19 11 33 17 1 21 0 25 31 19 11 33 19 11 33 20 12 34 31 26 28 4 13 1 20 12 34 38 34 42 3 18 41 22 19 17 32 7 26 12 37 3 3 18 2 21 33 0 32 7 26 22 19 17 2 8 38 27 27 5 29 28 30 22 19 17 23 20 48 36 21 37 13 14 49 38 34 42 23 20 48 13 14 49 12 37 9 24 9 13 3 18 41 14 23 4 24 9 15 12 37 3 10 4 50 28 3 45 25 30 44 25 30 44 1 22 51 10 4 50 25 30 44 26 29 47 1 22 51 26 29 47 23 20 48 1 22 51 9 10 6 35 2 20 27 27 5 9 10 6 27 27 5 22 19 17 28 3 45 30 5 11 16 24 52 25 30 44 28 3 45 16 24 52 22 19 17 29 28 30 2 8 38 36 21 37 29 28 24 37 32 10 7 0 16 30 5 11 0 25 18 10 4 50 0 25 31 30 5 32 31 26 28 20 12 34 4 13 1 31 26 28 4 13 1 8 17 27 21 33 0 32 7 29 6 31 46 21 33 0 3 18 2 32 7 29 33 35 8 24 9 15 14 23 4 33 35 8 14 23 4 30 5 11 31 26 28 8 17 27 34 38 22 5 36 23 34 38 22 8 17 27 35 2 20 17 1 21 5 36 23 27 27 5 35 2 20 5 36 23 2 8 43 29 28 24 36 21 37 18 6 19 2 8 36 36 21 37 11 15 35 13 14 49 37 32 10 36 21 37 37 32 10 13 14 49 23 20 48 38 34 42 1 22 51 20 12 34 1 22 51 38 34 42</p>
        </triangles>
      </mesh>
    </geometry>
    <geometry id="geom-bounds_2" name="bounds">
      <mesh>
        <source id="geom-bounds_2-positions">
          <float_array id="geom-bounds_2-positions-array" count="24">-7.203903 -4.122626 -2.222165 7.312842 -4.122626 -2.222165 -7.203903 5.793581 -2.222165 7.312842 5.793581 -2.222165 -7.203903 -4.122626 7.260134 7.312842 -4.122626 7.260134 -7.203903 5.793581 7.260134 7.312842 5.793581 7.260134</float_array>
          <technique_common>
            <accessor source="#geom-bounds_2-positions-array" count="8" stride="3">
              <param name="X" type="float"/>
              <param name="Y" type="float"/>
              <param name="Z" type="float"/>
            </accessor>
          </technique_common>
        </source>
        <source id="geom-bounds_2-normals">
          <float_array id="geom-bounds_2-normals-array" count="72">0 0 -1 0 0 -1 0 0 -1 0 0 -1 0 0 1 0 0 1 0 0 1 0 0 1 0 -1 0 0 -1 0 0 -1 0 0 -1 0 1 0 0 1 0 0 1 0 0 1 0 0 0 1 0 0 1 0 0 1 0 0 1 0 -1 0 0 -1 0 0 -1 0 0 -1 0 0</float_array>
          <technique_common>
            <accessor source="#geom-bounds_2-normals-array" count="24" stride="3">
              <param name="X" type="float"/>
              <param name="Y" type="float"/>
              <param name="Z" type="float"/>
            </accessor>
          </technique_common>
        </source>
        <vertices id="geom-bounds_2-vertices">
          <input semantic="POSITION" source="#geom-bounds_2-positions"/>
        </vertices>
        <triangles material="greyrock" count="12">
          <input semantic="VERTEX" source="#geom-bounds_2-vertices" offset="0"/>
          <input semantic="NORMAL" source="#geom-bounds_2-normals" offset="1"/>
          <p>0 0 2 1 3 2 3 2 1 3 0 0 4 4 5 5 7 6 7 6 6 7 4 4 0 8 1 9 5 10 5 10 4 11 0 8 1 12 3 13 7 14 7 14 5 15 1 12 3 16 2 17 6 18 6 18 7 19 3 16 2 20 0 21 4 22 4 22 6 23 2 20</p>
        </triangles>
      </mesh>
    </geometry>
    <geometry id="geom-col-1_4" name="col-1">
      <mesh>
        <source id="geom-col-1_4-positions">
          <float_array id="geom-col-1_4-positions-array" count="69">3.720634 2.96053 -0.899131 -2.926778 -0.1116243 -2.292689 -4.258651 5.932168 3.335609 -6.010254 -2.251002 4.875072 -3.190761 -4.309438 2.325488 4.320866 -3.025282 4.574796 -2.006698 0.5758967 7.631398 -5.786053 4.095183 5.79822 -7.545273 1.352823 3.184942 5.289616 4.785137 5.598989 4.721125 1.190306 6.864841 5.829857 -3.694182 2.112185 4.320336 -3.20695 -0.6012899 7.660602 0.3724336 1.273363 -2.598464 -4.008528 -1.000492 -5.853239 -2.29089 -0.8936291 3.460248 -0.9170119 -2.146255 -6.067283 0.5980099 -0.5414042 -6.395066 4.88343 3.482784 2.180536 6.077439 4.343507 5.659299 4.974422 3.923144 5.471389 -1.325737 5.597932 -5.770816 -3.341428 0.8009439</float_array>
          <technique_common>
            <accessor source="#geom-col-1_4-positions-array" count="23" stride="3">
              <param name="X" type="float"/>
              <param name="Y" type="float"/>
              <param name="Z" type="float"/>
            </accessor>
          </technique_common>
        </source>
        <source id="geom-col-1_4-normals">
          <float_array id="geom-col-1_4-normals-array" count="378">-0.1482154 0.6562876 -0.7398099 -0.1482154 0.6562876 -0.7398099 -0.1482155 0.6562876 -0.7398099 -0.04254325 -0.7998356 0.5987096 -0.04254324 -0.7998356 0.5987095 -0.04254324 -0.7998356 0.5987095 -0.02928723 -0.6762426 0.7360966 -0.02928723 -0.6762426 0.7360966 -0.02928723 -0.6762426 0.7360966 -0.7983363 -0.05897572 0.5993171 -0.7983363 -0.05897572 0.5993171 -0.7983363 -0.05897572 0.5993171 -0.5120679 -0.1059026 0.8523914 -0.5120679 -0.1059026 0.8523914 -0.5120679 -0.1059026 0.8523914 -0.01209137 0.4516992 0.8920884 -0.01209137 0.4516992 0.8920883 -0.01209137 0.4516992 0.8920883 0.07834413 0.3200744 0.9441475 0.07834413 0.3200744 0.9441475 0.07834414 0.3200745 0.9441476 0.07197697 -0.9504976 0.3022807 0.07197696 -0.9504976 0.3022807 0.07197697 -0.9504976 0.3022807 0.7491202 -0.4394841 -0.4956536 0.7491203 -0.4394841 -0.4956536 0.7491203 -0.4394842 -0.4956537 0.1254459 -0.9620009 -0.2425232 0.1254459 -0.9620009 -0.2425232 0.1254459 -0.9620009 -0.2425232 0.06599709 -0.9947473 -0.07824431 0.06599709 -0.9947473 -0.07824431 0.06599709 -0.9947473 -0.07824431 -0.2010962 -0.3235356 -0.9245999 -0.2010962 -0.3235356 -0.9245999 -0.2010962 -0.3235356 -0.9245999 0.1097026 -0.5272689 -0.8425869 0.1097026 -0.5272689 -0.842587 0.1097026 -0.527269 -0.8425869 -0.0181075 -0.3160654 -0.9485645 -0.0181075 -0.3160654 -0.9485645 -0.0181075 -0.3160654 -0.9485646 0.05989265 0.3019839 -0.9514298 0.05989264 0.3019839 -0.9514298 0.05989265 0.3019839 -0.9514298 0.6560838 -0.2369915 -0.7165118 0.6560838 -0.2369915 -0.7165118 0.6560838 -0.2369915 -0.7165117 0.5760587 0.2149633 -0.7886363 0.5760587 0.2149633 -0.7886362 0.5760587 0.2149633 -0.7886362 -0.4733184 0.07197317 -0.8779462 -0.4733184 0.07197318 -0.8779462 -0.4733184 0.07197318 -0.8779463 -0.930967 -0.02456344 -0.3642761 -0.930967 -0.02456344 -0.3642761 -0.930967 -0.02456344 -0.3642761 -0.2681307 0.6242426 -0.7337759 -0.2681307 0.6242427 -0.7337759 -0.2681307 0.6242427 -0.7337759 -0.3548804 0.6254156 -0.694921 -0.3548804 0.6254156 -0.694921 -0.3548804 0.6254156 -0.694921 -0.8590397 0.3139676 -0.4043205 -0.8590397 0.3139676 -0.4043205 -0.8590397 0.3139677 -0.4043205 -0.9056471 0.2672723 0.3291941 -0.9056472 0.2672724 0.3291941 -0.9056472 0.2672724 0.3291941 -0.3848101 0.838154 0.3865479 -0.3848101 0.8381538 0.3865479 -0.3848101 0.8381539 0.3865478 -0.1050539 0.827248 0.5519278 -0.1050539 0.8272481 0.5519279 -0.1050539 0.827248 0.5519278 -0.0277221 0.661438 0.7494873 -0.0277221 0.661438 0.7494873 -0.0277221 0.661438 0.7494873 0.0583365 0.8655305 -0.4974474 0.0583365 0.8655304 -0.4974473 0.0583365 0.8655305 -0.4974474 0.2200645 0.8655238 -0.4499335 0.2200644 0.8655238 -0.4499335 0.2200645 0.8655238 -0.4499336 0.3167398 0.9321986 0.1751621 0.3167398 0.9321986 0.1751621 0.3167398 0.9321985 0.1751621 0.9334429 0.2698228 0.2363894 0.933443 0.2698228 0.2363894 0.933443 0.2698228 0.2363894 0.6509234 0.5710698 -0.500178 0.6509234 0.5710698 -0.5001781 0.6509234 0.5710698 -0.5001781 0.5368105 -0.6711688 0.5112407 0.5368105 -0.6711687 0.5112407 0.5368105 -0.6711687 0.5112407 0.887332 -0.3338536 0.3180937 0.8873321 -0.3338536 0.3180937 0.887332 -0.3338536 0.3180937 0.8876812 0.02632537 0.4597054 0.8876812 0.02632537 0.4597054 0.8876813 0.02632537 0.4597054 0.88206 0.02615629 0.4704104 0.88206 0.02615629 0.4704104 0.88206 0.02615629 0.4704104 0.0839048 -0.5550177 0.8275961 0.0839048 -0.5550177 0.8275961 0.0839048 -0.5550177 0.8275961 0.1401933 -0.4116285 0.9005042 0.1401933 -0.4116285 0.9005042 0.1401933 -0.4116285 0.9005042 -0.4258117 -0.7781513 -0.461698 -0.4258117 -0.7781512 -0.4616979 -0.4258117 -0.7781513 -0.461698 -0.2769237 -0.951307 -0.1353821 -0.2769237 -0.9513069 -0.1353821 -0.2769237 -0.9513069 -0.1353821 -0.4482916 -0.8697243 0.2064324 -0.4482916 -0.8697242 0.2064324 -0.4482915 -0.8697242 0.2064324 -0.9475569 -0.2902167 -0.1338293 -0.9475569 -0.2902167 -0.1338293 -0.9475569 -0.2902167 -0.1338293 -0.926578 -0.3733441 0.0454689 -0.926578 -0.3733441 0.0454689 -0.926578 -0.3733441 0.0454689</float_array>
          <technique_common>
            <accessor source="#geom-col-1_4-normals-array" count="126" stride="3">
              <param name="X" type="float"/>
              <param name="Y" type="float"/>
              <param name="Z" type="float"/>
            </accessor>
          </technique_common>
        </source>
        <vertices id="geom-col-1_4-vertices">
          <input semantic="POSITION" source="#geom-col-1_4-positions"/>
        </vertices>
        <triangles material="ColorMaterial" count="42">
          <input semantic="VERTEX" source="#geom-col-1_4-vertices" offset="0"/>
          <input semantic="NORMAL" source="#geom-col-1_4-normals" offset="1"/>
          <p>0 0 1 1 2 2 3 3 4 4 5 5 3 6 5 7 6 8 7 9 8 10 3 11 7 12 3 13 6 14 7 15 6 16 9 17 10 18 9 19 6 20 11 21 5 22 4 23 11 24 12 25 13 26 14 27 12 28 11 29 14 30 11 31 4 32 14 33 15 34 1 35 16 36 12 37 14 38 16 39 14 40 1 41 16 42 1 43 0 44 16 45 13 46 12 47 16 48 0 49 13 50 17 51 1 52 15 53 17 54 15 55 8 56 17 57 2 58 1 59 18 60 2 61 17 62 18 63 17 64 8 65 18 66 8 67 7 68 18 69 7 70 2 71 19 72 2 73 7 74 19 75 7 76 9 77 19 78 0 79 2 80 20 81 0 82 19 83 20 84 19 85 9 86 20 87 9 88 13 89 20 90 13 91 0 92 21 93 5 94 11 95 21 96 11 97 13 98 21 99 13 100 9 101 21 102 9 103 10 104 21 105 6 106 5 107 21 108 10 109 6 110 22 111 15 112 14 113 22 114 14 115 4 116 22 117 4 118 3 119 22 120 8 121 15 122 22 123 3 124 8 125</p>
        </triangles>
      </mesh>
    </geometry>
  </library_geometries>
  <library_lights>
    <light id="EnvironmentAmbientLight" name="EnvironmentAmbientLight">
      <technique_common>
        <ambient>
          <color>0 0 0</color>
        </ambient>
      </technique_common>
    </light>
  </library_lights>
  <library_images>
    <image id="grayrock_diffuse_png">
      <init_from>file:///C:/Projects/ForestKitNew/art/shapes/rocks/grayrock_diffuse.png</init_from>
    </image>
    <image id="grayrock_diffuse_dds">
      <init_from>file:///E:/Projects/Pacific/game/art/shapes/rocks/grayrock_diffuse.dds</init_from>
    </image>
  </library_images>
  <library_visual_scenes>
    <visual_scene id="MaxScene">
      <node name="EnvironmentAmbientLight">
        <instance_light url="#EnvironmentAmbientLight"/>
      </node>
      <node id="node-base00" name="base00">
        <matrix>1 0 0 0 0 1 0 0 0 0 1 0 0 0 0 1</matrix>
        <node id="node-start00" name="start00">
          <matrix>1 0 0 0 0 1 0 0 0 0 1 0 0 0 0 1</matrix>
          <node id="node-genericprismtwo400" name="genericprismtwo400">
            <matrix>1 0 0 0 0 1 0 0 0 0 1 0 0 0 0 1</matrix>
            <instance_geometry url="#geom-genericprismtwo400">
              <bind_material>
                <technique_common>
                  <instance_material symbol="greyrock_1" target="#greyrock-material">
                    <bind_vertex_input semantic="CHANNEL1" input_semantic="TEXCOORD" input_set="1"/>
                    <bind_vertex_input semantic="CHANNEL1" input_semantic="TEXCOORD" input_set="1"/>
                  </instance_material>
                </technique_common>
              </bind_material>
            </instance_geometry>
          </node>
          <node id="node-genericprismtwo200" name="genericprismtwo200">
            <matrix>1 0 0 0 0 1 0 0 0 0 1 0 0 0 0 1</matrix>
            <instance_geometry url="#geom-genericprismtwo200">
              <bind_material>
                <technique_common>
                  <instance_material symbol="greyrock" target="#greyrock-material">
                    <bind_vertex_input semantic="CHANNEL1" input_semantic="TEXCOORD" input_set="1"/>
                    <bind_vertex_input semantic="CHANNEL1" input_semantic="TEXCOORD" input_set="1"/>
                  </instance_material>
                </technique_common>
              </bind_material>
            </instance_geometry>
          </node>
          <node id="node-genericprismtwo100" name="genericprismtwo100">
            <matrix>1 0 0 0 0 1 0 0 0 0 1 0 0 0 0 1</matrix>
            <instance_geometry url="#geom-genericprismtwo100">
              <bind_material>
                <technique_common>
                  <instance_material symbol="greyrock" target="#greyrock-material">
                    <bind_vertex_input semantic="CHANNEL1" input_semantic="TEXCOORD" input_set="1"/>
                    <bind_vertex_input semantic="CHANNEL1" input_semantic="TEXCOORD" input_set="1"/>
                  </instance_material>
                </technique_common>
              </bind_material>
            </instance_geometry>
          </node>
        </node>
        <node id="node-detail200" name="detail200">
          <matrix>1 0 0 0 0 1 0 0 0 0 1 0 0 0 0 1</matrix>
        </node>
        <node id="node-detail400" name="detail400">
          <matrix>1 0 0 0 0 1 0 0 0 0 1 0 0 0 0 1</matrix>
        </node>
        <node id="node-Collision-1" name="Collision-1">
          <matrix>1 0 0 0 0 1 0 0 0 0 1 0 0 0 0 1</matrix>
        </node>
        <node id="node-Collision-2" name="Collision-2">
          <matrix>1 0 0 0 0 1 0 0 0 0 1 0 0 0 0 1</matrix>
        </node>
        <node id="node-detail100" name="detail100">
          <matrix>1 0 0 0 0 1 0 0 0 0 1 0 0 0 0 1</matrix>
        </node>
        <node id="node-BB__detail30" name="BB__detail30">
          <matrix>1 0 0 0 0 1 0 0 0 0 1 0 0 0 0 1</matrix>
          <extra>
            <technique profile="OpenCOLLADA">
              <user_properties>BB:DIM=128
BB::EQUATOR_STEPS=16
BB::POLAR_STEPS=0
BB::POLAR_ANGLE=60
BB::INCLUDE_POLES=0
BB::DL=0</user_properties>
            </technique>
          </extra>
        </node>
      </node>
      <node id="node-bounds_2" name="bounds">
        <matrix>1 0 0 0 0 1 0 0 0 0 1 0 0 0 0 1</matrix>
        <instance_geometry url="#geom-bounds_2">
          <bind_material>
            <technique_common>
              <instance_material symbol="greyrock" target="#greyrock_1-material">
                <bind_vertex_input semantic="CHANNEL1" input_semantic="TEXCOORD" input_set="1"/>
              </instance_material>
            </technique_common>
          </bind_material>
        </instance_geometry>
      </node>
      <node id="node-col-1_4" name="col-1">
        <matrix>1 0 0 0 0 1 0 0 0 0 1 0 0 0 0 1</matrix>
        <instance_geometry url="#geom-col-1_4">
          <bind_material>
            <technique_common>
              <instance_material symbol="ColorMaterial" target="#ColorEffectR26G177B26-material"/>
            </technique_common>
          </bind_material>
        </instance_geometry>
      </node>
    </visual_scene>
  </library_visual_scenes>
  <scene>
    <instance_visual_scene url="#MaxScene"/>
  </scene>
</COLLADA>