<?xml version="1.0" encoding="utf-8"?>
<COLLADA xmlns="http://www.collada.org/2005/11/COLLADASchema" version="1.4.1">
  <asset>
    <contributor>
      <author>Russell</author>
      <authoring_tool>OpenCOLLADA for 3ds Max;  Version: 1.2.5;  Revision: 673;  Platform: x64;  Configuration: Release Max2010</authoring_tool>
      <source_data>file:///E:/Projects/Pacific_Art/06_Rocks/03_All%20Rocks%20V2/Allrocks_V2_01.max</source_data>
    </contributor>
    <created>2011-04-27T10:16:52</created>
    <modified>2011-04-27T10:16:52</modified>
    <unit name="meter" meter="1"/>
    <up_axis>Z_UP</up_axis>
  </asset>
  <library_effects>
    <effect id="tex_underwater_rock">
      <profile_COMMON>
        <newparam sid="grayrock_diffuse_dds-surface">
          <surface type="2D">
            <init_from>grayrock_diffuse_dds</init_from>
          </surface>
        </newparam>
        <newparam sid="grayrock_diffuse_dds-sampler">
          <sampler2D>
            <source>grayrock_diffuse_dds-surface</source>
          </sampler2D>
        </newparam>
        <technique sid="common">
          <blinn>
            <emission>
              <color>0 0 0 1</color>
            </emission>
            <ambient>
              <texture texture="grayrock_diffuse_dds-sampler" texcoord="CHANNEL1"/>
            </ambient>
            <diffuse>
              <texture texture="grayrock_diffuse_dds-sampler" texcoord="CHANNEL1"/>
            </diffuse>
            <specular>
              <color>0.9 0.9 0.9 1</color>
            </specular>
            <shininess>
              <float>9.999999</float>
            </shininess>
            <reflective>
              <color>0 0 0 1</color>
            </reflective>
            <transparent opaque="A_ONE">
              <color>1 1 1 1</color>
            </transparent>
            <transparency>
              <float>1</float>
            </transparency>
          </blinn>
        </technique>
      </profile_COMMON>
      <extra>
        <technique profile="OpenCOLLADA3dsMax">
          <extended_shader>
            <apply_reflection_dimming>0</apply_reflection_dimming>
            <dim_level>0</dim_level>
            <falloff_type>0</falloff_type>
            <index_of_refraction>1.5</index_of_refraction>
            <opacity_type>0</opacity_type>
            <reflection_level>3</reflection_level>
            <wire_size>1</wire_size>
            <wire_units>0</wire_units>
          </extended_shader>
          <shader>
            <ambient_diffuse_lock>1</ambient_diffuse_lock>
            <ambient_diffuse_texture_lock>1</ambient_diffuse_texture_lock>
            <diffuse_specular_lock>0</diffuse_specular_lock>
            <soften>0.1</soften>
            <use_self_illum_color>0</use_self_illum_color>
          </shader>
        </technique>
      </extra>
    </effect>
    <effect id="ColorEffectR154G154B229">
      <profile_COMMON>
        <technique sid="common">
          <phong>
            <ambient>
              <color>0.6039216 0.6039216 0.8980392 1</color>
            </ambient>
            <diffuse>
              <color>0.6039216 0.6039216 0.8980392 1</color>
            </diffuse>
            <specular>
              <color>1 1 1 1</color>
            </specular>
            <shininess>
              <float>10</float>
            </shininess>
            <reflective>
              <color>0 0 0 1</color>
            </reflective>
            <transparent>
              <color>1 1 1 1</color>
            </transparent>
            <transparency>
              <float>1</float>
            </transparency>
          </phong>
        </technique>
      </profile_COMMON>
      <extra>
        <technique profile="OpenCOLLADA3dsMax">
          <extended_shader>
            <apply_reflection_dimming>0</apply_reflection_dimming>
            <dim_level>0</dim_level>
            <falloff_type>0</falloff_type>
            <index_of_refraction>1.5</index_of_refraction>
            <opacity_type>0</opacity_type>
            <reflection_level>3</reflection_level>
            <wire_size>1</wire_size>
            <wire_units>0</wire_units>
          </extended_shader>
          <shader>
            <ambient_diffuse_lock>1</ambient_diffuse_lock>
            <ambient_diffuse_texture_lock>1</ambient_diffuse_texture_lock>
            <diffuse_specular_lock>0</diffuse_specular_lock>
            <soften>0.1</soften>
            <use_self_illum_color>0</use_self_illum_color>
          </shader>
        </technique>
      </extra>
    </effect>
    <effect id="greyrock">
      <profile_COMMON>
        <newparam sid="grayrock_diffuse_png-surface">
          <surface type="2D">
            <init_from>grayrock_diffuse_png</init_from>
          </surface>
        </newparam>
        <newparam sid="grayrock_diffuse_png-sampler">
          <sampler2D>
            <source>grayrock_diffuse_png-surface</source>
          </sampler2D>
        </newparam>
        <technique sid="common">
          <blinn>
            <emission>
              <color>0 0 0 1</color>
            </emission>
            <ambient>
              <color>0.588 0.588 0.588 1</color>
            </ambient>
            <diffuse>
              <texture texture="grayrock_diffuse_png-sampler" texcoord="CHANNEL1"/>
            </diffuse>
            <specular>
              <color>0.9 0.9 0.9 1</color>
            </specular>
            <shininess>
              <float>10</float>
            </shininess>
            <reflective>
              <color>0 0 0 1</color>
            </reflective>
            <transparent opaque="A_ONE">
              <color>1 1 1 1</color>
            </transparent>
            <transparency>
              <float>1</float>
            </transparency>
          </blinn>
        </technique>
      </profile_COMMON>
      <extra>
        <technique profile="OpenCOLLADA3dsMax">
          <extended_shader>
            <apply_reflection_dimming>0</apply_reflection_dimming>
            <dim_level>0</dim_level>
            <falloff_type>0</falloff_type>
            <index_of_refraction>1.5</index_of_refraction>
            <opacity_type>0</opacity_type>
            <reflection_level>3</reflection_level>
            <wire_size>1</wire_size>
            <wire_units>0</wire_units>
          </extended_shader>
          <shader>
            <ambient_diffuse_lock>1</ambient_diffuse_lock>
            <ambient_diffuse_texture_lock>1</ambient_diffuse_texture_lock>
            <diffuse_specular_lock>0</diffuse_specular_lock>
            <soften>0.1</soften>
            <use_self_illum_color>0</use_self_illum_color>
          </shader>
        </technique>
      </extra>
    </effect>
  </library_effects>
  <library_materials>
    <material id="ColorEffectR154G154B229-material" name="ColorEffectR154G154B229-material">
      <instance_effect url="#ColorEffectR154G154B229"/>
    </material>
    <material id="tex_underwater_rock-material" name="tex_underwater_rock">
      <instance_effect url="#tex_underwater_rock"/>
    </material>
    <material id="greyrock-material" name="greyrock">
      <instance_effect url="#greyrock"/>
    </material>
  </library_materials>
  <library_geometries>
    <geometry id="geom-smallrockseven100" name="smallrockseven100">
      <mesh>
        <source id="geom-smallrockseven100-positions">
          <float_array id="geom-smallrockseven100-positions-array" count="153">-0.2389614 1.055141 -0.1544095 -1.116646 0.2299093 0.7320899 -0.2221591 -1.219867 -0.1112852 0.9059947 -0.8759727 -0.007372335 0.3859609 0.323325 1.090858 -0.8544342 -0.01224057 -0.3055712 0.8942421 0.3670445 -0.1793033 -0.7243616 -0.2752128 1.005911 0.2117189 -1.015223 0.629397 0.4564198 1.039709 0.2415207 -0.8651106 0.2128391 1.014285 0.5179384 -0.6627385 -0.3078017 -0.419038 0.1112133 -0.4430775 -0.2537777 0.7122164 0.841179 -0.2168533 -1.207136 0.2535468 -0.9274432 -0.305669 -0.1106949 -0.3550012 -0.4076742 1.064063 0.6300419 0.3494083 -0.3927168 -0.4019739 1.045346 0.04477465 0.5106648 0.7835669 0.612694 -0.3339574 -1.066316 -0.1891892 0.7938288 -0.9587388 -0.004018825 -0.9935676 0.03736734 0.9032258 -0.8381335 0.4662327 0.2100479 0.8688529 -0.7412884 -0.141788 0.8916042 0.3912374 -0.03995569 0.29891 0.1815577 1.131464 -0.3642322 -1.179454 -0.003188945 0.6107443 -1.009391 0.3125094 -0.1380975 1.084348 0.1455737 -0.8296277 0.1951735 -0.2627812 0.466193 0.9839063 -0.02107953 -0.4316084 0.5714259 -0.3684564 -1.106594 0.1404491 0.4632186 0.9331682 -0.642723 0.1502845 -0.04128903 -1.243657 0.04024545 -0.02847213 -1.051864 0.5790291 0.7437676 0.7131222 0.006445695 0.5466412 -0.1636707 -0.4185517 -0.1629798 -0.9220368 -0.2774752 0.1902822 0.577594 1.001156 -0.1220939 0.9552428 -0.272723 -0.4974758 -0.523715 0.9645545 0.6805652 0.5549115 -0.2985801 -1.019713 0.2370113 0.9030484 0.3254727 -1.030888 -0.09097943 -0.6543962 -0.02223905 1.082447 -0.9784581 -0.1883129 -0.0965215 0.3269356 1.068953 0.2763802 0.1695006 -1.10849 0.5016156 0.9587572 -0.05910186 0.003758084</float_array>
          <technique_common>
            <accessor source="#geom-smallrockseven100-positions-array" count="51" stride="3">
              <param name="X" type="float"/>
              <param name="Y" type="float"/>
              <param name="Z" type="float"/>
            </accessor>
          </technique_common>
        </source>
        <source id="geom-smallrockseven100-normals">
          <float_array id="geom-smallrockseven100-normals-array" count="153">0.6087167 0.5935423 0.5264708 0.8297377 0.5528762 -0.07657221 0.5018153 0.8550467 0.130677 -0.7108215 0.3254167 -0.6235677 -0.7703713 0.6327366 -0.07856429 -0.5673265 0.8226969 -0.03620039 -0.4063498 0.4451223 -0.7979637 -0.0361798 0.5643106 -0.8247694 0.4698294 0.4643371 -0.7507672 -0.1581735 -0.7652972 0.6239402 -0.3912168 -0.6258302 0.6747487 -0.3261085 -0.8933002 0.3093023 0.289582 -0.6261687 0.7239165 0.309697 -0.06287417 0.9487543 -0.02313462 -0.3654834 0.9305303 -0.2579802 0.751247 0.6075147 0.1362646 0.9620853 0.2362709 -0.7761933 -0.3379002 0.5323038 -0.7747277 -0.4605227 -0.433262 -0.6191226 -0.7812978 -0.07912549 0.324527 0.152689 -0.933471 0.2764587 -0.08022147 -0.9576718 0.6720081 -0.2968606 -0.6784386 0.9990762 0.04144457 0.01135388 0.5326481 0.2079703 0.8203867 0.9208123 -0.1778298 0.3471042 -0.239118 -0.03013079 0.9705229 -0.995357 0.01717274 -0.09470727 0.5523031 -0.7128187 0.4322624 0.1404047 -0.9821705 -0.12501 0.4536467 -0.8293955 -0.3260489 -0.1007933 0.9784702 0.1801018 0.4277386 0.8084889 -0.4042095 -0.3958386 0.2655856 0.8790768 -0.7017298 0.4211936 0.5746054 -0.170873 -0.008524946 -0.9852561 -0.05210393 -0.3431097 -0.9378491 0.2153183 -0.3661821 -0.9052893 0.2373333 -0.6764084 -0.6972407 -0.1333389 -0.8585527 -0.4950838 -0.4373057 -0.4896649 -0.7543156 0.1119031 0.6025943 0.7901632 0.1694026 -0.900552 0.4003858 -0.5764104 -0.4431774 0.6865456 -0.5873759 -0.1076533 -0.8021224 -0.9323528 -0.1606733 -0.3238862 0.8681234 0.2215862 -0.4441412 -0.2620789 0.823031 -0.5039192 0.9478219 0.27608 0.159416 0.8282234 -0.5384918 -0.1551533 -0.9271199 0.3165185 0.2006602</float_array>
          <technique_common>
            <accessor source="#geom-smallrockseven100-normals-array" count="51" stride="3">
              <param name="X" type="float"/>
              <param name="Y" type="float"/>
              <param name="Z" type="float"/>
            </accessor>
          </technique_common>
        </source>
        <source id="geom-smallrockseven100-map1">
          <float_array id="geom-smallrockseven100-map1-array" count="219">1.036247 0.7121947 0.7636591 0.9378927 0.805495 0.08754206 1.14647 0.8453844 0.9619448 0.7636557 0.7800035 0 1.05341 0.924801 0.9924985 0.8030909 0.72504 0.601725 1.293568 0.9365085 0.5793067 1.136622 0.947 0.9931312 0.8728758 0.6400061 0.8508467 0.737789 0.8662847 0 0.8094495 0.8676143 0 1.311327 0.9234258 0.6152157 0.9256652 0.5318344 0.9931312 0.8093939 0.5309069 0.7833232 0.7473412 0.6742456 0.7833232 1.184237 0.517941 0 1.270564 0.6466444 0 1.330535 0.7503734 0 1.275311 0.5732677 0 0.9423378 0.7056808 0.3222871 1.220709 0.8114896 0.8508467 0.9896429 0.7410156 0.9145543 0.963584 0.7408098 0.6629711 1.005724 0.7213848 0.9077686 1.008922 0.8329929 0.8604267 0.9764307 0.8326378 0.5626923 0.9562345 0.732428 0.5409693 0.9719031 0.7240909 1.038227 0.9502593 0.7238251 0.3683249 1.132402 0.7231033 0.1638225 1.148946 0.6988981 0 0.9595626 0.9371014 0.5230569 0.8313256 0.7603441 0 1.199648 0.5944408 0 1.183796 0.8378298 0.7662841 0.7765849 0.893659 0 0.8932627 0.7250108 0.2405096 0.9415277 0.6406211 0.9088674 0.8474665 0.685232 0.7642173 1.181943 0.9026942 0.8476638 1.074446 0.9583023 0.9645645 1.015778 0.8171782 0.8673767 1.034698 0.7351993 0.8007035 1.116162 0.6779884 0.08298512 0.9799874 0.8951641 0.6766207 1.113496 0.6043382 0.1357063 0.8595889 0.8193767 0.1043294 1.186925 0.7684125 0.08704114 1.096473 0.8945791 1.039046 1.015659 0.9406832 0.8480724 0.9457303 0.9262247 0.4162033 0.7891842 0.7675985 0 1.051473 0.5651327 0.4103848 1.200481 0.5379953 0 1.275633 0.7722671 0 1.168826 0.8634157 0.9549201 1.06223 0.933551 1.048171 1.047793 0.9595914 0.9431907 0.9981542 0.9663568 0.7139411 0.932292 0.6521329 0.8959913 0.9969743 0.5521055 0.5669757 0.9774931 0.5250961 0.5972527 1.313343 0.6777543 0 0.8941403 0.6711977 0.885272 0.9095629 0.6516092 0.9591486 1.266018 0.8674577 0.7330312 0.8411348 0.5854564 0.8170849 0.8089018 0.7401167 0.3008625 1.132002 0.5466064 0.1628475 1.021988 0.5413467 0.4585366 1.203607 0.8234299 0.4673223 0.9554163 0.5264304 0.5972527 0.8675299 0.5313705 0.8882272</float_array>
          <technique_common>
            <accessor source="#geom-smallrockseven100-map1-array" count="73" stride="3">
              <param name="S" type="float"/>
              <param name="T" type="float"/>
              <param name="P" type="float"/>
            </accessor>
          </technique_common>
        </source>
        <vertices id="geom-smallrockseven100-vertices">
          <input semantic="POSITION" source="#geom-smallrockseven100-positions"/>
        </vertices>
        <triangles material="tex_underwater_rock_1" count="98">
          <input semantic="VERTEX" source="#geom-smallrockseven100-vertices" offset="0"/>
          <input semantic="NORMAL" source="#geom-smallrockseven100-normals" offset="1"/>
          <input semantic="TEXCOORD" source="#geom-smallrockseven100-map1" offset="2" set="1"/>
          <p>19 0 44 37 1 49 9 2 31 30 3 63 23 4 36 18 5 32 32 6 38 41 7 5 43 8 14 36 9 43 42 10 0 14 11 45 8 12 29 26 13 41 16 14 42 13 15 1 19 0 44 48 16 50 22 17 27 15 18 37 27 19 52 17 20 72 38 21 12 32 6 66 38 21 7 17 20 40 24 22 55 50 23 48 4 24 24 34 25 2 46 26 21 16 14 42 26 13 41 33 27 19 15 18 37 22 17 27 28 28 47 35 29 33 21 30 54 26 13 41 28 28 47 34 25 2 13 15 1 48 16 50 29 31 46 31 32 35 43 8 9 41 7 3 10 33 22 44 34 26 22 17 27 18 5 32 23 4 36 13 15 1 12 35 20 38 21 65 39 36 6 11 37 62 45 38 16 2 39 53 20 40 60 15 18 37 12 35 8 30 3 63 41 7 5 32 6 38 10 33 22 13 15 1 44 34 26 40 41 25 13 15 1 10 33 22 35 29 33 49 42 30 14 11 45 7 43 23 27 19 52 14 11 45 15 18 37 5 44 64 12 35 8 47 45 59 15 18 37 33 27 19 36 9 43 16 14 42 42 10 0 7 43 23 16 14 42 46 26 21 17 20 40 6 46 56 24 22 55 43 8 57 31 32 58 37 1 49 30 3 63 18 5 32 0 47 67 18 5 32 13 15 1 29 31 46 13 15 1 40 41 25 19 0 44 25 48 4 19 0 44 4 24 24 2 39 53 39 36 18 11 37 62 15 18 37 20 40 60 27 19 52 45 38 16 11 37 62 24 22 17 28 28 47 21 30 54 3 49 34 22 17 27 7 43 23 46 26 21 27 19 52 7 43 23 22 17 27 30 3 63 33 27 19 23 4 36 23 4 36 44 34 26 13 15 1 24 22 55 3 49 34 21 30 70 3 49 34 24 22 55 6 46 56 19 0 44 25 48 4 37 1 49 50 23 48 3 49 34 6 46 56 26 13 41 34 25 2 4 24 24 26 13 41 40 41 25 10 33 22 27 19 68 20 40 15 2 39 53 35 29 33 14 11 45 27 19 68 35 29 33 28 28 47 49 42 30 28 28 47 26 13 41 8 12 29 0 47 51 29 31 46 48 16 10 0 47 51 18 5 32 29 31 46 30 3 63 12 35 8 5 44 64 33 27 19 30 3 63 5 44 64 31 32 58 9 2 31 37 1 49 48 16 10 31 32 35 0 47 51 12 35 8 32 6 66 38 21 12 12 35 8 30 3 63 32 6 38 1 50 28 23 4 36 33 27 19 33 27 19 22 17 27 1 50 28 28 28 47 3 49 34 34 25 2 34 25 2 3 49 34 50 23 48 35 29 33 2 39 53 45 38 16 2 39 53 35 29 33 27 19 68 36 9 43 14 11 45 49 42 30 16 14 42 36 9 43 8 12 29 25 48 4 6 46 56 37 1 49 43 8 57 37 1 49 6 46 56 24 22 55 11 37 39 38 21 7 11 37 11 39 36 6 38 21 65 20 40 60 12 35 8 39 36 71 39 36 61 2 39 69 20 40 60 4 24 24 19 0 44 40 41 25 26 13 41 4 24 24 40 41 25 0 47 67 41 7 5 30 3 63 41 7 3 0 47 51 31 32 35 16 14 42 7 43 23 42 10 0 14 11 45 42 10 0 7 43 23 17 20 40 43 8 57 6 46 56 32 6 66 43 8 13 17 20 72 44 34 26 1 50 28 22 17 27 1 50 28 44 34 26 23 4 36 21 30 54 45 38 16 24 22 17 45 38 16 21 30 54 35 29 33 26 13 41 10 33 22 46 26 21 22 17 27 46 26 21 10 33 22 5 44 64 47 45 59 33 27 19 15 18 37 47 45 59 5 44 64 9 2 31 31 32 58 48 16 50 19 0 44 9 2 31 48 16 50 28 28 47 8 12 29 49 42 30 49 42 30 8 12 29 36 9 43 4 24 24 50 23 48 25 48 4 6 46 56 25 48 4 50 23 48</p>
        </triangles>
      </mesh>
    </geometry>
    <geometry id="geom-smallrockseven200" name="smallrockseven200">
      <mesh>
        <source id="geom-smallrockseven200-positions">
          <float_array id="geom-smallrockseven200-positions-array" count="306">-0.2420449 1.055141 -0.1544095 -1.11973 0.2299093 0.7320899 -0.2252426 -1.219867 -0.1112852 0.9029114 -0.8759727 -0.007372335 0.3828776 0.323325 1.090858 -0.8575177 -0.01224057 -0.3055712 0.8911583 0.3670445 -0.1793033 -0.7274454 -0.2752128 1.005911 0.2086353 -1.015223 0.629397 0.4533362 1.039709 0.2415207 -0.8681941 0.2128391 1.014285 0.5148549 -0.6627385 -0.3078017 -0.4221215 0.1112133 -0.4430775 -0.2568612 0.7122164 0.841179 -0.2199366 -1.207136 0.2535468 -0.9305267 -0.305669 -0.1106949 -0.3580849 -0.4076742 1.064063 0.6269581 0.3494083 -0.3927168 -0.4050577 1.045346 0.04477465 0.5075812 0.7835669 0.612694 -0.3370409 -1.066316 -0.1891892 0.7907455 -0.9587388 -0.004018825 -0.9966512 0.03736734 0.9032258 -0.841217 0.4662327 0.2100479 0.8657694 -0.7412884 -0.141788 0.8885207 0.3912374 -0.03995569 0.2958264 0.1815577 1.131464 -0.3673155 -1.179454 -0.003188945 0.6076608 -1.009391 0.3125094 -0.141181 1.084348 0.1455737 -0.8327112 0.1951735 -0.2627812 0.4631093 0.9839063 -0.02107953 -0.4346917 0.5714259 -0.3684564 -1.109678 0.1404491 0.4632186 0.9300849 -0.642723 0.1502845 -0.0443728 -1.243657 0.04024545 -0.03155565 -1.051864 0.5790291 0.7406843 0.7131222 0.006445695 0.5435579 -0.1636707 -0.4185517 -0.1660635 -0.9220368 -0.2774752 0.1871989 0.577594 1.001156 -0.1251776 0.9552428 -0.272723 -0.5005593 -0.523715 0.9645545 0.6774819 0.5549115 -0.2985801 -1.022797 0.2370113 0.9030484 0.3223891 -1.030888 -0.09097943 -0.65748 -0.02223905 1.082447 -0.9815416 -0.1883129 -0.0965215 0.3238521 1.068953 0.2763802 0.1664174 -1.10849 0.5016156 0.9556737 -0.05910186 0.003758084 0.3212943 -0.09195556 1.04767 -0.7679498 -0.5120859 -0.03502998 0.958097 -0.7039256 -0.03522101 0.09803963 0.9074074 0.5978311 -0.2398849 -1.254834 -3.96371e-6 0.9055455 -0.2851853 -0.2191369 -1.108688 0.03965458 0.4381762 0.02464843 -0.2247845 1.105752 -0.8811216 -0.1895865 0.8276778 0.007112026 1.076084 -0.08229411 -0.7205095 0.5635483 0.3828786 -0.7558458 0.1933936 -0.3350643 -0.0413754 0.678157 -0.3708328 -0.1815572 -1.119755 -0.2008294 0.4625778 -0.6895738 0.6519008 -0.3577342 -1.157245 0.1795217 -0.02633214 -0.3093422 -0.3700317 0.3523002 1.072869 0.1115549 -0.4951997 -0.9112834 -0.1499394 -0.6359947 -0.2284246 -0.2654242 0.7264864 0.6574872 -0.1587747 0.2319813 -0.7688352 -0.2683664 0.4180388 -1.052746 0.0105621 0.5987043 -0.3474194 0.6496964 -0.3008752 0.8919731 -0.2840371 -0.3170736 1.082554 0.003235692 0.7216563 -0.8787377 -0.1472481 -0.6353881 0.4103028 0.9864087 0.4396834 0.5807745 0.8943138 0.7118068 0.0492679 -0.3872322 0.4621074 1.03709 0.116285 0.3509865 0.4765136 1.047963 -1.032998 0.3237629 0.6993188 -0.3467417 -0.9312832 0.5770056 -0.8260748 -7.94768e-4 1.003728 0.8669751 -0.9029993 0.127839 -0.9232616 -0.3314224 0.01208201 -0.9469719 0.334352 0.8550651 0.8594995 0.2227029 -0.2824472 0.2337427 -0.5143518 0.8934928 -0.5240161 -0.2911758 1.084533 -0.07869744 -1.222039 -0.09735457 -0.5615873 0.5466676 -0.307526 -0.5352371 0.8699254 0.06652474 0.7637589 -0.9820166 0.1381956 -0.3847919 -0.4599267 -0.3499717 0.96033 0.005972862 -0.1090732 -0.9046154 0.0110666 -0.2708923 -1.093685 0.1284478 0.7593692 0.5622263 0.9413747 0.2246257 0.2118344 0.3405492 1.103976</float_array>
          <technique_common>
            <accessor source="#geom-smallrockseven200-positions-array" count="102" stride="3">
              <param name="X" type="float"/>
              <param name="Y" type="float"/>
              <param name="Z" type="float"/>
            </accessor>
          </technique_common>
        </source>
        <source id="geom-smallrockseven200-normals">
          <float_array id="geom-smallrockseven200-normals-array" count="306">0.6565649 0.5613076 0.5038416 0.8545693 0.5193374 -3.20968e-4 0.7737585 0.610987 0.1673097 -0.7668319 0.3827171 -0.5152634 -0.792648 0.591194 -0.1489925 -0.787246 0.615913 -0.02991628 0.04217512 0.2345129 -0.9711977 0.04642136 0.5865668 -0.8085694 0.4482056 0.4508616 -0.7719039 -0.134036 -0.768087 0.6261603 -0.3712518 -0.6272337 0.6846532 -0.4769495 -0.7124843 0.51467 0.2583618 -0.6604923 0.7049817 0.4172788 -0.4087985 0.8116416 0.1339011 -0.2699584 0.9535161 0.0201421 0.8490996 0.5278486 0.1394761 0.9413087 0.3073832 -0.7799904 -0.5216432 0.3456925 -0.7769292 -0.5367664 -0.3290331 -0.6882733 -0.7118672 -0.1397324 0.2433752 0.1814116 -0.952816 0.02047715 -0.1155466 -0.9930909 0.1434722 -0.1097211 -0.9835533 0.3974904 -0.02486615 -0.9172693 0.81203 -0.06877544 -0.5795492 0.9668952 0.06434276 0.2469285 0.551082 0.1477894 0.8212594 0.7746646 -0.1625745 0.6111172 -0.2381254 -0.009905545 0.9711839 -0.2062366 -0.2506237 0.9458616 0.2893437 -0.031305 0.9567133 -0.9653878 -0.2594757 -0.02643255 -0.8241199 -0.5658529 0.02523537 0.5185305 -0.7504663 0.4097881 0.2134347 -0.9766625 -0.02399935 0.2856917 -0.9237437 -0.2551033 0.6057326 -0.3584526 0.7103519 -0.1165183 0.9672236 0.225615 0.4462267 0.7524396 -0.4844755 -0.4046197 0.2273501 0.8857735 -0.7102007 0.3122768 0.6309502 -0.7404339 -0.342051 0.5785834 -0.6142747 0.7672732 0.1842779 -0.2589567 0.761413 0.5942993 -0.1107281 -0.03467092 -0.9932458 -0.03258639 -0.2859674 -0.9576851 0.09305763 -0.3560234 -0.929832 0.2471781 -0.7090001 -0.660471 -0.003847319 -0.5145693 -0.8574402 -0.7035578 -0.4220525 -0.5717326 -0.4543281 -0.2475735 -0.8557414 -0.2713511 -0.2061905 -0.9401351 -0.6175317 0.4505373 -0.6447252 -0.4015447 0.5120594 -0.7593136 -0.2663822 0.281174 -0.9219445 -0.2510694 0.5250949 0.8131663 -0.5065182 0.7546965 0.4169802 0.05116675 0.6209532 0.7821758 0.1694028 -0.900552 0.4003858 -0.2297256 -0.9091457 0.3473907 -0.6052148 -0.4247358 0.6732864 -0.6735662 -0.7030714 0.2280331 -0.6991217 -0.5080988 -0.5030552 -0.42713 -0.2154603 -0.878144 -0.9185923 -0.2012568 -0.3401232 -0.03618614 -0.4236963 0.9050812 0.7245724 0.123352 -0.6780701 0.6946073 0.5693931 -0.4396728 -0.617057 0.7869105 0.003520679 -0.2718135 0.8271399 -0.4918912 0.6499213 0.502219 0.5704195 0.9425253 0.300113 0.1468952 0.158162 -0.3273001 -0.9315897 0.3290535 -0.5872915 -0.7394677 0.4527487 -0.8814815 0.1341969 0.7669569 -0.5146874 0.3832415 -0.5332744 -0.2325039 0.8133636 -0.947944 0.2685668 -0.1710971 0.5815257 -0.3253899 -0.7456201 0.781921 -0.5638772 -0.2657854 0.436655 -0.8344372 -0.3362246 0.9596895 -0.1942658 -0.203118 0.9774309 0.06306514 -0.2016228 0.5380064 -0.275274 0.7967266 -0.01375211 0.2699468 0.962777 -0.4580858 -0.4856664 -0.7445035 -0.2245663 -0.8076989 -0.5451537 -0.2414315 -0.967912 -0.06969328 0.1180236 0.927002 -0.3560025 0.1947556 0.9691778 -0.1508791 -0.2937762 0.9524808 -0.08047257 -0.4857599 0.2118874 -0.8480219 -0.7837053 0.07407369 -0.6167001 0.5146279 0.8441063 -0.1504747 -0.6680667 0.7406867 0.07120412 -0.9032561 -0.305819 0.3010038 -0.9348866 0.3108929 0.1712674 0.8963303 -0.1237879 0.4257566 0.2245679 -0.829653 -0.5111215 0.8871708 0.3187693 -0.3336378 0.358674 0.4614028 0.8114557 0.4707199 0.8505677 0.2344298</float_array>
          <technique_common>
            <accessor source="#geom-smallrockseven200-normals-array" count="102" stride="3">
              <param name="X" type="float"/>
              <param name="Y" type="float"/>
              <param name="Z" type="float"/>
            </accessor>
          </technique_common>
        </source>
        <source id="geom-smallrockseven200-map1">
          <float_array id="geom-smallrockseven200-map1-array" count="387">0.997325 0.821112 0.8083921 1.044133 0.8036565 0.8523979 1.036247 0.7121947 0.7636591 0.9861823 0.7092716 0.9462605 0.9920211 0.8597181 0.7510151 0.9386695 0.7285955 0.1414998 0.9581609 0.7199386 0.9286585 0.9378927 0.805495 0.08754206 1.081635 0.5897814 0.3228193 1.14647 0.8453844 0.9619448 0.9661861 0.6236488 0.7706131 0.7636557 0.7800035 0 1.05341 0.924801 0.9924985 0.9497471 0.9542146 0.4575355 0.8030909 0.72504 0.601725 1.020799 0.5277007 0.4219986 1.186483 0.8526992 0.9346445 1.080257 0.9324872 1.072835 1.293568 0.9365085 0.5793067 1.222725 0.908384 0.6152157 0.8904298 0.6629812 0.9050962 1.136622 0.947 0.9931312 0.8728758 0.6400061 0.8508467 0.8982609 0.7518028 0.02672329 0.737789 0.8662847 0 0.8094495 0.8676143 0 1.311327 0.9234258 0.6152157 0.9256652 0.5318344 0.9931312 0.9999998 0.5931203 0.6152157 0.8093939 0.5309069 0.7833232 0.7473412 0.6742456 0.7833232 1.21219 0.7849901 0.1641415 1.216726 0.5580497 0 1.184237 0.517941 0 1.270564 0.6466444 0 1.330535 0.7503734 0 1.296151 0.6051352 0 1.275311 0.5732677 0 0.9423378 0.7056808 0.3222871 0.846464 0.7459046 0.1114811 1.220709 0.8114896 0.8508467 0.9896429 0.7410156 0.9145543 1.016748 0.7327974 0.8539519 0.954227 0.7646277 0.3100036 0.963584 0.7408098 0.6629711 0.9806905 0.7315912 0.9689811 1.005724 0.7213848 0.9077686 1.008922 0.8329929 0.8604267 0.9764307 0.8326378 0.5626923 0.9562345 0.732428 0.5409693 0.9719031 0.7240909 1.038227 0.9502593 0.7238251 0.3683249 1.071402 0.6501426 0.3873298 1.132402 0.7231033 0.1638225 1.116462 0.7803771 0.6072911 0.946919 0.6966435 0.6945308 1.148946 0.6988981 0 0.9595626 0.9371014 0.5230569 0.8313256 0.7603441 0 1.163753 0.5609027 0.08142377 1.199648 0.5944408 0 1.183796 0.8378298 0.7662841 1.030009 0.9521582 0.9076359 0.7765849 0.893659 0 0.8932627 0.7250108 0.2405096 0.9415277 0.6406211 0.9088674 0.9881149 0.5750018 0.6297349 0.9997404 0.5332216 0.5278947 1.095183 0.9061255 1.082385 0.9097522 0.6578532 0.9671394 0.8474665 0.685232 0.7642173 1.181943 0.9026942 0.8476638 1.074446 0.9583023 0.9645645 0.8077694 0.6797639 0.7452983 1.037809 0.7715731 0.8123766 1.015778 0.8171782 0.8673767 1.034698 0.7351993 0.8007035 1.081778 0.7679464 0.6846671 0.9939497 0.8400218 0.7777989 0.9465702 0.7398735 0.1352423 1.116162 0.6779884 0.08298512 1.090428 0.8204725 0.8522071 0.9799874 0.8951641 0.6766207 1.113496 0.6043382 0.1357063 0.9429374 0.8694689 0.272646 0.8595889 0.8193767 0.1043294 0.9505075 0.644748 0.8923002 1.186925 0.7684125 0.08704114 1.185869 0.8164587 0.5397356 1.096473 0.8945791 1.039046 1.015659 0.9406832 0.8480724 0.9759122 0.9347169 0.6273164 0.9628015 0.9509244 0.5510473 0.9457303 0.9262247 0.4162033 0.8190458 0.8283789 0.0988384 0.7891842 0.7675985 0 0.8273283 0.771777 0.01647307 1.051473 0.5651327 0.4103848 1.200481 0.5379953 0 1.251166 0.6797004 0 1.275633 0.7722671 0 1.168826 0.8634157 0.9549201 1.160794 0.8561796 0.9948382 1.06223 0.933551 1.048171 1.047793 0.9595914 0.9431907 0.9981542 0.9663568 0.7139411 0.8202322 0.7175128 0.5772092 0.932292 0.6521329 0.8959913 0.9969743 0.5521055 0.5669757 0.9774931 0.5250961 0.5972527 1.313343 0.6777543 0 1.125676 0.8970973 1.079642 0.8941403 0.6711977 0.885272 0.8563893 0.6903213 0.7525246 0.9095629 0.6516092 0.9591486 1.104053 0.9373152 1.026922 0.9241167 0.626339 0.8110952 0.9289144 0.5882101 0.7240388 1.266018 0.8674577 0.7330312 0.8411348 0.5854564 0.8170849 0.7959829 0.9073459 0 0.8089018 0.7401167 0.3008625 1.132002 0.5466064 0.1628475 1.021988 0.5413467 0.4585366 1.203607 0.8234299 0.4673223 0.9554163 0.5264304 0.5972527 1.246019 0.5656587 0 0.9364379 0.6165631 0.7330312 0.8675299 0.5313705 0.8882272</float_array>
          <technique_common>
            <accessor source="#geom-smallrockseven200-map1-array" count="129" stride="3">
              <param name="S" type="float"/>
              <param name="T" type="float"/>
              <param name="P" type="float"/>
            </accessor>
          </technique_common>
        </source>
        <vertices id="geom-smallrockseven200-vertices">
          <input semantic="POSITION" source="#geom-smallrockseven200-positions"/>
        </vertices>
        <triangles material="tex_underwater_rock" count="200">
          <input semantic="VERTEX" source="#geom-smallrockseven200-vertices" offset="0"/>
          <input semantic="NORMAL" source="#geom-smallrockseven200-normals" offset="1"/>
          <input semantic="TEXCOORD" source="#geom-smallrockseven200-map1" offset="2" set="1"/>
          <p>19 0 82 37 1 90 100 2 91 30 3 112 23 4 64 94 5 39 63 6 73 41 7 14 43 8 30 36 9 80 42 10 2 84 11 52 8 12 53 90 13 77 58 14 74 54 15 84 19 0 82 48 16 93 59 17 3 52 18 10 27 19 97 17 20 128 67 21 127 63 6 119 38 22 21 80 23 115 56 24 111 50 25 89 4 26 47 74 27 81 46 28 41 91 29 42 26 30 75 57 31 55 87 32 86 59 17 3 28 33 87 35 34 60 73 35 99 90 13 77 65 36 54 74 27 81 54 15 84 48 16 93 29 37 85 31 38 63 43 8 24 41 7 11 10 39 44 44 40 49 22 41 50 94 5 39 61 42 23 13 43 7 12 44 40 67 21 118 39 45 18 72 46 36 45 47 34 64 48 126 69 49 66 70 50 116 96 51 117 93 52 113 75 53 106 32 54 70 78 55 43 13 43 7 88 56 79 40 57 48 13 43 7 78 55 43 35 34 60 49 58 56 14 59 83 7 60 46 27 19 97 66 61 8 15 62 65 5 63 114 12 44 22 47 64 107 87 32 86 57 31 55 36 9 80 16 65 76 42 10 2 7 60 46 91 29 42 46 28 41 80 23 115 89 66 17 56 24 111 43 8 104 31 38 105 71 67 62 93 52 113 18 68 58 0 69 121 18 68 58 13 43 7 29 37 85 54 15 84 40 57 48 79 70 4 25 71 12 79 70 4 4 26 47 64 48 126 39 45 37 72 46 36 52 18 10 69 49 66 27 19 97 45 47 34 11 72 110 77 73 35 28 33 87 95 74 31 86 75 88 59 17 3 7 60 46 85 76 45 27 19 97 7 60 46 59 17 3 30 3 112 33 77 38 23 4 64 61 42 23 88 56 79 13 43 7 24 78 101 3 79 61 21 80 124 53 81 102 56 24 111 89 66 17 79 70 4 25 71 12 37 1 90 97 82 68 53 81 102 89 66 17 51 83 1 74 27 81 4 26 47 101 84 0 40 57 48 10 39 44 27 19 122 20 85 33 2 86 98 35 34 60 14 59 83 55 87 59 35 34 60 28 33 87 49 58 56 65 36 54 90 13 77 8 12 53 60 88 94 29 37 85 68 89 25 76 90 96 18 68 58 29 37 85 62 91 20 12 44 22 5 63 114 33 77 38 30 3 112 98 92 69 81 93 92 100 2 91 37 1 90 68 89 25 31 38 63 60 88 94 12 44 22 63 6 119 67 21 127 12 44 22 62 91 20 32 54 70 83 94 5 23 4 64 33 77 38 57 31 55 99 95 6 1 96 51 28 33 87 86 75 88 34 97 9 34 97 9 53 81 102 97 82 68 35 34 60 92 98 32 45 47 34 92 98 32 35 34 60 55 87 59 36 9 80 14 59 83 49 58 56 16 65 76 36 9 80 8 12 53 25 71 12 6 99 103 71 67 62 43 8 104 71 67 62 6 99 103 56 24 111 11 72 71 38 22 21 72 46 26 39 45 18 67 21 118 20 85 108 96 51 117 39 45 125 39 45 109 64 48 67 20 85 108 82 100 78 79 70 4 40 57 48 101 84 0 82 100 78 40 57 48 0 69 121 75 53 106 93 52 113 41 7 11 60 88 94 31 38 63 91 29 42 7 60 46 42 10 2 84 11 52 42 10 2 7 60 46 17 20 72 43 8 104 89 66 17 63 6 119 43 8 29 17 20 128 44 40 49 1 96 51 99 95 6 83 94 5 88 56 79 61 42 23 21 80 100 45 47 34 77 73 35 45 47 34 73 35 99 35 34 60 101 84 0 10 39 44 46 28 41 22 41 50 85 76 45 10 39 44 98 92 69 47 64 107 33 77 38 15 62 65 47 64 107 5 63 114 9 101 57 81 93 92 68 89 13 19 0 82 9 101 57 48 16 93 28 33 87 8 12 53 49 58 56 49 58 56 8 12 53 36 9 80 4 26 47 50 25 89 25 71 12 6 99 103 25 71 12 50 25 89 26 30 75 58 14 74 51 83 1 4 26 47 26 30 75 51 83 1 12 44 22 70 50 116 15 62 65 52 18 10 59 17 3 87 32 86 53 81 102 34 97 9 86 75 88 24 78 101 53 81 102 3 79 61 29 37 85 13 43 7 54 15 84 54 15 84 13 43 7 40 57 48 66 61 8 27 19 122 55 87 59 2 86 98 55 87 59 27 19 122 11 72 71 56 24 111 24 78 101 24 78 101 56 24 111 53 81 102 57 31 55 1 96 51 33 77 38 47 64 107 57 31 55 33 77 38 91 29 42 58 14 74 26 30 75 58 14 74 16 65 76 8 12 53 85 76 45 22 41 50 59 17 3 59 17 3 22 41 50 57 31 55 60 88 94 41 7 11 0 69 95 29 37 85 60 88 94 76 90 96 23 4 64 83 94 5 61 42 23 61 42 23 94 5 39 23 4 64 93 52 113 30 3 112 18 68 58 30 3 112 62 91 20 5 63 114 41 7 14 63 6 73 32 54 70 12 44 22 32 54 70 63 6 73 64 48 67 2 86 123 20 85 108 64 48 126 45 47 34 92 98 32 28 33 87 65 36 54 8 12 53 65 36 54 28 33 87 34 97 9 55 87 59 14 59 83 66 61 8 84 11 52 14 59 83 36 9 80 38 22 27 72 46 28 67 21 127 67 21 127 17 20 128 38 22 27 48 16 93 68 89 13 29 37 85 68 89 13 48 16 93 9 101 57 27 19 97 69 49 66 20 85 108 96 51 117 20 85 108 69 49 66 70 50 116 52 18 10 15 62 65 70 50 116 69 49 66 52 18 10 71 67 62 37 1 90 25 71 12 37 1 90 71 67 62 31 38 105 72 46 19 38 22 21 11 72 71 45 47 34 72 46 36 11 72 110 45 47 34 21 80 100 73 35 99 28 33 87 73 35 99 95 74 31 74 27 81 34 97 9 50 25 89 34 97 9 74 27 81 65 36 54 0 69 121 41 7 14 75 53 106 75 53 106 41 7 14 32 54 70 0 69 121 18 68 58 76 90 96 0 69 95 76 90 96 60 88 94 24 78 101 77 73 16 11 72 71 21 80 124 77 73 16 24 78 101 44 40 49 10 39 44 78 55 43 78 55 43 10 39 44 40 57 48 79 70 4 19 0 82 54 15 84 37 1 90 19 0 82 79 70 4 89 66 17 80 23 115 17 20 72 80 23 115 38 22 21 17 20 72 68 89 25 81 93 120 31 38 63 31 38 105 81 93 92 37 1 90 26 30 75 4 26 47 82 100 78 79 70 4 82 100 78 4 26 47 88 56 79 83 94 5 1 96 51 33 77 38 1 96 51 83 94 5 66 61 8 84 11 52 7 60 46 14 59 83 84 11 52 66 61 8 46 28 41 85 76 45 7 60 46 85 76 45 46 28 41 10 39 44 3 79 61 86 75 88 95 74 31 86 75 88 3 79 61 53 81 102 87 32 86 47 64 107 15 62 65 15 62 65 52 18 10 87 32 86 1 96 51 44 40 49 88 56 79 78 55 43 88 56 79 44 40 49 89 66 17 6 99 103 97 82 68 6 99 103 89 66 17 43 8 104 90 13 77 51 83 1 58 14 74 74 27 81 51 83 1 90 13 77 16 65 76 58 14 74 91 29 42 42 10 2 16 65 76 91 29 42 64 48 67 92 98 15 2 86 123 55 87 59 2 86 98 92 98 32 93 52 113 32 54 70 62 91 20 30 3 112 93 52 113 62 91 20 94 5 39 18 68 58 30 3 112 18 68 58 94 5 39 13 43 7 95 74 31 21 80 124 3 79 61 21 80 100 95 74 31 73 35 99 39 45 125 96 51 117 12 44 22 12 44 22 96 51 117 70 50 116 50 25 89 97 82 68 6 99 103 97 82 68 50 25 89 34 97 9 47 64 107 98 92 69 5 63 114 5 63 114 98 92 69 30 3 112 22 41 50 44 40 49 99 95 6 57 31 55 22 41 50 99 95 6 81 93 92 9 101 57 100 2 91 100 2 91 9 101 57 19 0 82 82 100 78 101 84 0 26 30 75 26 30 75 101 84 0 46 28 41</p>
        </triangles>
      </mesh>
    </geometry>
    <geometry id="geom-smallrockseven400" name="smallrockseven400">
      <mesh>
        <source id="geom-smallrockseven400-positions">
          <float_array id="geom-smallrockseven400-positions-array" count="606">-0.8668289 0.2128391 1.014285 -0.2238774 -1.219867 -0.1112852 0.4547015 1.039709 0.2415207 -0.9032502 0.0110666 -0.2708923 0.3523518 0.4765136 1.047963 0.9042765 -0.8759727 -0.007372335 -0.2406798 1.055141 -0.1544095 0.1940335 -1.071984 0.5713751 0.9616951 0.005972862 -0.1090732 -1.118365 0.2299093 0.7320899 -0.7260801 -0.2752128 1.005911 -0.1106098 -1.224941 0.2270916 -0.9291617 -0.305669 -0.1106949 0.678847 0.5549115 -0.2985801 -0.255496 0.7122164 0.841179 0.5162201 -0.6627385 -0.3078017 -0.4207564 0.1112133 -0.4430775 -0.4036924 1.045346 0.04477465 -0.3563689 -1.157245 0.1795217 -0.3567196 -0.4076742 1.064063 0.2971915 0.1815577 1.131464 0.765124 -0.9820166 0.1381956 -0.4333265 0.5714259 -0.3684564 -0.8398519 0.4662327 0.2100479 -0.3356757 -1.066316 -0.1891892 0.4644745 0.9839063 -0.02107953 0.8671345 -0.7412884 -0.141788 0.8925235 0.3670445 -0.1793033 0.5089463 0.7835669 0.612694 0.6881526 0.7778037 0.1768274 -0.1801919 -1.119755 -0.2008294 -1.107323 0.03965458 0.4381762 -0.04300753 -1.243657 0.04024545 0.9314501 -0.642723 0.1502845 -0.03019038 -1.051864 0.5790291 0.6283233 0.3494083 -0.3927168 -0.995286 0.03736734 0.9032258 -0.6340229 0.4103028 0.9864087 0.3237543 -1.030888 -0.09097943 -0.234632 -0.5942475 -0.3500617 -0.1398159 1.084348 0.1455737 -0.7453218 0.03284327 -0.360642 -1.021432 0.2370113 0.9030484 0.4639431 -0.6895738 0.6519008 -0.9218962 -0.3314224 0.01208201 0.5449231 -0.1636707 -0.4185517 -0.6561148 -0.02223905 1.082447 -0.1238124 0.9552428 -0.272723 0.3842427 0.323325 1.090858 0.8898858 0.3912374 -0.03995569 -0.3659504 -1.179454 -0.003188945 0.3252172 1.068953 0.2763802 0.3226595 -0.09195556 1.04767 0.7921106 -0.9587388 -0.004018825 -0.4991941 -0.523715 0.9645545 -1.108313 0.1404491 0.4632186 0.8683403 -0.9029993 0.127839 -0.0400103 0.678157 -0.3708328 0.2333465 -0.7688352 -0.2683664 0.02601361 -0.2247845 1.105752 -0.6346295 -0.2284246 -0.2654242 -0.7191443 0.5635483 0.3828786 -0.8313459 0.1951735 -0.2627812 0.008477092 1.076084 -0.08229411 0.9570389 -0.05910186 0.003758084 0.09940493 0.9074074 0.5978311 -0.02496701 -0.3093422 -0.3700317 -0.7665846 -0.5120859 -0.03502998 -0.3157085 1.082554 0.003235692 0.2100005 -1.015223 0.629397 -0.4938345 -0.9112834 -0.1499394 -0.2185714 -1.207136 0.2535468 0.3536652 1.072869 0.1115549 0.188564 0.577594 1.001156 0.9069107 -0.2851853 -0.2191369 0.7278517 0.6574872 -0.1587747 -0.3453765 -0.9312832 0.5770056 -0.2995099 0.8919731 -0.2840371 -0.6939347 0.1976165 1.047412 -0.0773323 -1.222039 -0.09735457 -0.1646983 -0.9220368 -0.2774752 0.6000694 -0.3474194 0.6496964 -0.8550978 -0.2934725 -0.1581575 -0.8797565 -0.1895865 0.8276778 0.7230215 -0.8787377 -0.1472481 0.7131721 0.0492679 -0.3872322 -0.8247097 -7.94768e-4 1.003728 -0.5602221 0.5466676 -0.307526 -0.9456067 0.334352 0.8550651 0.4634726 1.03709 0.116285 0.5795334 0.5460701 0.6305403 -0.1112894 -1.141854 0.4261669 -1.128403 0.1516296 0.6370555 0.2685759 -0.9721402 -0.1724365 -0.1646004 0.9930848 0.3826055 -0.9007018 -0.1498263 -0.2216534 -1.016886 -0.03020036 0.01286353 0.8608646 0.2227029 -0.2824472 0.1677825 -1.10849 0.5016156 -0.3998835 1.025246 -0.02333039 0.6090258 -1.009391 0.3125094 -0.522651 -0.2911758 1.084533 -0.7069588 -0.3859206 0.869333 0.2131996 0.3405492 1.103976 -1.016864 -0.180021 0.0889444 0.2351078 -0.5143518 0.8934928 -0.9445173 0.2196692 0.9737231 -0.6728091 0.6632555 0.1927687 0.7420495 0.7131222 0.006445695 0.9594623 -0.7039256 -0.03522101 0.5635914 0.9413747 0.2246257 -0.02887464 -1.100266 -0.1958993 -0.129963 -1.261374 0.009707998 0.4550149 0.8663971 0.5642955 0.415701 0.7527279 -0.2848561 -0.3834266 -0.4599267 -0.3499717 -0.2385198 -1.254834 -3.96371e-6 0.7181352 -0.947728 0.2744367 0.6589307 -0.5380009 -0.3160866 -1.031632 0.3237629 0.6993188 0.9585192 -0.3884886 -0.1171008 -0.3677281 -1.134735 -0.1038382 -0.6185001 0.2255476 -0.3965492 -1.053352 0.2164513 0.3860074 0.6156686 0.1218563 0.6520031 0.4194041 -1.052746 0.0105621 -0.5095272 -0.9906515 -0.01414546 -0.9801766 -0.1883129 -0.0965215 -0.7544806 0.1933936 -0.3350643 -0.5338719 0.8699254 0.06652474 -0.6496896 0.4713932 0.8972343 -0.8787965 0.4288197 0.4647762 0.1879504 -0.004671216 -0.3968233 0.4410487 0.5807745 0.8943138 0.3189581 0.9854733 0.4495701 -0.8166817 -0.3982466 0.4096239 0.8027827 0.516627 0.1301039 -0.2286253 -1.250841 0.1106994 -0.6347973 -0.300607 1.05052 0.107736 -1.182047 0.1266057 -0.2630192 0.6142697 -0.3859626 0.126319 0.8885617 -0.2715451 -0.9199242 0.1786376 -0.09089576 0.3642973 -0.426118 -0.3732014 -0.2777722 -0.8432305 0.7288469 -0.7375666 0.5183015 -0.02065074 0.7981044 -0.3735863 -0.2859986 0.132748 -0.001969179 1.133928 -1.016859 -0.08038139 0.5529972 0.3476635 -1.03353 0.5152114 -1.09232 0.1284478 0.7593692 -0.4928576 0.8007035 0.3172225 -0.005888104 -1.202181 0.2364723 -0.3267591 1.008684 -0.1509647 -0.0712899 -0.4512258 1.015631 -0.9192761 -0.004442781 0.9500775 -0.854848 0.3180088 0.9568278 -1.083928 0.2465349 0.8174432 0.4943534 -0.8593073 -0.213942 0.1849251 0.7923688 0.7461886 0.4783731 -1.056473 0.1430271 0.1576935 -0.7981864 0.7674166 0.03668068 0.4229658 -0.3916922 0.2064822 1.086822 0.1323184 0.2053905 1.033021 -0.09402433 -0.4794 -0.8122121 0.5661185 -0.1717706 1.092698 -0.04449733 -0.5434232 -0.9087986 -0.08216678 0.5370029 -0.9842497 -0.09557435 0.4501849 0.2517967 -0.4081998 -0.4405628 0.9697492 0.1512778 -0.5453863 0.09611074 1.082322 -1.079358 -0.00950695 0.2373119 -1.040782 0.1207079 0.1846449 -1.028698 0.1440199 0.9024633 0.03902562 -1.207709 0.01153216 -0.0878334 -0.8864843 0.7295109 0.5332565 0.9016749 0.3876279 0.7907854 0.05120455 0.3080528 0.3727846 0.9925976 -0.0751366 -0.003708769 0.5150371 1.022221 0.4235094 -1.060831 0.3172545 -0.8561527 -0.01224057 -0.3055712 -0.6529961 0.5370363 -0.1923831 -0.4492248 -0.0556701 1.106119 0.5783163 0.9229429 0.07963499 0.1388721 1.025255 0.3780723 0.9192367 -0.587061 -0.1304569 0.01667452 -5.64774e-4 1.120313 0.4484521 0.9850492 0.3818001 -0.05515385 -0.551563 -0.3392694 0.3022626 -0.9102831 0.6485048 0.6899686 0.5549644 0.3482779 -1.007169 -0.01654184 0.7946605 -0.1581523 -1.047139 0.5399153 -0.3677407 -0.2123457 1.107327 0.5604565 0.7530389 0.5570272 -0.007265627 -1.171293 0.3489276 -0.7733449 0.4540527 0.7085975 0.6477647 -1.021312 0.130776 0.08958079 -1.128266 0.4712712 -0.7306386 0.007032702 1.051933</float_array>
          <technique_common>
            <accessor source="#geom-smallrockseven400-positions-array" count="202" stride="3">
              <param name="X" type="float"/>
              <param name="Y" type="float"/>
              <param name="Z" type="float"/>
            </accessor>
          </technique_common>
        </source>
        <source id="geom-smallrockseven400-normals">
          <float_array id="geom-smallrockseven400-normals-array" count="606">-0.7471403 0.4984713 -0.4396677 -0.8042778 0.5298817 -0.2690032 -0.8109834 0.5843127 -0.02974183 0.8846396 0.09052886 0.4574029 0.880942 0.01901871 0.4728418 0.7679985 -0.1519471 0.622166 -0.8256894 -0.5608393 -0.06079759 -0.6992146 -0.6158438 0.3630914 -0.8073618 -0.5715155 0.1467546 -0.01169143 -0.03685857 -0.999252 0.01492782 0.09460559 -0.9954029 0.1258528 -0.09641072 -0.987353 0.07414226 0.7699103 0.6338304 0.4214223 0.733775 0.5328955 0.142943 0.8535817 0.5009647 0.2557226 -0.4739814 0.8425839 0.4281763 -0.4070359 0.8068376 0.1362605 -0.478069 0.8676884 0.382551 -0.005052294 -0.9239205 0.5046633 -0.1624843 -0.8478878 0.5996031 -0.3392425 0.7248383 0.06686398 0.1040689 -0.99232 -0.0171616 0.8401614 0.5420648 -0.03842495 0.9247748 0.3785699 -0.2366174 0.8788449 0.4142992 0.0816472 -0.9304336 0.3572491 0.2304773 -0.9540083 0.1916985 0.282499 -0.9464387 0.1563586 -0.4903193 -0.7166671 0.4959591 -0.2694012 -0.6982997 0.6631746 -0.3827143 -0.6197865 0.6851236 0.9031171 0.1656552 0.3961537 0.8948941 0.2164506 0.3902739 0.8612778 0.4692689 0.1949029 0.3223351 0.775952 -0.5422164 0.266764 0.4834075 -0.8337591 0.1665141 0.5427509 -0.8232221 -0.681547 0.6427981 0.3497202 -0.6333259 0.7505972 0.1884207 -0.261719 0.7567976 0.5989662 -0.7718971 -0.5271015 0.3554421 -0.8314 -0.534241 0.1528416 -0.08072589 0.02609492 0.9963946 -0.04348079 -0.112313 0.9927211 -0.06304839 0.015223 0.9978944 -0.5299717 0.2122073 0.8210348 -0.7843859 -0.1001585 0.6121332 -0.7180073 -0.4006141 0.5691871 0.2704951 -0.9225637 -0.2751522 0.2584776 -0.9647387 -0.0496857 0.33157 -0.941928 0.0532253 -0.7838635 -0.5048302 -0.3615305 -0.8047483 -0.4702201 -0.3623164 -0.9824222 -0.03064223 -0.1841398 -0.9424063 0.08830461 -0.322603 -0.9058657 -0.153384 -0.3948174 -0.430746 -0.264644 -0.8627986 -0.626897 -0.3957125 -0.6711272 0.6920211 0.5708108 -0.4419071 0.8410419 0.5339704 -0.08674238 0.9501396 0.2927987 0.1072551 0.7230983 0.1273022 -0.678913 0.7615366 -0.06251739 -0.6450998 -0.2514165 0.5465282 0.7988095 -0.174509 0.1717359 0.9695635 -0.0995191 0.4579005 0.8834156 -0.4947218 0.7831067 0.3768213 -0.4027871 0.6220455 0.6714328 -0.4266393 0.8036246 0.4149294 0.2130568 -0.5534447 -0.8051744 0.1480723 -0.5033165 -0.8513208 0.3572644 -0.5770411 -0.7344288 0.1030816 -0.1520012 -0.9829901 0.06508107 -0.3160796 -0.9464978 -0.04934535 -0.2835212 -0.9576955 -0.3620878 -0.5723193 -0.7357601 -0.2984037 -0.1995288 -0.9333506 -0.1109241 -0.05167397 -0.9924846 -0.3192765 0.1620291 -0.9337072 -0.3037319 0.2895304 -0.9076999 0.09930011 0.9366248 -0.3359663 -0.09842452 0.9753298 0.1975965 0.03631721 0.9993363 0.002814333 -0.5933617 0.4268673 -0.6824266 -0.6717467 0.6749851 -0.3052075 -0.2922176 -0.9475716 -0.1292932 -0.2703076 -0.9487686 0.1636218 -0.6475339 -0.7195805 0.2508062 -0.2957271 -0.8724844 0.3889942 -0.1725771 -0.8613562 0.4777894 -0.4190079 -0.3987122 0.8157579 -0.1768232 -0.2580647 0.9498085 -0.2759995 0.03722955 0.9604365 -0.0611009 -0.6343227 0.7706499 -0.0503038 -0.4219437 0.9052254 -0.001745248 0.2534404 0.9673494 0.5731422 -0.2575178 0.7779412 0.4493386 -0.8279251 -0.3356111 0.6462365 -0.5376873 0.5415447 0.905436 -0.1145002 0.4087485 -0.5383788 0.6687215 -0.512796 0.03354473 0.2891825 -0.9566861 -0.8527242 0.4016771 -0.3339415 -0.8675581 0.460924 -0.1867938 -0.7796719 0.6151651 -0.1169773 -0.4731013 0.8611304 0.1860904 -0.6496667 -0.7549046 -0.08973382 -0.5870206 -0.6421466 -0.4930056 -0.2063475 -0.8017669 -0.5608838 0.1980628 -0.5312088 -0.8237647 0.2081312 0.966806 -0.1482148 0.2046272 0.8503231 -0.4848486 0.4816728 0.7589026 -0.4382445 0.9669927 -0.05202888 -0.2494357 0.9443804 -0.2236 -0.2411403 0.7579127 -0.1734372 -0.6288782 0.6274549 -0.3468116 -0.6971529 0.3075435 -0.2620434 -0.9147406 0.6347168 0.4900017 0.5975224 0.8423011 0.3822202 0.3800481 0.7219895 0.604323 0.3369347 0.7224919 0.6705262 -0.1685229 0.746148 0.6487446 0.1496451 -0.06906177 -0.5361794 -0.8412741 -0.0640956 -0.2010967 -0.9774722 -0.406656 -0.4698939 -0.7834735 -0.8159066 -0.5058357 0.2800477 -0.9160777 -0.2688962 0.2974835 -0.9271489 0.3220143 -0.1915767 0.08124183 -0.9910874 -0.105572 0.7811878 -0.5272034 0.3343683 0.05946279 -0.9474142 0.3144368 0.2242412 -0.632024 0.7417961 0.2465848 0.1933479 -0.9496381 0.4801202 0.4400353 -0.7588502 -0.6112769 -0.4444278 0.6548469 -0.4861643 -0.1953732 0.8517474 0.263544 -0.7862176 -0.5589334 0.1957067 -0.8378816 -0.509562 0.3855636 -0.9040872 -0.1843014 -0.334472 -0.2128616 -0.9180514 -0.6796547 0.7322555 0.04326037 -0.01296491 0.9908503 -0.1343417 -0.5534475 0.2719939 -0.7872198 -0.6114591 -0.3083982 -0.7287032 -0.4743936 -0.1574965 -0.8661094 -0.6524326 0.7574975 0.02300573 -0.6319064 0.773927 0.04160975 0.4655284 -0.4477559 0.763412 -0.9142025 -0.4031781 -0.04100548 -0.02130458 -0.1993867 -0.9796892 0.02393235 -0.13462 -0.9906083 -0.1159407 0.1409799 0.9832001 -0.5634888 -0.3960173 0.7250177 -0.3433574 0.161683 0.9251833 -0.3433477 0.4983429 -0.7960947 0.03054432 0.5815405 -0.8129438 -0.05907035 0.2268036 -0.9721475 0.5557985 0.1313318 0.8208776 0.2844001 -0.02548322 0.9583669 0.3586743 0.4614027 0.8114557 0.8871708 0.3187693 -0.3336377 0.9695091 0.06821056 0.2353712 0.4563745 0.7922019 0.40514 0.4774095 0.860826 0.1762351 0.4970359 0.8558055 -0.143361 0.07456551 -0.09073762 0.9930794 0.1512099 -0.2729501 0.9500704 0.7848009 -0.5576063 -0.2704863 0.490585 -0.8587719 0.1477737 -0.671051 -0.6379667 0.3777421 -0.9649638 -0.2623685 0.002761227 -0.9942861 -0.09262412 0.05306587 0.4512475 -0.7394003 0.4996627 0.4375556 -0.8096986 0.3910667 0.1524374 -0.3587442 -0.9209047 -0.7692729 0.6354265 0.06672677 -0.9163643 0.2962746 -0.2692543 -0.7780808 0.08161081 -0.6228401 -0.1921746 0.8400264 -0.5073701 0.9823399 0.08774676 -0.1652537 0.06748357 0.6237224 0.7787274 -0.7781563 -0.624231 -0.06934307 -0.2972702 0.9532095 -0.05497425 0.1731046 -0.8134304 0.5553069 0.0578453 -0.9611691 0.269829 0.11461 0.9605105 0.2535434 -0.5373607 -0.7407908 -0.4030786 0.2060895 -0.8093444 -0.5499897 -0.3920631 0.01182275 0.9198623 -0.7057459 0.3438172 0.6194453 -0.8362272 0.3282339 0.4393023 -0.2941607 -0.7687783 0.5678463 -0.1089686 -0.7627507 0.6374459 -0.9588734 0.2085036 0.1925827 0.1983639 -0.9399042 0.2779063 0.9079655 0.2735893 0.3174076 0.2693124 -0.9628504 -0.01974653 0.6493124 0.5703008 0.5031407 -0.7371519 0.3859079 -0.5546911 -0.6634023 0.691753 0.2852634 0.2481493 -0.9668816 -0.05967994</float_array>
          <technique_common>
            <accessor source="#geom-smallrockseven400-normals-array" count="202" stride="3">
              <param name="X" type="float"/>
              <param name="Y" type="float"/>
              <param name="Z" type="float"/>
            </accessor>
          </technique_common>
        </source>
        <source id="geom-smallrockseven400-map1">
          <float_array id="geom-smallrockseven400-map1-array" count="702">0.9985777 0.8230954 0.8083921 1.045663 0.8055367 0.8523979 1.002201 0.7537243 0.8625416 0.9712498 0.7519674 0.8139651 1.03773 0.7135344 0.7636591 1.107868 0.7394656 0.4694374 0.9873695 0.7105936 0.9462605 0.9932429 0.8619297 0.7510151 0.9395757 0.7300321 0.1414998 0.955091 0.7473907 0.2189286 0.9591825 0.7213238 0.9286585 0.9387945 0.8073859 0.08754206 1.083387 0.5903974 0.3228193 1.148604 0.8475112 0.9619448 1.016839 0.9056648 0.7756627 0.9746019 0.9214295 0.6151562 0.9421847 0.6629738 0.9091241 0.9522738 0.9091938 0.4311376 1.10322 0.6565868 0.124364 0.9672549 0.6244648 0.7706131 0.7635273 0.7817438 0 1.054994 0.9273974 0.9924985 0.9769826 0.9503651 0.644559 0.9507188 0.9569849 0.4575355 0.8031955 0.7264555 0.601725 1.024583 0.5554032 0.4950746 1.022191 0.5279495 0.4219986 1.188854 0.8548692 0.9346445 1.154067 0.8739915 1.026221 1.021841 0.9880325 0.7833232 1.082 0.9351289 1.072835 0.9048487 0.6828377 0.7706918 0.9237447 0.6488574 0.9390538 1.292491 0.9397327 0.5793067 1.225311 0.9108831 0.6152157 0.8910509 0.6640295 0.9050962 1.138699 0.9497277 0.9931312 0.8733931 0.6409189 0.8508467 0.8989286 0.7533767 0.02672329 0.7824993 0.9498051 0 0.7375078 0.868535 0 0.8095918 0.8698728 0 1.310356 0.9265724 0.6152157 0.9264948 0.5321077 0.9931312 1.001269 0.5937555 0.6152157 0.8095359 0.5311745 0.7833232 0.7471163 0.6753609 0.7833232 1.156916 0.7400185 0.07375665 1.205638 0.6350632 0 1.22806 0.711476 0 1.214713 0.78676 0.1641415 1.219276 0.558478 0 1.186595 0.5181319 0 1.273432 0.6475965 0 1.333758 0.7519385 0 1.299171 0.6058419 0 1.278208 0.573786 0 0.9432656 0.7069815 0.3222871 0.8468251 0.747443 0.1114811 1.219202 0.8139749 0.8508467 1.024135 0.7953377 0.8437354 0.9908507 0.7425255 0.9145543 1.018116 0.7342588 0.8539519 1.057046 0.7514637 0.7467066 0.9552249 0.7662771 0.3100036 0.9646373 0.7423184 0.6629711 0.9818451 0.7330454 0.9689811 1.007027 0.7227786 0.9077686 1.010243 0.8350469 0.8604267 0.9775604 0.8346893 0.5626923 0.931945 0.7563827 0 0.9572446 0.7338871 0.5409693 0.973006 0.7255007 1.038227 0.951234 0.7252333 0.3683249 1.073093 0.6511153 0.3873298 1.09754 0.7030075 0.3319405 1.134454 0.7245074 0.1638225 1.118418 0.78212 0.6072911 1.048656 0.8567145 0.8638403 0.9875932 0.9009213 0.7015473 0.9478743 0.6978908 0.6945308 0.9618483 0.6980922 1.011466 1.151096 0.700159 0 0.9704052 0.9035681 0.6020228 0.9603212 0.8630537 0.4063636 0.888463 0.8226184 0.08785637 0.8766956 0.7698525 0 1.17418 0.6296537 0 1.179442 0.7931957 0.3481646 1.000571 0.9324741 0.7546721 0.9605923 0.9397708 0.5230569 0.9307401 0.8937092 0.281065 0.8260123 0.8002622 0.06589227 0.8315974 0.7619679 0 1.023818 0.5856119 0.5332337 1.16599 0.5613478 0.08142377 1.202097 0.5950842 0 1.186151 0.8399119 0.7662841 1.031455 0.9549165 0.9076359 0.7765329 0.8960709 0 0.7996132 0.8519533 0.06589227 0.8181806 0.7400341 0.308924 0.8939003 0.7264261 0.2405096 0.9318007 0.7073583 0.3206795 0.9281994 0.6719493 0.7274272 0.9424508 0.6415372 0.9088674 0.9893132 0.5755304 0.6297349 1.001008 0.5335031 0.5278947 1.133457 0.8847743 1.082577 1.097015 0.9086113 1.082385 0.8646569 0.7014401 0.6415839 0.9104877 0.6588714 0.9671394 1.14097 0.9035884 1.032753 0.8478333 0.686412 0.7642173 0.9010233 0.6481022 0.9300754 0.9287456 0.5647539 0.6817841 1.274016 0.8934266 0.6817896 1.184288 0.9051601 0.8476638 1.076155 0.9610964 0.9645645 0.9026731 0.5744891 0.8106291 0.8079016 0.6809117 0.7452983 1.01791 0.7874565 0.8300552 1.039301 0.7732635 0.8123766 1.01714 0.8191384 0.8673767 1.018336 0.7485082 0.833935 0.9855081 0.7561265 0.8479773 0.9852862 0.7395251 0.9374384 1.036173 0.7366749 0.8007035 1.013821 0.7272954 0.8835555 1.083529 0.7696154 0.6846671 0.9727894 0.8163003 0.5261832 0.9458073 0.7674931 0.07750091 0.9615445 0.7379104 0.5657107 0.9784458 0.7270495 1.004229 1.011639 0.7049481 0.8544495 0.9951828 0.8421171 0.7777989 0.9143912 0.7402565 0.0601274 0.9475229 0.7413768 0.1352423 0.9532903 0.7298079 0.5035672 0.9645817 0.7299244 0.9357684 0.9714704 0.7166589 1.026368 0.9520534 0.7163906 0.5419576 1.050797 0.6519349 0.5680626 1.077101 0.6829168 0.3888912 1.118117 0.6791258 0.08298512 1.142015 0.7149296 0.04095563 1.131174 0.746033 0.3156453 1.092231 0.8224523 0.8522071 1.007255 0.8833802 0.7707629 1.070511 0.8793165 0.8884862 0.981138 0.8975853 0.6766207 0.9399028 0.6841654 0.6001439 1.122821 0.6408592 0.02714126 1.115435 0.60504 0.1357063 1.155202 0.64564 0 1.147584 0.6806668 0 0.9614165 0.923768 0.5288032 0.9438691 0.871738 0.272646 0.8600278 0.8213499 0.1043294 0.874954 0.7488738 0.0601274 0.8470497 0.7652344 0 0.984297 0.6664657 0.8388627 0.9514837 0.6456883 0.8923002 1.155506 0.6118621 0.02714126 1.139104 0.5821322 0.128921 1.195669 0.7255993 0 1.232589 0.7490379 0 1.189298 0.7700843 0.08704114 1.188236 0.8184147 0.5397356 1.098312 0.8969973 1.039046 1.032246 0.9210495 0.8714264 1.01702 0.9433737 0.8480724 0.977038 0.9373724 0.6273164 0.9638506 0.9536749 0.5510473 0.9466782 0.9288296 0.4162033 0.9192724 0.9223232 0.3605523 0.819245 0.8304051 0.0988384 0.7892065 0.7692657 0 0.8275764 0.7734687 0.01647307 0.8266902 0.7532621 0.07723099 1.053046 0.565603 0.4103848 1.000769 0.5855442 0.6092436 1.202935 0.538305 0 1.190986 0.5769722 0.02035594 1.21685 0.6062871 0 1.25392 0.6808476 0 1.295212 0.6953267 0 1.278531 0.7739618 0 1.171093 0.8656496 0.9549201 1.163014 0.8583701 0.9948382 1.063867 0.9361989 1.048171 1.049345 0.9623938 0.9431907 0.9994121 0.9691985 0.7139411 0.7808115 0.8716078 0.01647307 0.7505176 0.8251393 0 0.8204384 0.7188838 0.5772092 0.8756099 0.713838 0.461033 0.9277012 0.6920304 0.5025363 0.9331604 0.6531172 0.8959913 0.9393407 0.6382536 0.8807822 0.9982253 0.5524986 0.5669757 0.9786283 0.5253295 0.5972527 1.000726 0.5165258 0.5006527 1.286781 0.6256051 0 1.316464 0.6788901 0 1.127688 0.8995299 1.079642 0.8947831 0.6722944 0.885272 0.8568091 0.6915315 0.7525246 0.910297 0.6525906 0.9591486 1.163203 0.9033363 0.9520482 1.105937 0.9399855 1.026922 0.8330809 0.6836744 0.7405218 0.8811129 0.6577684 0.8788664 0.9249367 0.6271708 0.8110952 0.9297628 0.5888165 0.7240388 0.90412 0.5743523 0.7150767 1.264779 0.8702735 0.7330312 1.182005 0.9303055 0.8041735 1.08027 0.9688799 0.8882272 0.8414646 0.5860466 0.8170849 0.7960455 0.9098389 0 0.8487087 0.8787673 0.1317845 0.8090408 0.7416214 0.3008625 1.134052 0.5469672 0.1628475 1.023387 0.5416765 0.4585366 1.206079 0.8254273 0.4673223 0.775156 0.7009082 0.6925241 0.9564219 0.5266716 0.5972527 1.248742 0.5661319 0 1.207083 0.8828761 0.7749301 0.9373308 0.6173372 0.7330312 0.9638817 0.5629317 0.8041735 0.8680152 0.531641 0.8882272 0.8102548 0.6581398 0.8170849</float_array>
          <technique_common>
            <accessor source="#geom-smallrockseven400-map1-array" count="234" stride="3">
              <param name="S" type="float"/>
              <param name="T" type="float"/>
              <param name="P" type="float"/>
            </accessor>
          </technique_common>
        </source>
        <vertices id="geom-smallrockseven400-vertices">
          <input semantic="POSITION" source="#geom-smallrockseven400-positions"/>
        </vertices>
        <triangles material="tex_underwater_rock" count="400">
          <input semantic="VERTEX" source="#geom-smallrockseven400-vertices" offset="0"/>
          <input semantic="NORMAL" source="#geom-smallrockseven400-normals" offset="1"/>
          <input semantic="TEXCOORD" source="#geom-smallrockseven400-map1" offset="2" set="1"/>
          <p>183 0 110 145 1 196 129 2 58 178 3 149 124 4 78 81 5 147 126 6 94 102 7 134 135 8 161 132 9 119 169 10 232 45 11 43 159 12 84 113 13 83 134 14 17 161 15 5 105 16 129 154 17 63 45 11 36 85 18 210 146 19 112 105 16 129 43 20 77 81 5 147 169 10 232 132 9 119 162 21 219 65 22 157 186 23 91 94 24 85 200 25 155 152 26 87 181 27 165 76 28 74 144 29 143 54 30 4 90 31 148 192 32 14 29 33 89 179 34 193 114 35 40 141 36 194 151 37 86 61 38 38 14 39 11 135 8 161 83 40 6 148 41 81 184 42 2 195 43 124 188 44 121 106 45 132 174 46 139 36 47 72 125 48 185 160 49 49 139 50 48 67 51 19 167 52 181 126 6 94 172 53 151 96 54 104 127 55 198 60 56 213 70 57 106 67 51 19 75 58 98 108 59 171 49 60 21 85 18 210 97 61 30 74 62 205 37 63 64 78 64 3 180 65 130 88 66 137 156 67 9 130 68 131 93 69 203 158 70 204 84 71 54 190 72 116 58 73 42 80 74 33 82 75 199 41 76 114 16 77 37 16 77 37 122 78 212 22 79 113 63 80 176 40 81 158 163 82 221 87 83 207 183 0 110 99 84 179 116 85 95 137 86 164 18 87 12 76 28 74 71 88 153 91 89 152 138 90 128 101 91 62 46 92 61 176 93 75 19 94 127 54 30 4 103 95 0 180 65 130 78 64 3 52 96 1 81 5 147 124 4 78 160 49 49 125 48 185 53 97 187 43 20 77 117 98 88 33 99 13 87 83 207 99 84 179 153 100 101 57 101 120 141 36 226 114 35 46 142 102 31 123 103 103 23 104 102 14 39 11 61 38 38 198 105 70 50 106 223 121 107 52 1 108 182 58 73 55 93 69 203 111 109 228 72 110 41 179 34 193 164 111 100 108 59 171 75 58 98 25 112 192 120 113 108 109 114 189 187 115 28 26 116 188 84 71 27 118 117 209 124 4 78 178 3 149 192 32 14 120 113 108 74 62 205 97 61 30 192 32 14 90 31 148 124 4 78 133 118 7 113 13 83 159 12 84 196 119 79 29 33 89 177 120 15 185 121 22 110 122 172 29 33 89 30 123 107 1 108 224 121 107 25 39 124 115 80 74 227 24 125 200 148 41 81 193 126 140 150 127 10 96 54 104 172 53 151 55 128 57 139 50 48 181 27 165 152 26 87 137 86 164 116 85 95 112 129 183 120 113 108 33 99 13 109 114 189 109 114 189 33 99 13 56 130 168 91 89 152 197 131 154 200 25 155 19 94 127 176 93 75 69 132 76 162 21 219 114 35 45 169 10 232 35 133 118 13 134 191 97 61 30 83 40 6 135 8 161 102 7 134 83 40 6 10 135 67 86 136 66 198 105 70 130 68 131 14 39 11 180 65 130 14 39 11 37 63 64 111 109 228 38 137 53 79 138 51 175 139 184 79 138 51 38 137 53 16 77 37 162 21 219 132 9 119 70 57 106 60 56 213 115 140 214 17 141 93 14 39 11 94 24 85 40 81 158 63 80 176 166 142 92 122 78 212 128 143 35 87 83 207 95 144 32 182 145 208 41 76 114 198 105 70 131 146 136 119 147 8 36 47 72 174 46 139 150 127 10 117 98 88 43 20 77 191 148 146 43 20 77 105 16 129 161 15 5 127 55 198 104 149 16 172 53 151 60 56 213 67 51 19 82 75 199 143 150 231 58 73 44 66 151 230 146 19 112 118 117 209 45 11 36 171 152 125 184 42 2 103 95 0 155 153 133 86 136 66 0 154 65 77 155 195 47 156 24 140 157 211 141 36 194 164 111 100 179 34 193 90 31 148 133 118 7 48 158 68 20 159 123 48 158 68 4 160 135 49 60 21 27 161 190 75 58 98 27 161 190 49 60 21 64 162 169 102 7 134 126 6 94 18 87 12 18 87 12 50 106 223 116 85 95 113 13 83 189 163 156 134 14 17 2 164 90 89 165 173 72 110 23 147 166 60 59 167 122 52 96 1 48 158 68 20 159 123 52 96 1 26 116 188 5 168 97 53 97 225 21 169 50 53 97 225 5 168 97 165 170 142 54 30 4 102 7 134 101 91 62 138 90 128 54 30 4 31 171 80 92 172 141 55 128 57 123 103 103 119 147 8 131 146 136 149 173 47 100 174 167 117 98 88 5 168 97 56 130 168 21 169 50 16 77 37 140 157 211 57 101 120 141 36 226 57 101 120 140 157 211 93 69 203 58 73 55 158 70 204 58 73 34 143 150 217 15 175 117 154 17 63 19 94 127 161 15 5 195 43 124 59 167 122 188 44 121 16 77 37 60 56 213 82 75 199 16 77 37 115 140 214 60 56 213 131 146 136 23 104 102 123 103 103 61 38 38 151 37 86 107 176 159 173 177 197 142 102 31 3 178 111 183 0 110 87 83 207 128 143 35 6 179 177 166 142 92 63 80 176 63 80 176 47 156 20 6 179 177 8 180 109 64 162 169 33 99 13 64 162 169 8 180 109 27 161 190 94 24 85 14 39 11 65 22 157 65 22 157 14 39 11 73 181 69 16 77 59 66 151 216 190 72 116 58 73 42 190 72 116 66 151 216 135 8 161 67 51 19 126 6 94 82 75 199 67 51 19 44 182 162 153 100 101 99 84 179 68 183 178 68 183 178 17 141 93 40 81 158 7 184 145 69 132 76 176 93 75 191 148 146 149 173 47 117 98 88 115 140 214 24 125 200 70 57 106 126 6 94 167 52 181 121 107 25 11 185 163 91 89 152 71 88 153 112 129 183 11 185 163 137 86 164 72 110 23 51 186 174 2 164 90 186 23 91 163 82 175 40 81 158 103 95 0 4 160 135 73 181 69 159 12 84 73 181 69 133 118 7 187 115 28 74 62 205 120 113 108 118 117 209 146 19 112 26 116 188 13 134 191 75 58 98 27 161 190 114 35 29 25 112 192 75 58 98 71 88 153 76 28 74 18 87 12 54 30 4 165 170 142 76 28 74 6 179 222 47 156 24 77 155 195 153 100 101 77 155 195 87 83 207 37 63 64 0 154 65 78 64 3 78 64 3 0 154 65 86 136 66 111 109 202 79 138 26 1 108 224 79 138 51 112 129 183 116 85 95 111 109 228 80 74 56 58 73 55 80 74 201 30 123 107 24 125 200 33 99 13 81 5 147 43 20 77 81 5 147 33 99 13 178 3 149 95 144 32 41 76 114 82 75 199 44 182 162 12 187 105 82 75 199 83 40 6 193 126 140 148 41 81 86 136 66 155 153 133 83 40 6 53 97 187 168 188 186 84 71 54 53 97 225 84 71 27 26 116 188 85 18 210 45 11 36 169 10 218 97 61 30 85 18 210 35 133 118 86 136 66 201 189 126 78 64 3 201 189 126 86 136 66 10 135 67 87 83 207 22 79 113 122 78 212 87 83 207 77 155 195 22 79 113 156 67 9 88 66 137 42 190 71 157 191 138 42 190 71 88 66 137 25 112 192 185 121 22 108 59 171 72 110 41 89 165 220 25 112 99 133 118 7 90 31 148 196 119 79 29 33 89 196 119 79 90 31 148 194 192 18 144 29 143 76 28 74 34 193 144 91 89 152 200 25 155 42 190 71 157 191 138 150 127 10 55 128 57 92 172 141 9 194 73 84 71 54 168 188 186 93 69 203 38 137 53 111 109 228 93 69 203 94 24 85 40 81 158 17 141 93 40 81 158 94 24 85 186 23 91 95 144 32 82 75 199 12 187 105 95 144 32 127 55 198 96 54 104 3 178 111 96 54 104 173 177 197 96 54 104 3 178 111 95 144 32 27 161 190 97 61 30 13 134 191 97 61 30 27 161 190 8 180 109 200 25 155 7 184 145 34 193 144 181 27 165 149 173 47 98 195 82 129 2 58 99 84 179 183 0 110 68 183 178 99 84 179 17 141 93 100 174 167 21 169 50 56 130 168 181 27 165 139 50 48 160 49 49 54 30 4 19 94 127 101 91 62 19 94 127 59 167 122 195 43 124 83 40 6 102 7 134 10 135 67 102 7 134 54 30 4 138 90 128 188 44 121 103 95 0 184 42 2 4 160 135 103 95 0 20 159 123 44 182 162 148 41 81 104 149 16 12 187 105 44 182 162 104 149 16 81 5 147 52 96 1 105 16 129 105 16 129 52 96 1 59 167 122 0 154 65 106 45 132 155 153 133 156 67 9 0 154 65 37 63 64 107 176 159 129 2 58 145 1 196 61 38 38 107 176 159 23 104 102 108 59 171 29 33 89 136 196 170 29 33 89 108 59 171 185 121 22 187 115 28 109 114 189 5 168 97 56 130 168 5 168 97 109 114 189 177 120 15 189 163 156 113 13 83 89 165 173 2 164 90 110 122 172 1 108 224 30 123 107 111 109 202 80 74 201 111 109 202 30 123 107 32 197 96 112 129 183 79 138 51 11 185 163 112 129 183 32 197 96 113 13 83 28 198 150 177 120 15 113 13 83 133 118 7 28 198 150 75 58 98 13 134 191 114 35 29 114 35 29 13 134 191 35 133 118 39 124 115 115 140 214 16 77 37 24 125 200 115 140 214 39 124 115 1 108 182 116 85 95 50 106 223 116 85 95 1 108 182 79 138 51 117 98 88 56 130 168 33 99 13 56 130 168 117 98 88 100 174 167 118 117 209 84 71 27 158 70 229 45 11 36 118 117 209 15 175 117 123 103 103 9 194 73 119 147 8 88 66 137 119 147 8 157 191 138 33 99 13 120 113 108 8 180 109 8 180 109 120 113 108 97 61 30 121 107 25 24 125 200 30 123 107 24 125 200 121 107 25 167 52 181 128 143 35 122 78 212 41 76 114 122 78 212 16 77 37 41 76 114 9 194 73 123 103 103 173 177 197 142 102 31 173 177 197 123 103 103 124 4 78 48 158 68 52 96 1 48 158 68 124 4 78 90 31 148 168 188 186 53 97 187 125 48 185 38 137 53 125 48 185 175 139 184 50 106 180 18 87 12 126 6 94 121 107 25 50 106 180 126 6 94 12 187 105 127 55 198 95 144 32 104 149 16 127 55 198 12 187 105 41 76 114 182 145 208 128 143 35 62 199 206 128 143 35 182 145 208 99 84 179 129 2 58 170 200 160 170 200 160 151 37 86 14 39 11 37 63 64 14 39 11 130 68 131 37 63 64 130 68 131 156 67 9 23 104 102 131 146 136 61 38 38 131 146 136 198 105 70 61 38 38 132 9 119 66 151 230 16 77 37 66 151 230 132 9 119 143 150 231 133 118 7 4 160 135 48 158 68 4 160 135 133 118 7 73 181 69 186 23 91 65 22 157 134 14 17 51 186 174 134 14 17 189 163 156 67 51 19 135 8 161 44 182 162 148 41 81 44 182 162 135 8 161 136 196 170 49 60 21 108 59 171 49 60 21 136 196 170 64 162 169 137 86 164 71 88 153 18 87 12 71 88 153 137 86 164 11 185 163 10 135 67 138 90 128 201 189 126 138 90 128 10 135 67 102 7 134 152 26 87 32 197 96 139 50 48 139 50 48 175 139 184 125 48 185 140 157 211 22 79 113 77 155 195 22 79 113 140 157 211 16 77 37 164 111 100 141 36 194 47 156 20 140 157 211 47 156 24 141 36 226 62 199 206 142 102 31 145 1 196 142 102 31 62 199 206 3 178 111 15 175 117 143 150 217 45 11 36 45 11 43 143 150 231 132 9 119 176 93 75 34 193 144 7 184 145 144 29 143 194 192 18 34 193 144 145 1 196 23 104 102 107 176 159 23 104 102 145 1 196 142 102 31 146 19 112 74 62 205 187 115 28 74 62 205 146 19 112 85 18 210 52 96 1 20 159 123 147 166 60 147 166 60 20 159 123 103 95 0 150 127 10 31 171 80 148 41 81 31 171 80 104 149 16 148 41 81 149 173 47 7 184 145 98 195 82 69 132 76 7 184 145 149 173 47 92 172 141 150 127 10 157 191 138 31 171 80 150 127 10 92 172 141 151 37 86 170 200 160 129 2 58 129 2 58 107 176 159 151 37 86 91 89 152 11 185 163 197 131 154 32 197 96 152 26 87 11 185 163 68 183 178 6 179 222 153 100 101 77 155 195 153 100 101 6 179 222 59 167 122 154 17 63 105 16 129 59 167 122 19 94 127 154 17 63 193 126 140 83 40 6 155 153 133 36 47 72 155 153 133 106 45 132 0 154 65 156 67 9 106 45 132 42 190 71 106 45 132 156 67 9 9 194 73 157 191 138 119 147 8 157 191 138 9 194 73 92 172 141 15 175 117 158 70 229 58 73 34 158 70 229 15 175 117 118 117 209 134 14 17 65 22 157 159 12 84 73 181 69 159 12 84 65 22 157 181 27 165 160 49 49 199 201 166 53 97 187 199 201 166 160 49 49 161 15 5 191 148 146 43 20 77 69 132 76 161 15 5 19 94 127 57 101 120 162 21 233 16 77 37 114 35 46 162 21 233 57 101 120 51 186 174 72 110 23 163 82 175 164 111 100 163 82 221 72 110 41 163 82 221 164 111 100 63 80 176 47 156 20 63 80 176 164 111 100 18 87 12 165 170 142 102 7 134 165 170 142 18 87 12 76 28 74 40 81 158 166 142 92 68 183 178 166 142 92 6 179 177 68 183 178 70 57 106 167 52 181 67 51 19 167 52 181 70 57 106 24 125 200 93 69 203 168 188 186 38 137 53 125 48 185 38 137 53 168 188 186 169 10 218 35 133 118 85 18 210 35 133 118 169 10 218 114 35 29 14 39 11 17 141 93 170 200 160 170 200 160 17 141 93 99 84 179 103 95 0 78 64 3 171 152 125 171 152 125 78 64 3 201 189 126 31 171 80 172 53 151 104 149 16 55 128 57 172 53 151 31 171 80 173 177 197 55 128 57 9 194 73 55 128 57 173 177 197 96 54 104 150 127 10 174 46 139 42 190 71 106 45 132 42 190 71 174 46 139 79 138 51 175 139 184 32 197 96 175 139 184 139 50 48 32 197 96 34 193 144 176 93 75 144 29 143 54 30 4 144 29 143 176 93 75 177 120 15 110 122 172 2 164 90 110 122 172 177 120 15 29 33 89 178 3 149 33 99 13 64 162 169 192 32 14 178 3 149 64 162 169 25 112 99 179 34 193 72 110 41 25 112 99 114 35 40 179 34 193 73 181 69 180 65 130 103 95 0 14 39 11 180 65 130 73 181 69 149 173 47 181 27 165 100 174 167 199 201 166 100 174 167 181 27 165 182 145 208 3 178 111 62 199 206 3 178 111 182 145 208 95 144 32 145 1 196 183 0 110 62 199 206 128 143 35 62 199 206 183 0 110 184 42 2 171 152 125 46 92 61 184 42 2 46 92 61 101 91 62 25 112 99 89 165 220 185 121 39 110 122 172 185 121 22 89 165 173 134 14 17 51 186 174 186 23 91 163 82 175 186 23 91 51 186 174 187 115 28 26 116 188 146 19 112 5 168 97 26 116 188 187 115 28 59 167 122 147 166 60 188 44 121 103 95 0 188 44 121 147 166 60 2 164 90 189 163 156 177 120 15 189 163 156 2 164 90 51 186 174 16 77 37 190 72 215 39 124 115 80 74 227 39 124 115 190 72 215 149 173 47 191 148 146 69 132 76 69 132 76 191 148 146 161 15 5 64 162 169 136 196 170 192 32 14 192 32 14 136 196 170 29 33 89 155 153 133 36 47 72 193 126 140 150 127 10 193 126 140 36 47 72 91 89 152 194 192 18 76 28 74 91 89 152 34 193 144 194 192 18 101 91 62 195 43 124 184 42 2 195 43 124 101 91 62 19 94 127 196 119 79 28 198 150 133 118 7 177 120 15 28 198 150 196 119 79 152 26 87 197 131 154 11 185 163 152 26 87 200 25 155 197 131 154 130 68 131 198 105 70 88 66 137 119 147 8 88 66 137 198 105 70 53 97 187 21 169 50 199 201 166 100 174 167 199 201 166 21 169 50 7 184 145 200 25 155 98 195 82 181 27 165 98 195 82 200 25 155 46 92 61 201 189 126 138 90 128 201 189 126 46 92 61 171 152 125</p>
        </triangles>
      </mesh>
    </geometry>
    <geometry id="geom-col-1_20" name="col-1">
      <mesh>
        <source id="geom-col-1_20-positions">
          <float_array id="geom-col-1_20-positions-array" count="69">-1.018134 -0.1955873 -0.1002346 -0.2374468 -1.299206 0.1149841 -1.125847 0.2560396 0.8490334 -0.518519 -0.5439672 1.00193 0.218127 -1.054488 0.6537578 0.9019033 -0.937946 0.1327459 0.3087016 0.188628 1.175289 -0.2653878 0.7397622 0.8737544 0.3673882 1.114421 0.1159189 -0.4153761 1.064875 -0.02420171 0.5361769 -0.6883465 -0.3197119 -0.4370849 0.1155035 -0.4602479 0.6526152 0.3629218 -0.4078975 -0.3486916 -1.107566 -0.196522 -0.1285911 0.9921662 -0.2832535 0.7560697 0.6829453 -0.1649456 0.5821913 0.7821411 0.5785559 0.9989179 0.006232201 -0.1133222 -0.6814911 -0.02305914 1.124289 -0.7836991 0.2008846 -0.3480684 0.9006568 -0.7699885 -0.1472877 0.3660379 0.4949406 1.088558 -0.08029151 -1.269291 -0.1011694</float_array>
          <technique_common>
            <accessor source="#geom-col-1_20-positions-array" count="23" stride="3">
              <param name="X" type="float"/>
              <param name="Y" type="float"/>
              <param name="Z" type="float"/>
            </accessor>
          </technique_common>
        </source>
        <source id="geom-col-1_20-normals">
          <float_array id="geom-col-1_20-normals-array" count="378">-0.8199657 -0.5473917 0.1673878 -0.8199657 -0.5473916 0.1673878 -0.8199657 -0.5473916 0.1673878 -0.796231 -0.5613344 0.2256542 -0.796231 -0.5613345 0.2256542 -0.796231 -0.5613345 0.2256542 0.6053527 -0.3450336 0.7172864 0.6053527 -0.3450336 0.7172864 0.6053528 -0.3450337 0.7172865 0.1569724 -0.3917759 0.9065711 0.1569724 -0.3917759 0.9065711 0.1569724 -0.3917759 0.9065712 0.2949601 -0.9389584 0.1770753 0.2949601 -0.9389585 0.1770753 0.2949601 -0.9389583 0.1770753 -0.2645328 -0.7740204 0.5752519 -0.2645328 -0.7740204 0.5752519 -0.2645328 -0.7740204 0.5752519 -0.1223483 0.9264883 0.3558796 -0.1223483 0.9264884 0.3558796 -0.1223483 0.9264883 0.3558795 -0.4634774 0.8055837 0.3690847 -0.4634775 0.8055837 0.3690847 -0.4634775 0.8055837 0.3690847 0.06837133 -0.0909133 -0.993509 0.06837133 -0.0909133 -0.9935089 0.06837133 -0.0909133 -0.993509 -0.0349898 -0.2130685 -0.9764104 -0.0349898 -0.2130685 -0.9764106 -0.0349898 -0.2130685 -0.9764105 -0.8076492 -0.5852941 -0.07164875 -0.8076493 -0.5852941 -0.07164875 -0.8076493 -0.5852941 -0.07164875 -0.01045517 0.9596716 -0.2809291 -0.01045517 0.9596716 -0.2809291 -0.01045517 0.9596716 -0.2809291 0.002344515 0.1971092 -0.9803788 0.002344515 0.1971092 -0.9803787 0.002344515 0.1971092 -0.9803787 0.288726 0.517953 -0.8052093 0.288726 0.517953 -0.8052093 0.288726 0.517953 -0.8052093 0.3304746 0.7056723 -0.6267481 0.3304746 0.7056722 -0.6267481 0.3304746 0.7056723 -0.6267481 0.769791 0.631061 0.09583221 0.7697909 0.6310609 0.0958322 0.769791 0.631061 0.09583221 0.9233336 0.3443199 0.1699965 0.9233337 0.3443199 0.1699965 0.9233336 0.3443199 0.1699965 0.7549361 0.2238977 -0.6163938 0.7549361 0.2238977 -0.6163938 0.7549361 0.2238978 -0.6163938 -0.2657382 0.4285701 0.8635455 -0.2657383 0.4285701 0.8635455 -0.2657382 0.4285701 0.8635455 -0.6441737 -0.3600525 0.6748351 -0.6441737 -0.3600525 0.6748351 -0.6441737 -0.3600525 0.6748351 -0.001175871 -0.2290196 0.9734211 -0.001175871 -0.2290196 0.973421 -0.001175871 -0.2290196 0.9734211 -0.5154722 0.4846488 -0.7066852 -0.5154722 0.4846488 -0.7066852 -0.5154722 0.4846488 -0.7066852 -0.2352556 0.2712196 -0.9333245 -0.2352556 0.2712196 -0.9333245 -0.2352556 0.2712197 -0.9333246 -0.3492422 -0.2215599 -0.9104621 -0.3492421 -0.2215599 -0.9104621 -0.3492422 -0.2215599 -0.9104621 -0.4670408 -0.2533906 -0.8471518 -0.4670408 -0.2533906 -0.8471518 -0.4670408 -0.2533906 -0.8471518 -0.8478046 0.4602021 -0.2635171 -0.8478047 0.4602021 -0.2635172 -0.8478046 0.4602021 -0.2635171 -0.8931894 0.3582489 -0.2717913 -0.8931894 0.3582488 -0.2717913 -0.8931894 0.3582488 -0.2717913 0.6204394 -0.04427858 -0.7830034 0.6204394 -0.04427858 -0.7830034 0.6204394 -0.04427858 -0.7830034 0.4022885 -0.120685 -0.9075236 0.4022884 -0.120685 -0.9075236 0.4022885 -0.120685 -0.9075236 0.9895157 -0.1218707 -0.07749958 0.9895157 -0.1218707 -0.07749958 0.9895157 -0.1218707 -0.07749958 -0.1596592 0.3855577 0.9087653 -0.1596592 0.3855577 0.9087653 -0.1596592 0.3855577 0.9087652 -0.1109422 0.2899249 0.9505973 -0.1109422 0.2899249 0.9505973 -0.1109422 0.2899249 0.9505973 0.8962245 0.09495553 0.4333186 0.8962246 0.09495553 0.4333186 0.8962245 0.09495553 0.4333186 0.1427217 0.8347294 0.5318433 0.1427217 0.8347294 0.5318433 0.1427217 0.8347295 0.5318433 0.1457049 0.8343609 0.5316127 0.1457049 0.834361 0.5316127 0.1457049 0.8343609 0.5316127 0.8609278 -0.01718803 0.5084368 0.8609278 -0.01718803 0.5084368 0.8609278 -0.01718803 0.5084368 0.8890865 0.02772127 0.4568988 0.8890866 0.02772127 0.4568988 0.8890866 0.02772127 0.4568988 -0.3712522 -0.8441555 -0.3867472 -0.3712521 -0.8441555 -0.3867472 -0.3712522 -0.8441555 -0.3867472 0.2998853 -0.9500408 0.08655229 0.2998853 -0.9500408 0.08655229 0.2998853 -0.9500408 0.08655229 0.3808171 -0.7922107 -0.4768444 0.3808171 -0.7922107 -0.4768444 0.3808171 -0.7922106 -0.4768444 0.07109582 -0.4164135 -0.9063913 0.07109582 -0.4164135 -0.9063913 0.07109582 -0.4164135 -0.9063913 0.2481833 -0.5605627 -0.7900472 0.2481833 -0.5605626 -0.7900472 0.2481833 -0.5605627 -0.7900472</float_array>
          <technique_common>
            <accessor source="#geom-col-1_20-normals-array" count="126" stride="3">
              <param name="X" type="float"/>
              <param name="Y" type="float"/>
              <param name="Z" type="float"/>
            </accessor>
          </technique_common>
        </source>
        <vertices id="geom-col-1_20-vertices">
          <input semantic="POSITION" source="#geom-col-1_20-positions"/>
        </vertices>
        <triangles material="ColorMaterial" count="42">
          <input semantic="VERTEX" source="#geom-col-1_20-vertices" offset="0"/>
          <input semantic="NORMAL" source="#geom-col-1_20-normals" offset="1"/>
          <p>0 0 1 1 2 2 3 3 2 4 1 5 4 6 5 7 6 8 4 9 6 10 3 11 4 12 1 13 5 14 4 15 3 16 1 17 7 18 8 19 9 20 7 21 9 22 2 23 10 24 11 25 12 26 13 27 11 28 10 29 13 30 1 31 0 32 14 33 9 34 8 35 14 36 12 37 11 38 15 39 12 40 14 41 15 42 14 43 8 44 15 45 8 46 16 47 15 48 16 49 17 50 15 51 17 52 12 53 18 54 7 55 2 56 18 57 2 58 3 59 18 60 3 61 6 62 19 63 9 64 14 65 19 66 14 67 11 68 19 69 11 70 13 71 19 72 13 73 0 74 19 75 2 76 9 77 19 78 0 79 2 80 20 81 12 82 17 83 20 84 10 85 12 86 20 87 17 88 5 89 21 90 7 91 18 92 21 93 18 94 6 95 21 96 17 97 16 98 21 99 8 100 7 101 21 102 16 103 8 104 21 105 6 106 5 107 21 108 5 109 17 110 22 111 1 112 13 113 22 114 5 115 1 116 22 117 20 118 5 119 22 120 13 121 10 122 22 123 10 124 20 125</p>
        </triangles>
      </mesh>
    </geometry>
    <geometry id="geom-bounds_20" name="bounds">
      <mesh>
        <source id="geom-bounds_20-positions">
          <float_array id="geom-bounds_20-positions-array" count="24">-1.170104 -1.288079 -0.5439482 1.015466 -1.288079 -0.5439482 -1.170104 1.17484 -0.5439482 1.015466 1.17484 -0.5439482 -1.170104 -1.288079 1.181362 1.015466 -1.288079 1.181362 -1.170104 1.17484 1.181362 1.015466 1.17484 1.181362</float_array>
          <technique_common>
            <accessor source="#geom-bounds_20-positions-array" count="8" stride="3">
              <param name="X" type="float"/>
              <param name="Y" type="float"/>
              <param name="Z" type="float"/>
            </accessor>
          </technique_common>
        </source>
        <source id="geom-bounds_20-normals">
          <float_array id="geom-bounds_20-normals-array" count="72">0 0 -1 0 0 -1 0 0 -1 0 0 -1 0 0 1 0 0 1 0 0 1 0 0 1 0 -1 0 0 -1 0 0 -1 0 0 -1 0 1 0 0 1 0 0 1 0 0 1 0 0 0 1 0 0 1 0 0 1 0 0 1 0 -1 0 0 -1 0 0 -1 0 0 -1 0 0</float_array>
          <technique_common>
            <accessor source="#geom-bounds_20-normals-array" count="24" stride="3">
              <param name="X" type="float"/>
              <param name="Y" type="float"/>
              <param name="Z" type="float"/>
            </accessor>
          </technique_common>
        </source>
        <vertices id="geom-bounds_20-vertices">
          <input semantic="POSITION" source="#geom-bounds_20-positions"/>
        </vertices>
        <triangles material="greyrock_1" count="12">
          <input semantic="VERTEX" source="#geom-bounds_20-vertices" offset="0"/>
          <input semantic="NORMAL" source="#geom-bounds_20-normals" offset="1"/>
          <p>0 0 2 1 3 2 3 2 1 3 0 0 4 4 5 5 7 6 7 6 6 7 4 4 0 8 1 9 5 10 5 10 4 11 0 8 1 12 3 13 7 14 7 14 5 15 1 12 3 16 2 17 6 18 6 18 7 19 3 16 2 20 0 21 4 22 4 22 6 23 2 20</p>
        </triangles>
      </mesh>
    </geometry>
  </library_geometries>
  <library_lights>
    <light id="EnvironmentAmbientLight" name="EnvironmentAmbientLight">
      <technique_common>
        <ambient>
          <color>0 0 0</color>
        </ambient>
      </technique_common>
    </light>
  </library_lights>
  <library_images>
    <image id="grayrock_diffuse_png">
      <init_from>file:///C:/Projects/ForestKitNew/art/shapes/rocks/grayrock_diffuse.png</init_from>
    </image>
    <image id="grayrock_diffuse_dds">
      <init_from>file:///E:/Projects/Pacific/game/art/shapes/rocks/grayrock_diffuse.dds</init_from>
    </image>
  </library_images>
  <library_visual_scenes>
    <visual_scene id="MaxScene">
      <node name="EnvironmentAmbientLight">
        <instance_light url="#EnvironmentAmbientLight"/>
      </node>
      <node id="node-base00" name="base00">
        <matrix>1 0 0 0 0 1 0 0 0 0 1 0 0 0 0 1</matrix>
        <node id="node-start00" name="start00">
          <matrix>1 0 0 0 0 1 0 0 0 0 1 0 0 0 0 1</matrix>
          <node id="node-smallrockseven100" name="smallrockseven100">
            <matrix>1 0 0 0 0 1 0 0 0 0 1 0 0 0 0 1</matrix>
            <instance_geometry url="#geom-smallrockseven100">
              <bind_material>
                <technique_common>
                  <instance_material symbol="tex_underwater_rock_1" target="#tex_underwater_rock-material">
                    <bind_vertex_input semantic="CHANNEL1" input_semantic="TEXCOORD" input_set="1"/>
                    <bind_vertex_input semantic="CHANNEL1" input_semantic="TEXCOORD" input_set="1"/>
                  </instance_material>
                </technique_common>
              </bind_material>
            </instance_geometry>
          </node>
          <node id="node-smallrockseven200" name="smallrockseven200">
            <matrix>1 0 0 0 0 1 0 0 0 0 1 0 0 0 0 1</matrix>
            <instance_geometry url="#geom-smallrockseven200">
              <bind_material>
                <technique_common>
                  <instance_material symbol="tex_underwater_rock" target="#tex_underwater_rock-material">
                    <bind_vertex_input semantic="CHANNEL1" input_semantic="TEXCOORD" input_set="1"/>
                    <bind_vertex_input semantic="CHANNEL1" input_semantic="TEXCOORD" input_set="1"/>
                  </instance_material>
                </technique_common>
              </bind_material>
            </instance_geometry>
          </node>
          <node id="node-smallrockseven400" name="smallrockseven400">
            <matrix>1 0 0 0 0 1 0 0 0 0 1 0 0 0 0 1</matrix>
            <instance_geometry url="#geom-smallrockseven400">
              <bind_material>
                <technique_common>
                  <instance_material symbol="tex_underwater_rock" target="#tex_underwater_rock-material">
                    <bind_vertex_input semantic="CHANNEL1" input_semantic="TEXCOORD" input_set="1"/>
                    <bind_vertex_input semantic="CHANNEL1" input_semantic="TEXCOORD" input_set="1"/>
                  </instance_material>
                </technique_common>
              </bind_material>
            </instance_geometry>
          </node>
        </node>
        <node id="node-detail200" name="detail200">
          <matrix>1 0 0 0 0 1 0 0 0 0 1 0 0 0 0 1</matrix>
        </node>
        <node id="node-detail400" name="detail400">
          <matrix>1 0 0 0 0 1 0 0 0 0 1 0 0 0 0 1</matrix>
        </node>
        <node id="node-Collision-1" name="Collision-1">
          <matrix>1 0 0 0 0 1 0 0 0 0 1 0 0 0 0 1</matrix>
        </node>
        <node id="node-Collision-2" name="Collision-2">
          <matrix>1 0 0 0 0 1 0 0 0 0 1 0 0 0 0 1</matrix>
        </node>
        <node id="node-detail100" name="detail100">
          <matrix>1 0 0 0 0 1 0 0 0 0 1 0 0 0 0 1</matrix>
        </node>
        <node id="node-BB__detail30" name="BB__detail30">
          <matrix>1 0 0 0 0 1 0 0 0 0 1 0 0 0 0 1</matrix>
          <extra>
            <technique profile="OpenCOLLADA">
              <user_properties>BB:DIM=128
BB::EQUATOR_STEPS=16
BB::POLAR_STEPS=0
BB::POLAR_ANGLE=60
BB::INCLUDE_POLES=0
BB::DL=0</user_properties>
            </technique>
          </extra>
        </node>
      </node>
      <node id="node-col-1_20" name="col-1">
        <matrix>1 0 0 0 0 1 0 0 0 0 1 0 0 0 0 1</matrix>
        <instance_geometry url="#geom-col-1_20">
          <bind_material>
            <technique_common>
              <instance_material symbol="ColorMaterial" target="#ColorEffectR154G154B229-material"/>
            </technique_common>
          </bind_material>
        </instance_geometry>
      </node>
      <node id="node-bounds_20" name="bounds">
        <matrix>1 0 0 0 0 1 0 0 0 0 1 0 0 0 0 1</matrix>
        <instance_geometry url="#geom-bounds_20">
          <bind_material>
            <technique_common>
              <instance_material symbol="greyrock_1" target="#greyrock-material">
                <bind_vertex_input semantic="CHANNEL1" input_semantic="TEXCOORD" input_set="1"/>
              </instance_material>
            </technique_common>
          </bind_material>
        </instance_geometry>
      </node>
    </visual_scene>
  </library_visual_scenes>
  <scene>
    <instance_visual_scene url="#MaxScene"/>
  </scene>
</COLLADA>